Name,BirthDate,Team,Division,BodyweightKg,WeightClassKg,Squat1Kg,Squat2Kg,Squat3Kg,Best3SquatKg,Bench1Kg,Bench2Kg,Bench3Kg,Best3BenchKg,Deadlift1Kg,Deadlift2Kg,Deadlift3Kg,Best3DeadliftKg,TotalKg,Place,Sex,Equipment,Event
Dianne Hextall,,NM,F-C-M2,45.9,47,50,55,57.5,57.5,32.5,35,36.5,36.5,80,90,95,95,189,1,F,Raw,SBD
Jenna Brown,,NM,F-C-Open,50.1,52,90,97.5,105,105,55,57.5,-62.5,57.5,105,115,122.5,122.5,285,1,F,Raw,SBD
Lily Belsher,,NM,F-C-U23,50.5,52,50,55,57.5,57.5,25,30,33,33,67.5,72.5,77.5,77.5,168,1,F,Raw,SBD
Suzanne Dakin,,NM,F-C-Open,55.8,57,90,97.5,100,100,45,52.5,-55,52.5,140,150,157.5,157.5,310,1,F,Raw,SBD
Shonaugh Clapham,,NM,F-C-Open,55.6,57,105,110,-115,110,47.5,50,-52.5,50,112.5,120,-125,120,280,2,F,Raw,SBD
Mia Tavinor,,NM,F-C-U18,55.4,57,92.5,97.5,102.5,102.5,40,45,-50,45,100,102.5,105,105,252.5,1,F,Raw,SBD
Angela Houldershaw,,NM,F-C-M2,62.7,63,75,82.5,87.5,87.5,42.5,47.5,50,50,110,117.5,122.5,122.5,260,1,F,Raw,SBD
Anne Irving,,NM,F-C-M1,59,63,55,60,65,65,25,27.5,-30,27.5,70,77.5,82.5,82.5,175,1,F,Raw,SBD
Sophie Hardy,,NM,F-C-Open,61.9,63,125,130,132.5,132.5,70,72.5,-75,72.5,135,140,145,145,350,1,F,Raw,SBD
Cat Bryden,,NM,F-C-Open,60.7,63,80,85,87.5,87.5,40,45,-47.5,45,110,115,117.5,117.5,250,2,F,Raw,SBD
Elizabeth Fletcher,,NM,F-C-Open,61.5,63,65,70,75,75,32.5,35,-37.5,35,80,87.5,95,95,205,3,F,Raw,SBD
Alice Coulson,,NM,F-C-Open,60.6,63,47.5,52.5,55,55,25,27.5,30,30,72.5,77.5,82.5,82.5,167.5,4,F,Raw,SBD
Sarah Clark,,NM,F-C-U23,61.2,63,70,80,85,85,35,40,-42.5,40,95,105,107.5,107.5,232.5,1,F,Raw,SBD
Sarah Knowles,,NM,F-C-M1,68.3,72,80,85,-90,85,45,50,-52.5,50,125,132.5,140,140,275,1,F,Raw,SBD
Lucy Smith,,NM,F-C-M1,69.5,72,70,75,80,80,32.5,35,37.5,37.5,95,102.5,-107.5,102.5,220,2,F,Raw,SBD
Holly Bryans,,NM,F-C-Open,71,72,155,-170,170,170,77.5,82.5,87.5,87.5,165,180,185,185,442.5,1,F,Raw,SBD
Amy May Saunders,,NM,F-C-Open,69.5,72,117.5,125,130,130,65,70,-72.5,70,132.5,140,145,145,345,2,F,Raw,SBD
Holly Cox,,Guest,F-C-G,65.2,72,97.5,102.5,107.5,107.5,52.5,55,57.5,57.5,132.5,140,-142.5,140,305,G,F,Raw,SBD
Leanne Wilson,,NM,F-C-Open,70.2,72,90,100,107.5,107.5,42.5,47.5,50,50,120,135,142.5,142.5,300,4,F,Raw,SBD
Charly Proctor,,NM,F-C-Open,69.7,72,100,105,110,110,55,57.5,60,60,105,112.5,120,120,290,5,F,Raw,SBD
Natalie Hill #1,,NM,F-C-Open,68.2,72,92.5,97.5,102.5,102.5,42.5,47.5,52.5,52.5,102.5,112.5,120,120,275,6,F,Raw,SBD
Cassie Cliff,,NM,F-C-Open,71,72,80,90,100,100,55,60,62.5,62.5,85,95,102.5,102.5,265,7,F,Raw,SBD
Ashley Lewis #1,,NM,F-C-U23,70.3,72,92.5,97.5,102.5,102.5,82.5,-86.5,-86.5,82.5,120,130,135,135,320,1,F,Raw,SBD
Holly Hume,,NM,F-C-U23,69.6,72,100,112.5,120,120,55,65,70,70,105,115,125,125,315,2,F,Raw,SBD
Ebony Harker,,NM,F-C-U23,69.7,72,77.5,82.5,87.5,87.5,40,45,47.5,47.5,85,90,95,95,230,3,F,Raw,SBD
Kyra Nettle,,NM,F-C-M1,78.2,84,95,100,105,105,37.5,-40,40,40,102.5,110,115,115,260,1,F,Raw,SBD
Jo Parry,,NM,F-C-M1,76.2,84,60,67.5,72.5,72.5,37.5,42.5,-45,42.5,95,102.5,112.5,112.5,227.5,2,F,Raw,SBD
Sadie Hurst,,NM,F-C-Open,78.4,84,107.5,115,122.5,122.5,55,62.5,-65,62.5,125,140,145,145,330,1,F,Raw,SBD
Amy Clarke,,NM,F-C-Open,83.8,84,-105,112.5,120,120,57.5,65,67.5,67.5,125,140,-147.5,140,327.5,2,F,Raw,SBD
Faye Gardner,,NM,F-C-Open,80.4,84,67.5,72.5,77.5,77.5,35,40,42.5,42.5,90,95,100,100,220,3,F,Raw,SBD
Rachael Ward,,NM,F-C-M2,96.2,84+,90,97.5,102.5,102.5,50,52.5,55,55,102.5,110,117.5,117.5,275,1,F,Raw,SBD
Fionn Morven,,NM,F-C-M2,85.5,84+,75,80,85,85,40,42.5,-45,42.5,90,97.5,102.5,102.5,230,2,F,Raw,SBD
Hollie Gardner,,NM,F-C-Open,93.9,84+,115,120,-125,120,50,52.5,55,55,125,135,150,150,325,1,F,Raw,SBD
Emma Harris,,Guest,F-C-G,84.4,84+,100,105,-110,105,50,52.5,-55,52.5,142.5,150,-155,150,307.5,G,F,Raw,SBD
Ted Byrne,,NM,M-C-M3,58.5,59,110,120,127.5,127.5,70,75,-81.5,75,-150,162.5,180,180,382.5,1,M,Raw,SBD
Will McDonald,,NM,M-C-Open,64.8,66,140,150,155,155,100,110,-115,110,185,-200,-200,185,450,1,M,Raw,SBD
Jody Carvell,,NM,M-C-M1,72,74,150,157.5,162.5,162.5,85,90,92.5,92.5,170,182.5,192.5,192.5,447.5,1,M,Raw,SBD
Luke Dixon,,NM,M-C-Open,72.3,74,175,182.5,192.5,192.5,110,117.5,-122.5,117.5,200,210,215,215,525,1,M,Raw,SBD
Jordan Duffy,,NM,M-C-Open,72.6,74,157.5,165,172.5,172.5,107.5,115,-122.5,115,172.5,187.5,197.5,197.5,485,2,M,Raw,SBD
Ben Pape,,NM,M-C-U23,83,83,222.5,232.5,236,236,127.5,-135,135,135,255,266,275.5,275.5,646.5,1,M,Raw,SBD
Will Simpson,,NM,M-C-U23,82.1,83,210,220,230,230,137.5,145,147.5,147.5,210,227.5,235,235,612.5,2,M,Raw,SBD
Shaun Haynes,,NM,M-E-M1,82.7,83,-180,200,220,220,170,180,185,185,180,200,220,220,625,1,M,Single-ply,SBD
Martyn Brown,,NM,M-C-Open,91.5,93,215,225,235,235,120,127.5,135,135,225,245,-250,245,615,1,M,Raw,SBD
Tom Gee #2,1994-10-14,NM,M-C-Open,84.8,93,187.5,202.5,-205,202.5,130,-140,-140,130,260,-275,,260,592.5,2,M,Raw,SBD
Thomas Freestone,,NM,M-C-Open,88.8,93,187.5,197.5,205,205,120,125,132.5,132.5,205,215,222.5,222.5,560,3,M,Raw,SBD
James Davison,,NM,M-C-Open,85.4,93,160,-170,-170,160,80,-92.5,-92.5,80,180,190,-200,190,430,4,M,Raw,SBD
Michael Coupe,,NM,M-C-Open,91.4,93,75,82.5,90,90,70,80,90,90,150,165,180,180,360,5,M,Raw,SBD
Max Dooley,,NM,M-C-Open,92,93,190,200,-205,200,117.5,122.5,-127.5,122.5,,,,,,DQ,M,Raw,SBD
Hamed Farjam,,NM,M-C-Open,93.3,105,220,235,240,240,130,145,-150,145,242.5,260,275,275,660,1,M,Raw,SBD
Thomas Grey,,NM,M-C-Open,103.4,105,220,227.5,232.5,232.5,135,142.5,147.5,147.5,235,245,252.5,252.5,632.5,2,M,Raw,SBD
Simon Smyth,,NM,M-C-Open,103.6,105,215,225,237.5,237.5,140,150,155,155,220,230,-235,230,622.5,3,M,Raw,SBD
Frank McCaskill,,NM,M-C-Open,94.1,105,215,-225,-227.5,215,140,150,-155,150,240,-242.5,-242.5,240,605,4,M,Raw,SBD
Nick Bloomfield,,NM,M-C-Open,103.3,105,215,225,230,230,135,140,145,145,200,230,-235,230,605,5,M,Raw,SBD
Jason Talbot,,NM,M-E-M1,95.5,105,180,200,205,205,185,195,200.5,200.5,175,200,220,220,625.5,1,M,Single-ply,SBD
John Hamson,,NM,M-E-Open,102.3,105,300,320,335,335,215,-225,225,225,275,300,310,310,870,1,M,Single-ply,SBD
Brandon Scott #2,,NM,M-C-U23,118.1,120,210,-215,215,215,150,155,-160,155,240,250,-260,250,620,1,M,Raw,SBD
Graham McGuiness,,NM,M-C-Open,114.5,120,170,190,200,200,115,122.5,130,130,210,235,245,245,575,1,M,Raw,SBD
Richard Gough,,NM,M-C-M1,140.1,120+,90,102.5,105,105,75,82.5,-90,82.5,120,132.5,140,140,327.5,1,M,Raw,SBD
