Division,WeightClassKg,Place,Name,Team,BodyweightKg,Best3SquatKg,Best3BenchKg,Best3DeadliftKg,TotalKg,Equipment,Event,Sex
Boys,55.79,1,Isaac Gonzalez,Austin Akins,51.94,124.74,74.84,136.08,335.66,Single-ply,SBD,M
Boys,51.71,2,Sam Cooper,Leander,50.8,108.86,61.23,111.13,281.23,Single-ply,SBD,M
Boys,51.71,3,Joseph Lendo,Leander,50.35,97.52,56.7,111.13,265.35,Single-ply,SBD,M
Boys,51.71,4,Chad Gouge,Pflugerville Hendrickson,48.31,65.77,36.29,83.91,185.97,Single-ply,SBD,M
Boys,55.79,DQ,Alex Wright #3,Killeen Harker Heights,51.85,,,,,Single-ply,SBD,M
Boys,55.79,1,David Valladolid,Austin Akins,55.66,136.08,52.16,129.27,317.51,Single-ply,SBD,M
Boys,55.79,2,Adrian Dominguez,Leander,52.21,79.38,34.02,86.18,199.58,Single-ply,SBD,M
Boys,59.87,DQ,Alex Saintlouis,Killeen Shoemaker,55.93,,,,,Single-ply,SBD,M
Boys,59.87,1,Lee Mitchell,Hutto,59.74,142.88,97.52,147.42,387.82,Single-ply,SBD,M
Boys,59.87,2,Calvin Guillory,Round Rock McNeil,59.15,147.42,68.04,167.83,383.29,Single-ply,SBD,M
Boys,59.87,3,Matt Maldonado,Del Valle,59.87,138.35,88.45,156.49,383.29,Single-ply,SBD,M
Boys,59.87,4,Dominic Matthews,Killeen Shoemaker,59.56,136.08,72.57,170.1,378.75,Single-ply,SBD,M
Boys,59.87,5,Jordan Murphy,Austin Lake Travis,59.51,140.61,74.84,122.47,337.93,Single-ply,SBD,M
Boys,59.87,6,Kevion Harris,Pflugerville Connally,56.74,122.47,61.23,129.27,312.98,Single-ply,SBD,M
Boys,59.87,7,Jeremy Gamel,Pflugerville Hendrickson,56.2,115.67,61.23,133.81,310.71,Single-ply,SBD,M
Boys,59.87,8,Steven Cruz,Pflugerville Hendrickson,57.24,63.5,40.82,113.4,217.72,Single-ply,SBD,M
Boys,67.13,1,Joe Brown #4,Burnet,67,195.04,102.06,206.38,503.49,Single-ply,SBD,M
Boys,67.13,2,William Robinson,Round Rock,65.5,199.58,113.4,188.24,501.22,Single-ply,SBD,M
Boys,67.13,3,Jeallious Ordillano,Pflugerville Connally,62.32,163.29,99.79,,263.08,Single-ply,SB,M
Boys,67.13,4,Greg Haynes,Killeen Harker Heights,63.55,172.37,86.18,181.44,439.98,Single-ply,SBD,M
Boys,67.13,5,Felix Morales,Killeen Shoemaker,65.45,176.9,92.99,165.56,435.45,Single-ply,SBD,M
Boys,67.13,6,Axel Gomez,Austin Lake Travis,63.91,147.42,102.06,172.37,421.84,Single-ply,SBD,M
Boys,67.13,7,Patrick Williams #4,Hutto,66.5,136.08,90.72,181.44,408.23,Single-ply,SBD,M
Boys,67.13,8,Austin Stephen,College Station A&M Cons,64.46,145.15,95.25,158.76,399.16,Single-ply,SBD,M
Boys,67.13,9,Marquel Davis,Manor,66.45,142.88,88.45,167.83,399.16,Single-ply,SBD,M
Boys,67.13,10,Trace Gain,College Station A&M Cons,66.81,138.35,104.33,149.69,392.36,Single-ply,SBD,M
Boys,67.13,11,Zach Cheyne,College Station A&M Cons,60.42,142.88,86.18,158.76,387.82,Single-ply,SBD,M
Boys,67.13,12,Zach Robles,Burnet,65.73,136.08,81.65,163.29,381.02,Single-ply,SBD,M
Boys,67.13,13,Mareck Garcia,Austin Bowie,62.69,142.88,79.38,156.49,378.75,Single-ply,SBD,M
Boys,67.13,14,Dylan Lyon,Cedar Park Vista Ridge,64.59,145.15,83.91,149.69,378.75,Single-ply,SBD,M
Boys,67.13,15,Luke Wells,Pflugerville Hendrickson,65.23,133.81,72.57,158.76,365.14,Single-ply,SBD,M
Boys,67.13,16,DaVonte Lyons,Pflugerville Connally,64.91,122.47,83.91,151.95,358.34,Single-ply,SBD,M
Boys,67.13,17,Darrell Porter,Killeen Shoemaker,60.46,142.88,74.84,138.35,356.07,Single-ply,SBD,M
Boys,74.84,18,Kevin Reed,Marble Falls,67.22,122.47,81.65,127.01,331.12,Single-ply,SBD,M
Boys,67.13,19,Cameron Wrinkle,Austin Lake Travis,66.54,145.15,90.72,90.72,326.59,Single-ply,SBD,M
Boys,67.13,20,Angel Maldonado,Austin Akins,67,106.59,47.63,120.2,274.42,Single-ply,SBD,M
Boys,67.13,21,Shaquille Roberts,Manor,62.19,88.45,61.23,95.25,244.94,Single-ply,SBD,M
Boys,67.13,22,Colby Humphrey,Cedar Park Vista Ridge,64.46,79.38,54.43,106.59,240.4,Single-ply,SBD,M
Boys,67.13,DQ,Yazid Al-Saleh,Pflugerville,64.09,,,,,Single-ply,SBD,M
Boys,82.1,1,John Monreal,Del Valle,74.93,233.6,120.2,217.72,571.53,Single-ply,SBD,M
Boys,74.84,2,Jonas Lanier,Killeen Harker Heights,72.94,201.85,97.52,244.94,544.31,Single-ply,SBD,M
Boys,74.84,3,Christian Jones,Pflugerville Hendrickson,74.34,170.1,102.06,206.38,478.54,Single-ply,SBD,M
Boys,74.84,4,Josh Fronk,Burnet,71.99,181.44,88.45,181.44,451.32,Single-ply,SBD,M
Boys,74.84,5,Devonte Dewitty,Austin Anderson,73.44,156.49,104.33,183.7,444.52,Single-ply,SBD,M
Boys,74.84,6,Ryan West,Burnet,73.71,172.37,79.38,170.1,421.84,Single-ply,SBD,M
Boys,74.84,7,Tim Hollingshed,Killeen Shoemaker,73.84,151.95,86.18,181.44,419.57,Single-ply,SBD,M
Boys,74.84,8,Cris Reeves,Hutto,69.31,149.69,104.33,158.76,412.77,Single-ply,SBD,M
Boys,74.84,9,Aaron Lugo,Austin Bowie,70.4,145.15,102.06,158.76,405.97,Single-ply,SBD,M
Boys,74.84,10,Aaron Beal,Killeen Shoemaker,74.84,145.15,83.91,163.29,392.36,Single-ply,SBD,M
Boys,74.84,11,Andre McShan,Killeen Shoemaker,67.99,124.74,92.99,163.29,381.02,Single-ply,SBD,M
Boys,74.84,12,Adrian Duncan,Cedar Park Vista Ridge,73.62,129.27,86.18,156.49,371.95,Single-ply,SBD,M
Boys,74.84,13,Zach Streuling,Austin Lake Travis,74.48,142.88,74.84,147.42,365.14,Single-ply,SBD,M
Boys,74.84,14,Tyler Lamy,Killeen Harker Heights,69.63,124.74,86.18,136.08,347,Single-ply,SBD,M
Boys,74.84,15,Hunter Gabbard,Cedar Park Vista Ridge,71.94,124.74,81.65,124.74,331.12,Single-ply,SBD,M
Boys,74.84,16,Patrick Cunningham,Cedar Park Vista Ridge,70.22,115.67,83.91,129.27,328.85,Single-ply,SBD,M
Boys,74.84,17,Brandon Fritz,Cedar Park Vista Ridge,71.17,117.93,86.18,111.13,315.25,Single-ply,SBD,M
Boys,74.84,18,Travis Mendenhall,Pflugerville Hendrickson,74.43,83.91,68.04,127.01,278.96,Single-ply,SBD,M
Boys,74.84,DQ,Jamison Cotterall,Cedar Park Vista Ridge,73.12,104.33,,,,Single-ply,SBD,M
Boys,82.1,1,Cj Foster,Killeen Harker Heights,81.65,226.8,136.08,240.4,603.28,Single-ply,SBD,M
Boys,82.1,2,James Perry #1,Manor,80.24,249.48,129.27,219.99,598.74,Single-ply,SBD,M
Boys,89.81,3,Nii Tagoe,Pflugerville Connally,82.28,226.8,124.74,226.8,578.33,Single-ply,SBD,M
Boys,82.1,4,Dillon Ferguson,Burnet,75.75,226.8,136.08,195.04,557.92,Single-ply,SBD,M
Boys,82.1,5,Jathan Craig,Burnet,80.51,204.12,147.42,206.38,557.92,Single-ply,SBD,M
Boys,82.1,6,Marcel Houston,Killeen Harker Heights,80.69,222.26,113.4,204.12,539.77,Single-ply,SBD,M
Boys,82.1,7,Nelson Iugula,Pflugerville Connally,80.15,213.19,99.79,204.12,517.1,Single-ply,SBD,M
Boys,82.1,8,Frankie Alvarez,Austin Bowie,80.83,199.58,108.86,208.65,517.1,Single-ply,SBD,M
Boys,82.1,9,James Azar,Dripping Springs,76.07,172.37,117.93,204.12,494.42,Single-ply,SBD,M
Boys,82.1,10,John Keith,Manor,80.15,188.24,113.4,192.78,494.42,Single-ply,SBD,M
Boys,82.1,11,Jacob Green,Leander,81.69,195.04,86.18,195.04,476.27,Single-ply,SBD,M
Boys,82.1,12,Omar Duke-Tinson,Austin Lake Travis,76.88,190.51,92.99,190.51,474,Single-ply,SBD,M
Boys,82.1,13,Kalen Fontenette,Pflugerville Hendrickson,75.75,188.24,97.52,183.7,469.47,Single-ply,SBD,M
Boys,82.1,14,Josh Araiza,Marble Falls,80.78,165.56,95.25,204.12,464.93,Single-ply,SBD,M
Boys,82.1,15,Mason Thom,Cedar Park Vista Ridge,80.47,174.63,99.79,183.7,458.13,Single-ply,SBD,M
Boys,82.1,16,Dustin Kuehler,Burnet,77.02,181.44,99.79,174.63,455.86,Single-ply,SBD,M
Boys,82.1,17,Juedon Kebede,Austin Bowie,77.16,185.97,99.79,167.83,453.59,Single-ply,SBD,M
Boys,82.1,18,Jacob Mansour,Austin Westlake,81.42,165.56,92.99,195.04,453.59,Single-ply,SBD,M
Boys,82.1,19,Collin Lagasse,Austin Lake Travis,82.01,190.51,99.79,163.29,453.59,Single-ply,SBD,M
Boys,82.1,20,Jonathon Ybarra,Pflugerville Hendrickson,80.69,170.1,97.52,181.44,449.06,Single-ply,SBD,M
Boys,82.1,21,Crockett Savage,Marble Falls,79.83,158.76,106.59,165.56,430.91,Single-ply,SBD,M
Boys,82.1,22,Johnny Jefferson,Killeen Shoemaker,77.34,149.69,97.52,181.44,428.64,Single-ply,SBD,M
Boys,82.1,23,Bradley Haag,Round Rock McNeil,77.79,154.22,104.33,170.1,428.64,Single-ply,SBD,M
Boys,82.1,24,Terry Marcell,Killeen Shoemaker,77.66,161.03,102.06,158.76,421.84,Single-ply,SBD,M
Boys,82.1,25,Joey Willis,Manor,76.43,163.29,81.65,174.63,419.57,Single-ply,SBD,M
Boys,82.1,26,Garrett Hoover,Pflugerville Hendrickson,81.6,158.76,102.06,149.69,410.5,Single-ply,SBD,M
Boys,82.1,27,Michael Clouston,College Station A&M Cons,80.29,161.03,81.65,161.03,403.7,Single-ply,SBD,M
Boys,82.1,28,Albert Walker,Pflugerville,80.83,161.03,92.99,129.27,383.29,Single-ply,SBD,M
Boys,82.1,29,Justin Luttrell,Pflugerville Connally,81.19,149.69,90.72,138.35,378.75,Single-ply,SBD,M
Boys,82.1,30,Frederick Schmidt,Burnet,79.38,131.54,63.5,149.69,344.73,Single-ply,SBD,M
Boys,89.81,31,Fidel Estrada,Cedar Park Vista Ridge,82.28,115.67,70.31,136.08,322.05,Single-ply,SBD,M
Boys,82.1,32,Taylor Works,Austin Westlake,76.48,113.4,61.23,124.74,299.37,Single-ply,SBD,M
Boys,82.1,DQ,Hunter Matlock,Austin Bowie,77.38,185.97,,,,Single-ply,SBD,M
Boys,82.1,DQ,Matt Grisdale,Pflugerville Connally,82.1,156.49,108.86,,,Single-ply,SBD,M
Boys,89.81,1,Andrew Mitchell,Marble Falls,88.22,244.94,136.08,244.94,625.96,Single-ply,SBD,M
Boys,89.81,2,Cody Cronauer,Dripping Springs,89.09,226.8,142.88,240.4,610.08,Single-ply,SBD,M
Boys,99.79,3,Caleb Gardner,Austin Bowie,90.04,226.8,138.35,,365.14,Single-ply,SB,M
Boys,89.81,4,Kevin Henderson,Hutto,85,240.4,117.93,192.78,551.11,Single-ply,SBD,M
Boys,89.81,5,Philip Fitzgerald,Round Rock,87.18,226.8,115.67,208.65,551.11,Single-ply,SBD,M
Boys,89.81,6,David Levias,College Station A&M Cons,87.86,204.12,124.74,208.65,537.51,Single-ply,SBD,M
Boys,89.81,7,Grayson Floyd,Burnet,87.77,217.72,106.59,192.78,517.1,Single-ply,SBD,M
Boys,89.81,8,Luis Garcia #2,College Station A&M Cons,88.59,197.31,120.2,181.44,498.95,Single-ply,SBD,M
Boys,89.81,9,Matt Mainiero,Round Rock McNeil,85.18,204.12,97.52,192.78,494.42,Single-ply,SBD,M
Boys,89.81,10,Tyler Paulsen,Austin Lake Travis,88.59,167.83,117.93,181.44,467.2,Single-ply,SBD,M
Boys,89.81,11,Luke Duhon,Cedar Park Vista Ridge,87.32,151.95,129.27,183.7,464.93,Single-ply,SBD,M
Boys,89.81,12,Rueben DelaRosa,Austin Anderson,88.22,158.76,111.13,190.51,460.4,Single-ply,SBD,M
Boys,89.81,13,Adam Jemmott,Austin Lake Travis,89.63,163.29,106.59,183.7,453.59,Single-ply,SBD,M
Boys,89.81,14,Juan Schwitzgebel,Austin Anderson,88.5,161.03,106.59,176.9,444.52,Single-ply,SBD,M
Boys,89.81,15,Conner Floyd,Austin Lake Travis,86.09,158.76,92.99,181.44,433.18,Single-ply,SBD,M
Boys,89.81,16,Robert Becevva,Pflugerville,88.77,174.63,92.99,165.56,433.18,Single-ply,SBD,M
Boys,89.81,17,Ryan Taylor #8,Austin Bowie,85.05,154.22,108.86,161.03,424.11,Single-ply,SBD,M
Boys,89.81,18,Jeremy Amberger,Austin Lake Travis,86.77,154.22,90.72,170.1,415.04,Single-ply,SBD,M
Boys,89.81,19,Ryan Van Ert,Austin Westlake,85.59,170.1,79.38,156.49,405.97,Single-ply,SBD,M
Boys,89.81,20,Ryan Ubwu,Pflugerville,83.01,151.95,92.99,138.35,383.29,Single-ply,SBD,M
Boys,89.81,21,Chandler Mabray,Marble Falls,87.27,147.42,65.77,147.42,360.61,Single-ply,SBD,M
Boys,89.81,22,Colby Schreib,Austin Lake Travis,84.73,117.93,65.77,129.27,312.98,Single-ply,SBD,M
Boys,89.81,DQ,Graeme Ramsey,Dripping Springs,88.22,217.72,,,,Single-ply,SBD,M
Boys,89.81,DQ,Elijah Brown,Pflugerville Connally,87.72,213.19,,,,Single-ply,SBD,M
Boys,89.81,DQ,Zac Freeland,Pflugerville Connally,86,172.37,122.47,,,Single-ply,SBD,M
Boys,99.79,1,Jared Hallman,Round Rock McNeil,96.43,226.8,145.15,272.16,644.1,Single-ply,SBD,M
Boys,99.79,2,Victor Irokansi,Pflugerville Hendrickson,94.53,192.78,124.74,206.38,523.9,Single-ply,SBD,M
Boys,99.79,3,Corbin Marroquin,Round Rock,98.57,199.58,113.4,210.92,523.9,Single-ply,SBD,M
Boys,109.77,4,Deondre Barrs,Pflugerville,99.88,195.04,124.74,195.04,514.83,Single-ply,SBD,M
Boys,99.79,5,Chief Okarocha,Pflugerville Connally,91.04,181.44,99.79,226.8,508.02,Single-ply,SBD,M
Boys,99.79,6,Robert Salas,College Station A&M Cons,90.72,190.51,115.67,197.31,503.49,Single-ply,SBD,M
Boys,99.79,7,Matt Schwartz,Austin Westlake,95.35,172.37,124.74,188.24,485.34,Single-ply,SBD,M
Boys,99.79,8,Zack Dees,Killeen Harker Heights,93.39,170.1,108.86,197.31,476.27,Single-ply,SBD,M
Boys,99.79,9,Curtis Loeffel,Austin Westlake,98.02,170.1,108.86,195.04,474,Single-ply,SBD,M
Boys,99.79,10,Terrance Hall,Manor,96.62,172.37,104.33,185.97,462.66,Single-ply,SBD,M
Boys,99.79,11,Xavier Gadlin,Manor,97.2,156.49,117.93,174.63,449.06,Single-ply,SBD,M
Boys,99.79,12,Kyle Kavanaugh,College Station A&M Cons,97.57,195.04,88.45,161.03,444.52,Single-ply,SBD,M
Boys,99.79,13,Kyle Connell,Austin Lake Travis,93.3,165.56,111.13,161.03,437.72,Single-ply,SBD,M
Boys,99.79,14,Casey Laney,Austin Lake Travis,97.98,156.49,111.13,165.56,433.18,Single-ply,SBD,M
Boys,99.79,15,Brett Leatherwood,Austin Anderson,93.39,142.88,92.99,170.1,405.97,Single-ply,SBD,M
Boys,99.79,16,Adrian Connor,Pflugerville Hendrickson,94.66,142.88,72.57,147.42,362.87,Single-ply,SBD,M
Boys,99.79,17,Vincent Campuzano,Marble Falls,98.66,129.27,90.72,142.88,362.87,Single-ply,SBD,M
Boys,99.79,18,Joseph Aniekwe,Pflugerville Connally,95.21,111.13,77.11,122.47,310.71,Single-ply,SBD,M
Boys,99.79,19,Daniel Ross,Pflugerville,98.97,,124.74,,124.74,Single-ply,B,M
Boys,99.79,DQ,Devon Moore,Killeen Harker Heights,98.34,192.78,,,,Single-ply,SB,M
Boys,109.77,1,Alex Wallace,Burnet,108.05,260.82,129.27,249.48,639.57,Single-ply,SBD,M
Boys,109.77,2,James Revada,Pflugerville Connally,107.09,249.48,149.69,226.8,625.96,Single-ply,SBD,M
Boys,109.77,3,Zach Spires,Dripping Springs,100.38,233.6,136.08,,369.68,Single-ply,SB,M
Boys,109.77,4,Ronnie Boatwright,Marble Falls,106.28,222.26,127.01,229.06,578.33,Single-ply,SBD,M
Boys,109.77,5,Charles Nguyen,Killeen Harker Heights,108.77,240.4,124.74,213.19,578.33,Single-ply,SBD,M
Boys,109.77,6,Mac Arnett,Hutto,104.78,219.99,120.2,235.87,576.06,Single-ply,SBD,M
Boys,109.77,7,Dayon Denmon,Del Valle,104.78,219.99,124.74,219.99,564.72,Single-ply,SBD,M
Boys,109.77,8,Richard Ginsberg,Burnet,107.27,226.8,142.88,185.97,555.65,Single-ply,SBD,M
Boys,109.77,9,Vincent Martinez,Austin Bowie,108.09,208.65,136.08,210.92,555.65,Single-ply,SBD,M
Boys,109.77,10,Tyler Mills,Round Rock McNeil,103.46,208.65,106.59,238.14,553.38,Single-ply,SBD,M
Boys,109.77,11,Andrew Turnage,Austin Bowie,107.73,213.19,111.13,222.26,546.58,Single-ply,SBD,M
Boys,109.77,12,John Robin Torres,Austin Bowie,108.18,195.04,113.4,217.72,526.17,Single-ply,SBD,M
Boys,109.77,13,Sam Schlanger,Austin Lake Travis,102.56,170.1,117.93,183.7,471.74,Single-ply,SBD,M
Boys,109.77,14,Adam Berenson,Austin Anderson,103.87,163.29,120.2,188.24,471.74,Single-ply,SBD,M
Boys,109.77,15,Shane Carter,Pflugerville Hendrickson,103.37,174.63,92.99,195.04,462.66,Single-ply,SBD,M
Boys,109.77,16,Nick Magnella,Austin Lake Travis,101.88,174.63,111.13,174.63,460.4,Single-ply,SBD,M
Boys,109.77,17,Jonathan Roman,Pflugerville Connally,100.83,165.56,113.4,165.56,444.52,Single-ply,SBD,M
Boys,109.77,18,James Heath,Round Rock McNeil,103.42,147.42,102.06,170.1,419.57,Single-ply,SBD,M
Boys,109.77,DQ,Gus Ekno,Pflugerville,109.13,183.7,,,,Single-ply,SBD,M
Boys,124.74,1,Savon Thomas,Pflugerville,115.39,251.74,142.88,242.67,637.3,Single-ply,SBD,M
Boys,124.74,2,Kyle Malone,Leander,112.22,238.14,136.08,222.26,596.47,Single-ply,SBD,M
Boys,124.74,3,Neal White,Austin Lake Travis,122.92,233.6,117.93,235.87,587.4,Single-ply,SBD,M
Boys,124.74,4,Tyler Jones #6,Austin Westlake,114.08,249.48,102.06,204.12,555.65,Single-ply,SBD,M
Boys,124.74,5,Nick Cardenas,Austin Bowie,115.44,222.26,117.93,199.58,539.77,Single-ply,SBD,M
Boys,124.74,6,Jonathan Roberts,Austin Lake Travis,113.31,197.31,136.08,201.85,535.24,Single-ply,SBD,M
Boys,124.74,7,Benson Hinze,Round Rock McNeil,112.04,215.46,111.13,197.31,523.9,Single-ply,SBD,M
Boys,124.74,8,Adam Burns,Pflugerville Connally,110.31,190.51,106.59,213.19,510.29,Single-ply,SBD,M
Boys,124.74,9,Kd Ragsdale,College Station A&M Cons,116.66,217.72,111.13,181.44,510.29,Single-ply,SBD,M
Boys,124.74,10,Jacob Gonzales,Austin Anderson,114.17,181.44,120.2,192.78,494.42,Single-ply,SBD,M
Boys,124.74,11,Anthony Carchi,Austin Lake Travis,124.69,165.56,124.74,183.7,474,Single-ply,SBD,M
Boys,124.74,12,Paul Guerra,Pflugerville Connally,115.21,174.63,120.2,170.1,464.93,Single-ply,SBD,M
Boys,124.74,13,Victor Don Juan,Leander,114.35,188.24,106.59,165.56,460.4,Single-ply,SBD,M
Boys,124.74,14,Zach Dillon,Austin Lake Travis,122.2,158.76,102.06,192.78,453.59,Single-ply,SBD,M
Boys,124.74+,15,Tyrone Newson,Killeen Shoemaker,124.92,149.69,113.4,172.37,435.45,Single-ply,SBD,M
Boys,124.74,16,Dominic Chirco,Killeen Shoemaker,118.12,172.37,86.18,163.29,421.84,Single-ply,SBD,M
Boys,124.74,DQ,Matt Van Horn,Leander,111.08,,,,,Single-ply,SBD,M
Boys,124.74,DQ,Ian Medford,Austin Lake Travis,111.9,151.95,,,,Single-ply,SBD,M
Boys,124.74,DQ,Reid Palachek,Austin Bowie,114.08,195.04,,,,Single-ply,SBD,M
Boys,124.74,DQ,Michael Buya,Marble Falls,113.04,,,,,Single-ply,SBD,M
Boys,124.74+,1,DeVontae Robinson,Pflugerville Hendrickson,131.72,249.48,156.49,226.8,632.76,Single-ply,SBD,M
Boys,124.74+,2,Cyril Lemon,Marble Falls,143.43,258.55,117.93,249.48,625.96,Single-ply,SBD,M
Boys,124.74+,3,Matt Wilson #3,Austin Bowie,135.85,249.48,136.08,238.14,623.69,Single-ply,SBD,M
Boys,124.74+,4,Jason McVey,Round Rock McNeil,125.28,215.46,108.86,226.8,551.11,Single-ply,SBD,M
Boys,124.74+,5,Riley Holmes,Austin Anderson,127.14,201.85,122.47,219.99,544.31,Single-ply,SBD,M
Boys,124.74+,6,Bob Crozier,Austin Anderson,126.78,183.7,122.47,181.44,487.61,Single-ply,SBD,M
Boys,124.74+,7,Justin O'Neal,Manor,125.55,183.7,102.06,190.51,476.27,Single-ply,SBD,M
Boys,124.74+,8,David Trullinger,Leander,125.51,154.22,92.99,165.56,412.77,Single-ply,SBD,M
Boys,124.74+,9,Miguel Martinez,Cedar Park Vista Ridge,128.91,142.88,113.4,151.95,408.23,Single-ply,SBD,M
Boys,124.74+,DQ,Jon Cryer,Cedar Park Vista Ridge,132.95,235.87,,,,Single-ply,SBD,M
Boys,124.74+,DQ,Lucas Zoller,Austin Bowie,125.42,199.58,,,,Single-ply,SBD,M
Boys,124.74+,DQ,Matthew Carr,Leander,138.62,,,,,Single-ply,SBD,M
Boys,124.74+,DQ,Tj Ervin,Manor,135.99,192.78,113.4,,,Single-ply,SBD,M
Boys,124.74+,DQ,Alex Fitzgerald,Round Rock,130.68,,,,,Single-ply,SBD,M
Boys,124.74+,DQ,Dylan Hinojosa,Pflugerville Connally,163.52,151.95,108.86,,,Single-ply,SBD,M
