Division,WeightClassKg,Place,Name,Team,BodyweightKg,Best3SquatKg,Best3BenchKg,Best3DeadliftKg,TotalKg,Equipment,Event,Sex
Boys,51.71,1,Gavon Gardner,Meadow,51.35,108.86,54.43,133.81,297.1,Single-ply,SBD,M
Boys,51.71,2,Juan Duran,Lubbock Cooper,45.99,102.06,61.23,124.74,288.03,Single-ply,SBD,M
Boys,51.71,3,Arturo Rodriguez,Meadow,51.53,92.99,54.43,113.4,260.82,Single-ply,SBD,M
Boys,51.71,4,Triston Davis,Sundown,40.69,86.18,45.36,95.25,226.8,Single-ply,SBD,M
Boys,51.71,5,Abel Portales,Meadow,49.67,72.57,47.63,102.06,222.26,Single-ply,SBD,M
Boys,51.71,6,Kyle Welch,Lubbock Roosevelt,42.46,70.31,43.09,86.18,199.58,Single-ply,SBD,M
Boys,51.71,DQ,Kohl Angely,Tahoka,43.64,58.97,,,,Single-ply,SBD,M
Boys,51.71,DQ,Jose Garcia #1,Brownfield,51.03,102.06,,,,Single-ply,SBD,M
Boys,59.87,1,Brett Salas,Lubbock Cooper,55.84,142.88,72.57,165.56,381.02,Single-ply,SBD,M
Boys,55.79,2,Isaiah Piedra,Brownfield,55.43,113.4,65.77,138.35,317.51,Single-ply,SBD,M
Boys,55.79,3,Dusty Rowcliffe,Lubbock Roosevelt,54.57,95.25,68.04,117.93,281.23,Single-ply,SBD,M
Boys,55.79,4,Ethan Mullin,Meadow,55.11,90.72,47.63,117.93,256.28,Single-ply,SBD,M
Boys,55.79,5,Ryan Punchard,Lubbock Cooper,52.62,79.38,58.97,102.06,240.4,Single-ply,SBD,M
Boys,59.87,1,Landon Morgan,Sundown,58.97,142.88,81.65,158.76,383.29,Single-ply,SBD,M
Boys,67.13,1,Julian Paiz,Sundown,64.59,172.37,90.72,181.44,444.52,Single-ply,SBD,M
Boys,67.13,2,Markee Rodriguez,Brownfield,66.72,156.49,102.06,147.42,405.97,Single-ply,SBD,M
Boys,67.13,3,Bj Trevino,Lubbock Cooper,66.22,149.69,77.11,163.29,390.09,Single-ply,SBD,M
Boys,67.13,4,Brady Tekell,Meadow,66.41,131.54,79.38,156.49,367.41,Single-ply,SBD,M
Boys,67.13,5,Jonathan Flores,Meadow,62.37,129.27,68.04,161.03,358.34,Single-ply,SBD,M
Boys,67.13,6,Andrew Castillo,Meadow,65.54,129.27,74.84,149.69,353.8,Single-ply,SBD,M
Boys,67.13,7,Kordell Baker,Tahoka,65.32,124.74,79.38,138.35,342.46,Single-ply,SBD,M
Boys,67.13,8,Shye Miers,Lubbock Roosevelt,62.14,124.74,77.11,136.08,337.93,Single-ply,SBD,M
Boys,67.13,9,Chandler Craig,Lubbock Cooper,66,115.67,86.18,133.81,335.66,Single-ply,SBD,M
Boys,67.13,10,Abraham Trevino,Lubbock Cooper,62.87,108.86,77.11,136.08,322.05,Single-ply,SBD,M
Boys,67.13,11,Keagan Daniel,Lubbock Roosevelt,64.5,108.86,70.31,140.61,319.78,Single-ply,SBD,M
Boys,67.13,12,Tyson Farmer,Lubbock Cooper,65.27,102.06,74.84,138.35,315.25,Single-ply,SBD,M
Boys,67.13,13,Tate Hill,Lubbock Roosevelt,63.32,95.25,74.84,117.93,288.03,Single-ply,SBD,M
Boys,67.13,14,Tanner Copeland,Lubbock Roosevelt,61.69,97.52,58.97,117.93,274.42,Single-ply,SBD,M
Boys,74.84,DQ,Ian Zamarron,Tahoka,67.31,149.69,,,,Single-ply,SBD,M
Boys,74.84,1,Andrew Flores,Meadow,72.26,170.1,111.13,185.97,467.2,Single-ply,SBD,M
Boys,74.84,2,Luis Torrez,Meadow,73.44,170.1,111.13,167.83,449.06,Single-ply,SBD,M
Boys,74.84,3,Rafael Urias,Meadow,70.94,163.29,102.06,179.17,444.52,Single-ply,SBD,M
Boys,74.84,4,Trystan Hilger,Tahoka,73.57,156.49,113.4,170.1,439.98,Single-ply,SBD,M
Boys,74.84,5,Kenny Schuette,Lubbock Roosevelt,74.12,124.74,117.93,163.29,405.97,Single-ply,SBD,M
Boys,74.84,6,Evan Esparza,Meadow,71.94,140.61,83.91,172.37,396.89,Single-ply,SBD,M
Boys,74.84,7,Jon Chavez,Sundown,69.72,156.49,72.57,161.03,390.09,Single-ply,SBD,M
Boys,74.84,8,Dilyn Castle,Lubbock Roosevelt,74.62,136.08,79.38,158.76,374.21,Single-ply,SBD,M
Boys,74.84,9,Heath Green,Sundown,70.72,145.15,68.04,158.76,371.95,Single-ply,SBD,M
Boys,74.84,10,Rodney Warren,Brownfield,73.8,122.47,83.91,161.03,367.41,Single-ply,SBD,M
Boys,74.84,11,Cesar Retana,Meadow,69.76,122.47,70.31,154.22,347,Single-ply,SBD,M
Boys,74.84,12,Aaron Aguirre,Brownfield,72.21,113.4,61.23,120.2,294.84,Single-ply,SBD,M
Boys,74.84,DQ,Bobby Joe Ortiz,Brownfield,69.72,115.67,,,,Single-ply,SBD,M
Boys,74.84,DQ,Chance Cook,Tahoka,68.04,183.7,,,,Single-ply,SBD,M
Boys,82.1,1,Randy Zamora,Meadow,76.88,199.58,127.01,201.85,528.44,Single-ply,SBD,M
Boys,82.1,2,Roland Zamora,Meadow,79.24,197.31,102.06,201.85,501.22,Single-ply,SBD,M
Boys,82.1,3,Jeremy Mize,Sundown,78.93,181.44,106.59,190.51,478.54,Single-ply,SBD,M
Boys,82.1,4,Will Sanford,Sundown,78.29,145.15,95.25,174.63,415.04,Single-ply,SBD,M
Boys,82.1,5,Victor Rodriguez,Lubbock Roosevelt,79.11,136.08,92.99,167.83,396.89,Single-ply,SBD,M
Boys,82.1,6,Eddie Hernandez,Meadow,76.75,142.88,77.11,174.63,394.63,Single-ply,SBD,M
Boys,82.1,DQ,Luke Hancock,Brownfield,79.7,,,,,Single-ply,SBD,M
Boys,89.81,1,Fili Jaquez,Lubbock Cooper,88.99,235.87,142.88,233.6,612.35,Single-ply,SBD,M
Boys,89.81,2,Brady McClellan,Lubbock Cooper,86.45,161.03,99.79,165.56,426.38,Single-ply,SBD,M
Boys,89.81,3,Issac Rodriguez,Lubbock Roosevelt,86.91,136.08,97.52,165.56,399.16,Single-ply,SBD,M
Boys,89.81,4,Ryan Cruz,Meadow,88.22,127.01,72.57,142.88,342.46,Single-ply,SBD,M
Boys,89.81,5,Terry Waller,Lubbock Cooper,88.18,102.06,79.38,129.27,310.71,Single-ply,SBD,M
Boys,89.81,6,Will Cox,Lubbock Roosevelt,85.73,117.93,81.65,108.86,308.44,Single-ply,SBD,M
Boys,89.81,DQ,Ryker Allison,Brownfield,88.22,156.49,,,,Single-ply,SBD,M
Boys,89.81,DQ,Tim Rodriguez,Sundown,87.09,176.9,102.06,,,Single-ply,SBD,M
Boys,99.79,1,Montana Vega,Lubbock Cooper,97.57,210.92,131.54,226.8,569.26,Single-ply,SBD,M
Boys,99.79,2,Spencer Chance,Sundown,92.12,195.04,122.47,213.19,530.7,Single-ply,SBD,M
Boys,99.79,3,Sammy Sambrano,Brownfield,96.16,204.12,131.54,192.78,528.44,Single-ply,SBD,M
Boys,99.79,4,Jeremiah DeLeon,Tahoka,99.65,190.51,129.27,167.83,487.61,Single-ply,SBD,M
Boys,99.79,5,Bryce McHam,Sundown,96.16,170.1,106.59,181.44,458.13,Single-ply,SBD,M
Boys,99.79,6,Dom Herrera,Tahoka,99.74,183.7,95.25,165.56,444.52,Single-ply,SBD,M
Boys,99.79,7,Jackson Stevens,Lubbock Cooper,91.94,136.08,88.45,138.35,362.87,Single-ply,SBD,M
Boys,99.79,DQ,Brennon Bishop,Lubbock Roosevelt,96.75,158.76,,,,Single-ply,SBD,M
Boys,109.77,1,Caelan Decker,Tahoka,109.32,199.58,142.88,174.63,517.1,Single-ply,SBD,M
Boys,109.77,2,Andrew Clayman,Brownfield,103.6,204.12,122.47,172.37,498.95,Single-ply,SBD,M
Boys,124.74,3,Jim Trevino,Lubbock Roosevelt,110,170.1,102.06,190.51,462.66,Single-ply,SBD,M
Boys,109.77,4,Eddie Aguirre,Brownfield,104.55,170.1,92.99,172.37,435.45,Single-ply,SBD,M
Boys,109.77,5,Sebastian Lopez,Lubbock Cooper,105.41,151.95,104.33,158.76,415.04,Single-ply,SBD,M
Boys,109.77,6,Roman Alvarado,Brownfield,101.97,142.88,99.79,147.42,390.09,Single-ply,SBD,M
Boys,109.77,7,Michael Gallegas,Lubbock Cooper,109.32,142.88,81.65,151.95,376.48,Single-ply,SBD,M
Boys,124.74,1,Jonathan Aguilar,Lubbock Roosevelt,117.53,154.22,97.52,147.42,399.16,Single-ply,SBD,M
Boys,124.74+,1,Byron Lara,Lubbock Cooper,140.48,258.55,199.58,240.4,698.53,Single-ply,SBD,M
Boys,124.74+,2,Eric Garcia,Lubbock Roosevelt,126.19,204.12,131.54,195.04,530.7,Single-ply,SBD,M
Boys,124.74+,3,Riley Thompson,Sundown,127.28,181.44,111.13,199.58,492.15,Single-ply,SBD,M
Boys,124.74+,4,Joseph Villarreal,Lubbock Roosevelt,130.32,154.22,92.99,176.9,424.11,Single-ply,SBD,M
Boys,124.74+,5,Colter Shoemaker,Lubbock Roosevelt,126.82,136.08,97.52,147.42,381.02,Single-ply,SBD,M
