Division,WeightClassKg,Place,Name,Team,BodyweightKg,Best3SquatKg,Best3BenchKg,Best3DeadliftKg,TotalKg,Equipment,Event,Sex
Boys,51.71,1,John Ortega,Mercedes,47.63,136.08,88.45,149.69,374.21,Single-ply,SBD,M
Boys,51.71,2,Eric Estrella,Brownsville Lopez,47.63,124.74,61.23,138.35,324.32,Single-ply,SBD,M
Boys,51.71,3,Andrew Garcia,Brownsville Lopez,51.71,111.13,70.31,122.47,303.91,Single-ply,SBD,M
Boys,51.71,4,Dustin Repass,Lyford,41.28,63.5,27.22,74.84,165.56,Single-ply,SBD,M
Boys,55.79,1,Corbin Garza,Los Fresnos,55.34,170.1,90.72,188.24,449.06,Single-ply,SBD,M
Boys,55.79,2,Eric Capistran,Brownsville Veterans Memorial,55.34,161.03,88.45,172.37,421.84,Single-ply,SBD,M
Boys,55.79,DQ,Jose Reyes,Brownsville Lopez,55.79,,,,,Single-ply,SBD,M
Boys,59.87,1,Joel Sanchez #2,Brownsville Veterans Memorial,58.06,213.19,106.59,217.72,537.51,Single-ply,SBD,M
Boys,59.87,2,Frank Hernandez,Rio Hondo,58.97,165.56,97.52,170.1,433.18,Single-ply,SBD,M
Boys,59.87,3,Mark Ortega,Mercedes,56.25,156.49,95.25,174.63,426.38,Single-ply,SBD,M
Boys,59.87,4,Elijah Ramirez,Port Isabel,59.42,154.22,88.45,167.83,410.5,Single-ply,SBD,M
Boys,59.87,5,Adrian Nino,Port Isabel,57.15,149.69,79.38,136.08,365.14,Single-ply,SBD,M
Boys,59.87,6,Tyler McClaugherty,Lyford,57.15,136.08,61.23,127.01,324.32,Single-ply,SBD,M
Boys,59.87,7,Joe Rivera Rodriguez,Lyford,58.97,102.06,56.7,117.93,276.69,Single-ply,SBD,M
Boys,59.87,9,Randall de Leon,Lyford,57.15,92.99,54.43,102.06,249.48,Single-ply,SBD,M
Boys,59.87,DQ,Valentin Rosas,Lyford,56.7,92.99,52.16,,,Single-ply,SBD,M
Boys,67.13,1,Marcos Chavez,Lyford,64.41,183.7,115.67,231.33,530.7,Single-ply,SBD,M
Boys,67.13,2,Cristian Garcia #2,San Benito,63.96,192.78,111.13,210.92,514.83,Single-ply,SBD,M
Boys,67.13,3,Jose Salinas,Brownsville Pace,66.68,201.85,113.4,199.58,514.83,Single-ply,SBD,M
Boys,67.13,4,Isaac Rodriguez,Rio Hondo,65.77,183.7,106.59,188.24,478.54,Single-ply,SBD,M
Boys,67.13,5,Santiago Salinas,Brownsville Hanna,66.68,156.49,129.27,170.1,455.86,Single-ply,SBD,M
Boys,67.13,6,Johnathan Godinez,Brownsville Lopez,63.96,170.1,97.52,174.63,442.25,Single-ply,SBD,M
Boys,67.13,7,Daniel Herrera,Brownsville Rivera,65.32,167.83,90.72,174.63,433.18,Single-ply,SBD,M
Boys,67.13,8,Justin Munivez,Harlingen,65.77,102.06,83.91,129.27,315.25,Single-ply,SBD,M
Boys,67.13,DQ,Drae Baez,Harlingen,66.68,,,,,Single-ply,SBD,M
Boys,67.13,DQ,Javier Castro,Brownsville Lopez,66.22,,,,,Single-ply,SBD,M
Boys,67.13,DQ,Tony Torres,San Benito,61.69,,,,,Single-ply,SBD,M
Boys,74.84,1,Ricardo Miranda,Los Fresnos,73.94,235.87,136.08,249.48,621.42,Single-ply,SBD,M
Boys,74.84,2,Jorge Cavazos,Mercedes,72.57,233.6,136.08,208.65,578.33,Single-ply,SBD,M
Boys,74.84,3,Dominic Ramos,Rio Hondo,74.84,215.46,154.22,204.12,573.79,Single-ply,SBD,M
Boys,74.84,4,Cristian Maldonado,Los Fresnos,73.94,226.8,117.93,219.99,564.72,Single-ply,SBD,M
Boys,74.84,5,Alexis Gomez #2,Brownsville Veterans Memorial,73.48,208.65,117.93,201.85,528.44,Single-ply,SBD,M
Boys,74.84,6,Carlos Sanchez,San Benito,73.94,176.9,129.27,188.24,494.42,Single-ply,SBD,M
Boys,74.84,7,Jesus Banuelos,Los Fresnos,70.31,183.7,102.06,201.85,487.61,Single-ply,SBD,M
Boys,74.84,8,Carlos Nieto,Brownsville Lopez,73.03,192.78,102.06,190.51,485.34,Single-ply,SBD,M
Boys,74.84,9,Jonathan Mendoza,Port Isabel,73.94,195.04,102.06,181.44,478.54,Single-ply,SBD,M
Boys,74.84,10,Ramon Gonzalez,Brownsville Rivera,73.94,192.78,97.52,183.7,474,Single-ply,SBD,M
Boys,74.84,11,Victor Coello,Brownsville Lopez,73.94,179.17,102.06,185.97,467.2,Single-ply,SBD,M
Boys,74.84,12,Jarred Fuentes,Mercedes,70.76,183.7,97.52,163.29,444.52,Single-ply,SBD,M
Boys,74.84,13,Rafael Cuellar,Brownsville Porter,71.67,145.15,99.79,192.78,437.72,Single-ply,SBD,M
Boys,74.84,14,Emmanuel Romero,Brownsville Porter,74.84,147.42,102.06,183.7,433.18,Single-ply,SBD,M
Boys,74.84,15,Alex Sanchez,Brownsville Lopez,74.84,158.76,92.99,179.17,430.91,Single-ply,SBD,M
Boys,74.84,16,Jacob Platner,Port Isabel,72.12,156.49,97.52,154.22,408.23,Single-ply,SBD,M
Boys,74.84,17,Brandon Adame,Mercedes,70.31,156.49,79.38,151.95,387.82,Single-ply,SBD,M
Boys,74.84,18,Luis Palacios,Brownsville Porter,73.94,142.88,95.25,147.42,385.55,Single-ply,SBD,M
Boys,74.84,19,Marcos San Miguel,Harlingen,74.39,120.2,83.91,154.22,358.34,Single-ply,SBD,M
Boys,74.84,20,Ramon Castro,Lyford,68.95,124.74,74.84,145.15,344.73,Single-ply,SBD,M
Boys,74.84,DQ,Jaime Garcia #3,Mercedes,72.12,,,,,Single-ply,SBD,M
Boys,82.1,1,Dagan Wise,Port Isabel,81.19,233.6,129.27,226.8,589.67,Single-ply,SBD,M
Boys,82.1,2,Frank Moreno,Lyford,79.83,217.72,120.2,242.67,580.6,Single-ply,SBD,M
Boys,82.1,3,Sebastian Gonzalez,Los Fresnos,81.65,235.87,111.13,208.65,555.65,Single-ply,SBD,M
Boys,82.1,4,Jason Navarro,San Benito,75.75,215.46,124.74,204.12,544.31,Single-ply,SBD,M
Boys,82.1,5,Mathew Garza,Brownsville Rivera,80.74,206.38,106.59,222.26,535.24,Single-ply,SBD,M
Boys,82.1,6,Elian Gonzalez,Los Fresnos,79.83,201.85,111.13,210.92,523.9,Single-ply,SBD,M
Boys,82.1,7,Jerry Alvarado,Brownsville Lopez,82.1,197.31,97.52,215.46,510.29,Single-ply,SBD,M
Boys,82.1,8,Adrian Diaz,Brownsville Hanna,80.29,185.97,117.93,197.31,501.22,Single-ply,SBD,M
Boys,82.1,9,Daniel García,San Benito,77.56,192.78,133.81,167.83,494.42,Single-ply,SBD,M
Boys,82.1,10,Irvin Castro,La Feria,79.38,170.1,120.2,165.56,455.86,Single-ply,SBD,M
Boys,82.1,11,Nelson Mejia,Port Isabel,80.74,176.9,117.93,161.03,455.86,Single-ply,SBD,M
Boys,82.1,12,Elidoro Hinojosa,Brownsville Porter,81.65,163.29,99.79,174.63,437.72,Single-ply,SBD,M
Boys,82.1,13,Luis Cavazos,Rio Hondo,81.19,111.13,61.23,131.54,303.91,Single-ply,SBD,M
Boys,82.1,DQ,Israel Lozano,Brownsville Rivera,77.11,,,,,Single-ply,SBD,M
Boys,89.81,1,Sabastian Diaz,Brownsville Hanna,89.36,231.33,140.61,224.53,596.47,Single-ply,SBD,M
Boys,89.81,2,Lane Thomae,Los Fresnos,88.9,222.26,122.47,222.26,566.99,Single-ply,SBD,M
Boys,89.81,3,Eduardo Zapata,Los Fresnos,88.9,226.8,115.67,224.53,566.99,Single-ply,SBD,M
Boys,89.81,4,Robert Garza,Los Fresnos,86.64,201.85,111.13,224.53,537.51,Single-ply,SBD,M
Boys,89.81,5,Justin Isaiah Garza,Brownsville Rivera,89.81,192.78,120.2,197.31,510.29,Single-ply,SBD,M
Boys,89.81,6,Nathan Morales,La Feria,89.36,174.63,120.2,170.1,464.93,Single-ply,SBD,M
Boys,89.81,7,Noe Castillo,Brownsville Veterans Memorial,88.45,161.03,108.86,183.7,453.59,Single-ply,SBD,M
Boys,89.81,8,Donovan Trevino,Brownsville Rivera,88.45,172.37,88.45,185.97,446.79,Single-ply,SBD,M
Boys,89.81,9,Jose Lugo,La Feria,89.81,174.63,106.59,163.29,444.52,Single-ply,SBD,M
Boys,89.81,10,Jonah Hernandez,Port Isabel,89.36,188.24,106.59,142.88,437.72,Single-ply,SBD,M
Boys,89.81,11,John Buentello,Brownsville Lopez,88.9,151.95,81.65,170.1,403.7,Single-ply,SBD,M
Boys,89.81,DQ,Erick Rangel,La Feria,86.64,,,,,Single-ply,SBD,M
Boys,89.81,DQ,Daeden Baez,Harlingen,88.45,,,,,Single-ply,SBD,M
Boys,89.81,DQ,Rodrigo Miner,Brownsville St. Joseph Academy,89.81,122.47,,,,Single-ply,SBD,M
Boys,89.81,DQ,William Corkill,San Benito,88.45,,,,,Single-ply,SBD,M
Boys,99.79,1,Justin Flores,Rio Hondo,96.16,260.82,161.03,213.19,635.03,Single-ply,SBD,M
Boys,99.79,2,Daniel Valdez,Brownsville Porter,99.34,235.87,131.54,249.48,616.89,Single-ply,SBD,M
Boys,99.79,3,Joey Raya,Brownsville Hanna,98.43,242.67,142.88,206.38,591.94,Single-ply,SBD,M
Boys,99.79,4,Neyfis Castellanos,Port Isabel,97.52,256.28,145.15,170.1,571.53,Single-ply,SBD,M
Boys,99.79,5,Luis Rivas,Los Fresnos,99.79,226.8,127.01,201.85,555.65,Single-ply,SBD,M
Boys,99.79,6,Joseph Suarez,Brownsville Porter,94.8,201.85,127.01,197.31,526.17,Single-ply,SBD,M
Boys,99.79,7,Anthony Martinez,Rio Hondo,98.43,215.46,120.2,183.7,519.36,Single-ply,SBD,M
Boys,99.79,8,Bryan Lopez,San Benito,99.79,197.31,122.47,185.97,505.76,Single-ply,SBD,M
Boys,99.79,9,Chris Arredondo,Brownsville Hanna,99.79,197.31,117.93,183.7,498.95,Single-ply,SBD,M
Boys,99.79,10,Calvin Hinojosa,Brownsville Hanna,94.8,185.97,111.13,183.7,480.81,Single-ply,SBD,M
Boys,99.79,11,Emmanuel Cepeda,Lyford,99.34,190.51,102.06,183.7,476.27,Single-ply,SBD,M
Boys,99.79,12,Kevin Garcia,Brownsville Lopez,99.34,185.97,97.52,181.44,464.93,Single-ply,SBD,M
Boys,99.79,13,Jorge Peralta,Port Isabel,95.25,142.88,92.99,156.49,392.36,Single-ply,SBD,M
Boys,99.79,14,Blake Fowkes,Brownsville St. Joseph Academy,98.43,149.69,74.84,158.76,383.29,Single-ply,SBD,M
Boys,109.77,1,Eleazar Paredes,Brownsville Lopez,100.7,219.99,138.35,226.8,585.13,Single-ply,SBD,M
Boys,109.77,2,JR Salinas,Mercedes,105.69,260.82,138.35,183.7,582.87,Single-ply,SBD,M
Boys,109.77,3,Adrian Salinas,Brownsville Hanna,109.32,215.46,106.59,215.46,537.51,Single-ply,SBD,M
Boys,109.77,4,Jeffrey Burton,Brownsville Pace,109.32,204.12,120.2,190.51,514.83,Single-ply,SBD,M
Boys,109.77,5,Nate Salazar,Harlingen,105.69,188.24,106.59,188.24,483.08,Single-ply,SBD,M
Boys,109.77,DQ,Arturo Guevara,La Feria,109.77,233.6,,,,Single-ply,SBD,M
Boys,109.77,DQ,Estevan Pina,Brownsville Hanna,103.42,174.63,,,,Single-ply,SBD,M
Boys,109.77,DQ,Sergio Luna,Brownsville Hanna,107.95,229.06,133.81,,,Single-ply,SBD,M
Boys,109.77,DQ,Jerry Jasso,Mercedes,107.95,183.7,90.72,,,Single-ply,SBD,M
Boys,109.77,DQ,Joel Lopez,San Benito,107.5,229.06,117.93,,,Single-ply,SBD,M
Boys,124.74,1,Adam Gonzalez,Brownsville Porter,120.2,226.8,138.35,217.72,582.87,Single-ply,SBD,M
Boys,124.74,2,Derek Tobar,Brownsville Veterans Memorial,122.92,231.33,154.22,174.63,560.19,Single-ply,SBD,M
Boys,124.74,3,Santos Troncoso,Brownsville Rivera,120.2,224.53,140.61,185.97,551.11,Single-ply,SBD,M
Boys,124.74,4,Noah Cruz,Harlingen,113.4,188.24,106.59,206.38,501.22,Single-ply,SBD,M
Boys,124.74,5,Jafet Copa,Brownsville Lopez,124.74,185.97,106.59,170.1,462.66,Single-ply,SBD,M
Boys,124.74,6,Carlos Torres,La Feria,117.03,167.83,79.38,170.1,417.3,Single-ply,SBD,M
Boys,124.74,7,Fern Escamilla,Harlingen,119.75,142.88,102.06,138.35,383.29,Single-ply,SBD,M
Boys,124.74,DQ,Justin Garza,Brownsville Rivera,121.11,317.51,,,,Single-ply,SBD,M
Boys,124.74,DQ,Daniel Castillo,Brownsville Pace,116.57,124.74,83.91,,,Single-ply,SBD,M
Boys,124.74+,1,Chris Vargas,San Benito,125.65,272.16,158.76,231.33,662.24,Single-ply,SBD,M
Boys,124.74+,2,Aubrey Elizondo,Mercedes,127.91,249.48,149.69,249.48,648.64,Single-ply,SBD,M
Boys,124.74+,3,Ben Flores,Rio Hondo,134.72,249.48,151.95,208.65,610.08,Single-ply,SBD,M
Boys,124.74+,4,Devin Taylor,Brownsville Hanna,145.15,188.24,156.49,190.51,535.24,Single-ply,SBD,M
Boys,124.74+,5,Triston Rosales,La Feria,128.37,195.04,120.2,170.1,485.34,Single-ply,SBD,M
Boys,124.74+,6,Anthony Casares,Brownsville Rivera,150.14,174.63,95.25,192.78,462.66,Single-ply,SBD,M
