Place,Name,Sex,WeightClassKg,BodyweightKg,Squat1Kg,Squat2Kg,Squat3Kg,Squat4Kg,Best3SquatKg,Bench1Kg,Bench2Kg,Bench3Kg,Bench4Kg,Best3BenchKg,Deadlift1Kg,Deadlift2Kg,Deadlift3Kg,Deadlift4Kg,Best3DeadliftKg,TotalKg,Event,Tested,Division,Equipment,BirthDate
1,Tatyana Dzhanpoladova,F,52,50.9,,,,,,80,85,-87.5,,85,,,,,,85,B,Yes,F_OEM_AWPC,Multi-ply,1984-09-15
1,Yelena Grigoryeva,F,56,54.6,,,,,,81,87.5,-90,,87.5,,,,,,87.5,B,Yes,F_OEM_AWPC,Multi-ply,1976-06-06
1,Kaplan Skhalyakho,M,52,51.1,,,,,,115,120,,,120,,,,,,120,B,Yes,M_JEM_AWPC,Multi-ply,1990-08-28
1,Kaplan Skhalyakho,M,52,51.1,,,,,,115,120,,,120,,,,,,120,B,Yes,M_OEM_AWPC,Multi-ply,1990-08-28
1,Andrei Noskov,M,67.5,67.5,,,,,,-150,-150,150,163.5,150,,,,,,150,B,Yes,M_TEM_3_AWPC,Multi-ply,1993-07-26
DQ,Rustam Bakhtiyarov,M,67.5,67.5,,,,,,-170,-180,,,,,,,,,,B,Yes,M_JEM_AWPC,Multi-ply,1989-03-30
1,Alexander Dobrynin,M,67.5,66.9,,,,,,150,-180,-182.5,,150,,,,,,150,B,Yes,M_OEM_AWPC,Multi-ply,1986-09-12
1,Andrei Ivankov,M,75,74,,,,,,130,135,-140,,135,,,,,,135,B,Yes,M_JEM_AWPC,Multi-ply,1989-01-29
DQ,Dmitry Kalistratov,M,75,74.9,,,,,,-170,-170,-170,,,,,,,,,B,Yes,M_OEM_AWPC,Multi-ply,1977-03-08
DQ,Armen Khachaturyan,M,75,75,,,,,,-182.5,-182.5,-182.5,,,,,,,,,B,Yes,M_OEM_AWPC,Multi-ply,1978-07-18
1,Kasym Temurkayev,M,82.5,82.1,,,,,,215,220,-225,,220,,,,,,220,B,Yes,M_OEM_AWPC,Multi-ply,1983-04-01
2,Maxim Volkov,M,82.5,77.6,,,,,,190,200,-210,,200,,,,,,200,B,Yes,M_OEM_AWPC,Multi-ply,1984-09-05
3,Alexei Bryazgunov,M,82.5,81.2,,,,,,180,190,-200,,190,,,,,,190,B,Yes,M_OEM_AWPC,Multi-ply,1970-09-04
DQ,Nikolai Fetisov,M,90,87.6,,,,,,-170,-170,-170,,,,,,,,,B,Yes,M_OEM_AWPC,Multi-ply,1981-12-21
1,Ivan Likhovitsky,M,100,97.5,,,,,,-250,-250,250,,250,,,,,,250,B,Yes,M_JEM_AWPC,Multi-ply,1990-08-20
1,Mikhail Veber,M,100,90.1,,,,,,-240,-240,240,251,240,,,,,,240,B,Yes,M_OEM_AWPC,Multi-ply,1971-07-29
2,Vadim Pokrovsky,M,100,96.6,,,,,,180,-200,-200,,180,,,,,,180,B,Yes,M_OEM_AWPC,Multi-ply,1974-05-05
3,Arkady Uryvaev,M,100,99.9,,,,,,160,170,-187.5,,170,,,,,,170,B,Yes,M_OEM_AWPC,Multi-ply,1976-01-14
1,Mikhail Veber,M,100,90.1,,,,,,-240,-240,240,251,240,,,,,,240,B,Yes,M_MEM_1_AWPC,Multi-ply,1971-07-29
1,Maxim Tatarin,M,110,110,,,,,,170,180,-190,,180,,,,,,180,B,Yes,M_JEM_AWPC,Multi-ply,1988-11-26
1,Alexander Veter,M,110,107,,,,,,240,250,260,,260,,,,,,260,B,Yes,M_OEM_AWPC,Multi-ply,1974-09-28
2,Pavel Guzev,M,110,108.4,,,,,,-242.5,-242.5,242.5,,242.5,,,,,,242.5,B,Yes,M_OEM_AWPC,Multi-ply,1966-05-29
1,Pavel Guzev,M,110,108.4,,,,,,-242.5,-242.5,242.5,,242.5,,,,,,242.5,B,Yes,M_MEM_2_AWPC,Multi-ply,1966-05-29
1,Alexei Voronkov,M,125,120.9,,,,,,-260,-260,260,,260,,,,,,260,B,Yes,M_JEM_AWPC,Multi-ply,1989-03-13
1,Pavel Scheglov,M,125,124.4,,,,,,210,220,230,,230,,,,,,230,B,Yes,M_OEM_AWPC,Multi-ply,1978-07-16
2,Alexei Yeryganov,M,125,120,,,,,,170,180,,,180,,,,,,180,B,Yes,M_OEM_AWPC,Multi-ply,1977-07-12
1,Andrei Makarov,M,140+,143.8,,,,,,-225,227.5,235,,235,,,,,,235,B,Yes,M_TEM_3_AWPC,Multi-ply,1993-07-22
1,Oleg Kozyrev,M,140+,198,,,,,,260,280,,,280,,,,,,280,B,Yes,M_OEM_AWPC,Multi-ply,1975-03-01
1,Tatyana Dzhanpoladova,F,52,50.9,,,,,,55,60,-62.5,,60,,,,,,60,B,Yes,F_OR_AWPC,Raw,1984-09-15
2,Marina Bogandova,F,52,50,,,,,,40,42.5,45,,45,,,,,,45,B,Yes,F_OR_AWPC,Raw,1986-06-04
1,Marina Krutko,F,56,53.1,,,,,,65,70,-75,,70,,,,,,70,B,Yes,F_OR_AWPC,Raw,1987-11-11
2,Irina Nikulkina,F,56,54.4,,,,,,35,40,-42.5,,40,,,,,,40,B,Yes,F_OR_AWPC,Raw,1976-02-14
3,Natalya Lubenskaya,F,56,54.5,,,,,,40,-45,-45,,40,,,,,,40,B,Yes,F_OR_AWPC,Raw,1969-10-30
1,Natalya Lubenskaya,F,56,54.5,,,,,,40,-45,-45,,40,,,,,,40,B,Yes,F_MR_1_AWPC,Raw,1969-10-30
DQ,Galina Sarikek,F,60,58.2,,,,,,-37.5,-40,-40,,,,,,,,,B,Yes,F_OR_AWPC,Raw,1981-09-30
1,Irina Tkacheva,F,67.5,67.1,,,,,,-65,-72.5,-72.5,,,,,,,,65,B,Yes,F_JR_AWPC,Raw,1992-02-21
1,Anastasiya Kovriga,F,75,72.6,,,,,,82.5,85,-87.5,,85,,,,,,85,B,Yes,F_TR_3_AWPC,Raw,1993-04-10
1,Tatyana Sayfullina,F,75,74.5,,,,,,47.5,52.5,55,,55,,,,,,55,B,Yes,F_OR_AWPC,Raw,1958-12-04
DQ,Irina Krasnova,F,75,74.9,,,,,,-85,-85,-85,,,,,,,,,B,Yes,F_OR_AWPC,Raw,1984-02-06
1,Tatyana Sayfullina,F,75,74.5,,,,,,47.5,52.5,55,,55,,,,,,55,B,Yes,F_MR_3_AWPC,Raw,1958-12-04
1,Galina Tsverova,F,75,73.3,,,,,,45,47.5,50,,50,,,,,,50,B,Yes,F_MR_9_AWPC,Raw,1931-07-28
1,Yelena Piskovaya,F,82.5,80.1,,,,,,52.5,57.5,-62.5,,57.5,,,,,,57.5,B,Yes,F_OR_AWPC,Raw,1969-11-25
1,Yelena Piskovaya,F,82.5,80.1,,,,,,52.5,57.5,-62.5,,57.5,,,,,,57.5,B,Yes,F_MR_1_AWPC,Raw,1969-11-25
1,Yekaterina Tsarevskaya,F,90+,99.5,,,,,,70,75,80,,80,,,,,,80,B,Yes,F_JR_AWPC,Raw,1990-11-05
1,Igor Zhuk #2,M,52,49.7,,,,,,50,55,57.5,-60,57.5,,,,,,57.5,B,Yes,M_TR_1_AWPC,Raw,1999-06-16
2,Karen Martirosyan,M,52,48.2,,,,,,30,35,37.5,,37.5,,,,,,37.5,B,Yes,M_YR_AWPC,Raw,2000-04-12
3,Tamerlan Skhvitaridze,M,52,40,,,,,,30,32.5,-35,,32.5,,,,,,32.5,B,Yes,M_YR_AWPC,Raw,2001-10-07
1,Kaplan Skhalyakho,M,52,51.1,,,,,,90,95,97.5,,97.5,,,,,,97.5,B,Yes,M_JR_AWPC,Raw,1990-08-28
1,Kaplan Skhalyakho,M,52,51.1,,,,,,90,95,97.5,,97.5,,,,,,97.5,B,Yes,M_OR_AWPC,Raw,1990-08-28
2,Kevork Khandzhyan,M,52,49,,,,,,70,77.5,82.5,,82.5,,,,,,82.5,B,Yes,M_OR_AWPC,Raw,1987-04-13
1,Nikolay Grachev,M,52,50.5,,,,,,62.5,65,67.5,,67.5,,,,,,67.5,B,Yes,M_MR_4_AWPC,Raw,1956-04-16
1,Boris Veremeyenko,M,56,55.9,,,,,,70,77.5,,,77.5,,,,,,77.5,B,Yes,M_TR_2_AWPC,Raw,1995-02-11
1,Shamil' Alazaov,M,60,58,,,,,,-90,-90,90,,90,,,,,,90,B,Yes,M_TR_3_AWPC,Raw,1994-05-23
1,Andrei Larin,M,60,57.6,,,,,,90,97.5,-100,,97.5,,,,,,97.5,B,Yes,M_JR_AWPC,Raw,1992-01-20
2,Sergei Avakov,M,60,60,,,,,,90,95,-97.5,,95,,,,,,95,B,Yes,M_JR_AWPC,Raw,1991-07-01
1,Yevgeny Kovrigin,M,60,60,,,,,,110,112.5,115,,115,,,,,,115,B,Yes,M_OR_AWPC,Raw,1988-09-26
2,Andrei Larin,M,60,57.6,,,,,,90,97.5,-100,,97.5,,,,,,97.5,B,Yes,M_OR_AWPC,Raw,1992-01-20
3,Nikolai Lopin,M,60,57.6,,,,,,97.5,-105,-105,,97.5,,,,,,97.5,B,Yes,M_OR_AWPC,Raw,1983-07-11
4,Alexander Krylov,M,60,59.5,,,,,,97.5,-112.5,-112.5,,97.5,,,,,,97.5,B,Yes,M_OR_AWPC,Raw,1994-07-19
1,Yuriy Kuryachiy,M,67.5,64.7,,,,,,85,92.5,97.5,,97.5,,,,,,97.5,B,Yes,M_TR_1_AWPC,Raw,1997-12-23
2,Vladimir Burakov,M,67.5,66.1,,,,,,65,72.5,-77.5,,72.5,,,,,,72.5,B,Yes,M_TR_1_AWPC,Raw,1997-02-18
1,Grigory Kuryachiy,M,67.5,63.1,,,,,,85,-92.5,-95,,85,,,,,,85,B,Yes,M_TR_2_AWPC,Raw,1996-02-27
2,Dmitry Semenov,M,67.5,63.7,,,,,,85,-87.5,-87.5,,85,,,,,,85,B,Yes,M_TR_2_AWPC,Raw,1994-12-06
3,Arthur Chopuryan,M,67.5,63.7,,,,,,77.5,82.5,-85,,82.5,,,,,,82.5,B,Yes,M_TR_2_AWPC,Raw,1995-09-01
1,Andrei Noskov,M,67.5,67.5,,,,,,-130,-130,130,-137.5,130,,,,,,130,B,Yes,M_TR_3_AWPC,Raw,1993-07-26
2,Ivan Novitsky,M,67.5,66.4,,,,,,-100,107.5,112.5,,112.5,,,,,,112.5,B,Yes,M_TR_3_AWPC,Raw,1994-05-21
3,Nikita Golovatenko,M,67.5,67.5,,,,,,110,-115,-115,,110,,,,,,110,B,Yes,M_TR_3_AWPC,Raw,1994-08-19
4,Maxim Kolbasenko,M,67.5,64.3,,,,,,100,107.5,-110,,107.5,,,,,,107.5,B,Yes,M_TR_3_AWPC,Raw,1994-01-11
5,Danil Samarsky,M,67.5,66.2,,,,,,95,102.5,107.5,,107.5,,,,,,107.5,B,Yes,M_TR_3_AWPC,Raw,1992-11-11
6,Zalim Khamgokov,M,67.5,65.4,,,,,,100,-107.5,-107.5,,100,,,,,,100,B,Yes,M_TR_3_AWPC,Raw,1994-01-05
1,Rustam Bakhtiyarov,M,67.5,67.5,,,,,,130,140,150,153.5,150,,,,,,150,B,Yes,M_JR_AWPC,Raw,1989-03-30
2,Valery Schipkov,M,67.5,66.5,,,,,,-117.5,125,-130,,125,,,,,,125,B,Yes,M_JR_AWPC,Raw,1992-08-15
3,Vladimir Bychkov,M,67.5,64.6,,,,,,110,120,-125,,120,,,,,,120,B,Yes,M_JR_AWPC,Raw,1991-08-24
4,Yuriy Belen'ky,M,67.5,66.4,,,,,,115,120,-125,,120,,,,,,120,B,Yes,M_JR_AWPC,Raw,1990-03-23
5,Dmitry Putintsev,M,67.5,67.5,,,,,,107.5,110,-115,,110,,,,,,110,B,Yes,M_JR_AWPC,Raw,1989-08-25
1,Alexander Dobrynin,M,67.5,66.9,,,,,,140,-155,-165,,140,,,,,,140,B,Yes,M_OR_AWPC,Raw,1986-09-12
2,Andrei Redkozub,M,67.5,66.2,,,,,,130,-135,-135,,130,,,,,,130,B,Yes,M_OR_AWPC,Raw,1982-03-12
1,Ramil Rasulov,M,75,72.8,,,,,,-90,90,100,,100,,,,,,100,B,Yes,M_TR_1_AWPC,Raw,1997-07-25
2,Sergei Shkidinov,M,75,72.9,,,,,,65,-70,72.5,,72.5,,,,,,72.5,B,Yes,M_TR_1_AWPC,Raw,1996-12-15
1,Semen Titorenko,M,75,73.1,,,,,,100,105,-107.5,,105,,,,,,105,B,Yes,M_TR_2_AWPC,Raw,1996-08-04
2,Arman Atutyunyan,M,75,67.8,,,,,,90,97.5,-105,,97.5,,,,,,97.5,B,Yes,M_TR_2_AWPC,Raw,1995-10-26
1,Sergei Denisov,M,75,72.9,,,,,,160,163.5,-165,,163.5,,,,,,163.5,B,Yes,M_JR_AWPC,Raw,1988-10-25
2,Maxim Bogdanov,M,75,71.8,,,,,,150,157.5,-165,,157.5,,,,,,157.5,B,Yes,M_JR_AWPC,Raw,1992-10-12
3,Aslanbek Pchikhachev,M,75,74.7,,,,,,155,-160,-160,,155,,,,,,155,B,Yes,M_JR_AWPC,Raw,1991-08-20
4,Vladimir Vanyan,M,75,74.7,,,,,,135,145,-155,,145,,,,,,145,B,Yes,M_JR_AWPC,Raw,1989-10-14
5,Dmitry Ugryumov,M,75,75,,,,,,110,117.5,-120,,117.5,,,,,,117.5,B,Yes,M_JR_AWPC,Raw,1991-07-22
1,Yevgeny Simbirsky,M,75,74.6,,,,,,165,175,180,,180,,,,,,180,B,Yes,M_OR_AWPC,Raw,1988-01-13
2,Aslanbek Pchikhachev,M,75,74.7,,,,,,155,-160,-160,,155,,,,,,155,B,Yes,M_OR_AWPC,Raw,1991-08-20
3,Alexei Bushuyev,M,75,72,,,,,,135,145,-155,,145,,,,,,145,B,Yes,M_OR_AWPC,Raw,1985-01-07
4,Andrei Svidin,M,75,75,,,,,,135,140,145,,145,,,,,,145,B,Yes,M_OR_AWPC,Raw,1980-02-01
5,Alexei Abramov,M,75,72.5,,,,,,130,140,-145,,140,,,,,,140,B,Yes,M_OR_AWPC,Raw,1984-03-25
6,Armen Khachaturyan,M,75,75,,,,,,140,-150,-155,,140,,,,,,140,B,Yes,M_OR_AWPC,Raw,1978-07-18
7,Dzhamal Bashiyev,M,75,72.8,,,,,,132.5,-135,-135,,132.5,,,,,,132.5,B,Yes,M_OR_AWPC,Raw,1986-01-23
8,Stepan Pogosyan,M,75,74.6,,,,,,-130,130,-135,,130,,,,,,130,B,Yes,M_OR_AWPC,Raw,1985-04-18
DQ,Sergei Prosviryak,M,75,74.3,,,,,,-130,-135,-135,,,,,,,,,B,Yes,M_OR_AWPC,Raw,1983-12-01
1,Alexei Berkut,M,75,74.1,,,,,,57.5,65,67.5,,67.5,,,,,,67.5,B,Yes,M_MR_6_AWPC,Raw,1946-10-01
1,David Arutyunyan,M,82.5,79.4,,,,,,97.5,105,-112.5,,105,,,,,,105,B,Yes,M_TR_2_AWPC,Raw,1995-05-02
1,Alexei Zababurkin,M,82.5,79.7,,,,,,105,112.5,-117.5,,112.5,,,,,,112.5,B,Yes,M_TR_3_AWPC,Raw,1994-06-23
1,El'dor Shadmanov,M,82.5,80.1,,,,,,115,120,125,,125,,,,,,125,B,Yes,M_JR_AWPC,Raw,1989-05-03
2,Roman Velichko,M,82.5,80.5,,,,,,120,-135,-135,,120,,,,,,120,B,Yes,M_JR_AWPC,Raw,1991-03-26
3,Alim Yemkuzhev,M,82.5,79.4,,,,,,100,-135,-135,,100,,,,,,100,B,Yes,M_JR_AWPC,Raw,1989-01-18
DQ,Andrei Olimov,M,82.5,80.9,,,,,,-127.5,-127.5,-127.5,,,,,,,,,B,Yes,M_JR_AWPC,Raw,1988-10-25
1,Mirza Sefikhanov,M,82.5,81.6,,,,,,180,-185,-185,,180,,,,,,180,B,Yes,M_OR_AWPC,Raw,1978-06-04
2,Alexander Pozdnyakov,M,82.5,80.6,,,,,,165,172.5,-180,,172.5,,,,,,172.5,B,Yes,M_OR_AWPC,Raw,1979-07-04
3,Dmitry Medvedev,M,82.5,81.1,,,,,,160,-180,-180,,160,,,,,,160,B,Yes,M_OR_AWPC,Raw,1975-06-27
4,Sergei Rudenko,M,82.5,80.4,,,,,,135,142.5,150,,150,,,,,,150,B,Yes,M_OR_AWPC,Raw,1959-01-01
5,Nikolai Khaustov,M,82.5,81.4,,,,,,140,145,-147.5,,145,,,,,,145,B,Yes,M_OR_AWPC,Raw,1985-09-30
6,Sergei Sivak,M,82.5,76.2,,,,,,135,140,-142.5,,140,,,,,,140,B,Yes,M_OR_AWPC,Raw,1979-08-09
7,Vasily Yefremenko,M,82.5,80.1,,,,,,135,140,-145,,140,,,,,,140,B,Yes,M_OR_AWPC,Raw,1979-03-31
1,Sergei Rudenko,M,82.5,80.4,,,,,,135,142.5,150,,150,,,,,,150,B,Yes,M_MR_3_AWPC,Raw,1959-01-01
2,Anatoly Fokin,M,82.5,78.7,,,,,,125,-127.5,127.5,,127.5,,,,,,127.5,B,Yes,M_MR_3_AWPC,Raw,1962-03-01
3,Vasily Demchenko,M,82.5,78.4,,,,,,75,80,85,,85,,,,,,85,B,Yes,M_MR_3_AWPC,Raw,1962-10-16
1,Daniil Terziyan,M,90,85.6,,,,,,100,110,-120,,110,,,,,,110,B,Yes,M_TR_2_AWPC,Raw,1996-08-15
1,Khasan Yusupov,M,90,90,,,,,,180,185,191,192.5,191,,,,,,191,B,Yes,M_JR_AWPC,Raw,1989-11-14
2,Karen Arutyunyan,M,90,84.9,,,,,,155,162.5,-167.5,,162.5,,,,,,162.5,B,Yes,M_JR_AWPC,Raw,1990-02-23
1,Maxim Matveev,M,90,89.5,,,,,,190,200,202.5,-208.5,202.5,,,,,,202.5,B,Yes,M_OR_AWPC,Raw,1981-08-10
2,Yuriy Fedorov,M,90,87,,,,,,190,195,-200,,195,,,,,,195,B,Yes,M_OR_AWPC,Raw,1975-05-23
3,Khasan Yusupov,M,90,90,,,,,,180,185,190,,190,,,,,,190,B,Yes,M_OR_AWPC,Raw,1989-11-14
4,Viktor Kudimo,M,90,87.8,,,,,,165,-170,-170,,165,,,,,,165,B,Yes,M_OR_AWPC,Raw,1983-01-02
5,Sergey Yakovlev,M,90,89.6,,,,,,155,165,-175,,165,,,,,,165,B,Yes,M_OR_AWPC,Raw,1973-10-16
6,Vladimir Bakshaliyev,M,90,86.9,,,,,,160,-170,-170,,160,,,,,,160,B,Yes,M_OR_AWPC,Raw,1983-08-04
7,Nikolai Fetisov,M,90,87.7,,,,,,160,-170,-170,,160,,,,,,160,B,Yes,M_OR_AWPC,Raw,1981-12-21
8,Oleg Lade,M,90,88.8,,,,,,132.5,-152,152.5,,152.5,,,,,,152.5,B,Yes,M_OR_AWPC,Raw,1980-11-28
9,Timur Dzhioyev,M,90,90,,,,,,145,-152.5,-152.5,,145,,,,,,145,B,Yes,M_OR_AWPC,Raw,1985-05-15
10,Sergei Kovalev,M,90,87.3,,,,,,142.5,-152.5,-152.5,,142.5,,,,,,142.5,B,Yes,M_OR_AWPC,Raw,1984-04-21
11,Azamat Tsavkilov,M,90,86.9,,,,,,102.5,-112.5,-112.5,,102.5,,,,,,102.5,B,Yes,M_OR_AWPC,Raw,1986-08-20
DQ,Nikolai Khorovets,M,90,87.1,,,,,,-147.5,-152.5,-152.5,,,,,,,,,B,Yes,M_OR_AWPC,Raw,1986-06-27
DQ,Vladimir Klimenchenko,M,90,87.6,,,,,,-125,-132.5,-132.5,,,,,,,,,B,Yes,M_OR_AWPC,Raw,1975-03-28
DQ,Vladimir Ivantsov,M,90,88.9,,,,,,-152.5,-152.5,-152.5,,,,,,,,,B,Yes,M_OR_AWPC,Raw,1985-04-23
1,Konstantin Pasechnik,M,90,85.4,,,,,,165,170,172.5,,172.5,,,,,,172.5,B,Yes,M_MR_1_AWPC,Raw,1972-02-01
1,Eduard Vladimirov,M,90,88.1,,,,,,115,120,-125,,120,,,,,,120,B,Yes,M_MR_2_AWPC,Raw,1966-05-14
1,Viktor Bregedov,M,90,87,,,,,,65,70,75,,75,,,,,,75,B,Yes,M_MR_7_AWPC,Raw,1941-07-27
1,Yevgeny Gil'manov,M,100,96.8,,,,,,105,-112.5,-112.5,,105,,,,,,105,B,Yes,M_TR_2_AWPC,Raw,1995-11-07
1,Nikolai Shanin,M,100,98.9,,,,,,170,175,-180,,175,,,,,,175,B,Yes,M_OR_AWPC,Raw,1983-06-17
2,Dmitry Kirsanov,M,100,95,,,,,,170,-175,-175,,170,,,,,,170,B,Yes,M_JR_AWPC,Raw,1988-11-15
3,Oleg Dosychev,M,100,94.1,,,,,,152.5,-162.5,162.5,,162.5,,,,,,162.5,B,Yes,M_JR_AWPC,Raw,1988-11-08
DQ,Vyacheslav Kravets,M,100,97.4,,,,,,-140,-140,-140,,,,,,,,,B,Yes,M_JR_AWPC,Raw,1990-03-22
1,Oleg Filimonov,M,100,97.6,,,,,,210,216,220,-225,220,,,,,,220,B,Yes,M_OR_AWPC,Raw,1987-03-12
2,Vladimir Astakhov,M,100,99.5,,,,,,170,175,-180,,175,,,,,,175,B,Yes,M_OR_AWPC,Raw,1979-07-11
3,Alexei Khudoley,M,100,97.7,,,,,,-170,-170,170,,170,,,,,,170,B,Yes,M_OR_AWPC,Raw,1979-06-29
4,Vadim Pokrovsky,M,100,100,,,,,,142.5,162.5,170,,170,,,,,,170,B,Yes,M_OR_AWPC,Raw,1974-05-05
5,Maxim Lukin,M,100,96.3,,,,,,-165,165,-170,,165,,,,,,165,B,Yes,M_OR_AWPC,Raw,1983-02-25
6,Maxim Fedoryuk,M,100,94.3,,,,,,145,-155,162.5,,162.5,,,,,,162.5,B,Yes,M_OR_AWPC,Raw,1984-06-15
7,Charim Shkhanukov,M,100,96.2,,,,,,152.5,162.5,-165,,162.5,,,,,,162.5,B,Yes,M_OR_AWPC,Raw,1979-07-11
8,Rustam Barakov,M,100,96,,,,,,152.5,-162.5,-162.5,,152.5,,,,,,152.5,B,Yes,M_OR_AWPC,Raw,1977-10-04
9,Alexei Veselov,M,100,96.2,,,,,,140,-150,150,,150,,,,,,150,B,Yes,M_OR_AWPC,Raw,1979-08-01
10,Mikail Murtazaliyev,M,100,97,,,,,,150,-162.5,-162.5,,150,,,,,,150,B,Yes,M_OR_AWPC,Raw,1985-04-13
DQ,Mikhail Shatunov,M,100,98.5,,,,,,-150,-150,-162.5,,,,,,,,,B,Yes,M_OR_AWPC,Raw,1985-12-19
1,Vladimir Popov,M,100,97,,,,,,150,152.5,-155,,152.5,,,,,,152.5,B,Yes,M_MR_1_AWPC,Raw,1970-04-03
1,Sergei Marchenko,M,100,98.9,,,,,,-125,125,-140,,125,,,,,,125,B,Yes,M_MR_3_AWPC,Raw,1959-06-29
1,Vladimir Muran,M,100,94.7,,,,,,150,160,-165,,160,,,,,,160,B,Yes,M_MR_4_AWPC,Raw,1957-05-19
1,Rustam Mashukov,M,110,106.4,,,,,,125,132.5,-137.5,,132.5,,,,,,132.5,B,Yes,M_TR_2_AWPC,Raw,1996-05-11
1,Georgy Pirtskhelava,M,110,105.3,,,,,,147.5,-155,,,147.5,,,,,,147.5,B,Yes,M_JR_AWPC,Raw,1991-04-24
1,Arthur Gukyan,M,110,108.9,,,,,,195,200,205,,205,,,,,,205,B,Yes,M_OR_AWPC,Raw,1982-01-23
2,Alexander Veter,M,110,107,,,,,,-190,195,-205,,195,,,,,,195,B,Yes,M_OR_AWPC,Raw,1974-09-28
3,Alexander Chebotarev,M,110,102.6,,,,,,185,190,-192.5,,190,,,,,,190,B,Yes,M_OR_AWPC,Raw,1988-03-26
4,Nikolai Adamov,M,110,107.8,,,,,,185,190,-192.5,,190,,,,,,190,B,Yes,M_OR_AWPC,Raw,1986-09-08
5,Roman Bykov,M,110,106.5,,,,,,-180,182.5,-185,,182.5,,,,,,182.5,B,Yes,M_OR_AWPC,Raw,1979-05-29
6,Allahberdi Glashev,M,110,102.4,,,,,,-170,-175,180,,180,,,,,,180,B,Yes,M_OR_AWPC,Raw,1985-06-07
7,Nikolai Bryantsev,M,110,106,,,,,,-160,160,-162.5,,160,,,,,,160,B,Yes,M_OR_AWPC,Raw,1978-06-29
1,Yevgeny Farkhutdinov,M,110,108.5,,,,,,160,170,180,,180,,,,,,180,B,Yes,M_MR_1_AWPC,Raw,1968-03-09
2,Alexei Tereschenko,M,110,107.2,,,,,,155,160,162.5,,162.5,,,,,,162.5,B,Yes,M_MR_1_AWPC,Raw,1968-02-12
3,Denis Favorsky,M,110,107.2,,,,,,145,155,,,155,,,,,,155,B,Yes,M_MR_1_AWPC,Raw,1971-07-16
4,Dmitry Polevin,M,110,103.6,,,,,,145,150,-162.5,,150,,,,,,150,B,Yes,M_MR_1_AWPC,Raw,1971-03-13
5,Sergei Ivlev,M,110,107.8,,,,,,140,-150,-150,,140,,,,,,140,B,Yes,M_MR_1_AWPC,Raw,1971-03-18
1,Alexei Ivanov,M,110,104.8,,,,,,160,170,175,,175,,,,,,175,B,Yes,M_MR_2_AWPC,Raw,1966-05-14
1,Anatoly Pauyesov,M,110,108.5,,,,,,140,147.5,-152.5,,147.5,,,,,,147.5,B,Yes,M_MR_4_AWPC,Raw,1953-06-14
1,Amayak Sanosyan,M,125,117.2,,,,,,105,110,112.5,,112.5,,,,,,112.5,B,Yes,M_TR_2_AWPC,Raw,1995-02-18
2,Pavel Popov,M,125,122,,,,,,100,-110,110,,110,,,,,,110,B,Yes,M_TR_2_AWPC,Raw,1995-06-08
1,Anatoly Serbin,M,125,112.2,,,,,,200,210,213.5,215,213.5,,,,,,213.5,B,Yes,M_JR_AWPC,Raw,1990-07-26
1,Denis Ogloblin,M,125,117.7,,,,,,200,205,210,,210,,,,,,210,B,Yes,M_OR_AWPC,Raw,1967-05-12
2,Dmitry Rezaykin,M,125,123,,,,,,200,210,-220,,210,,,,,,210,B,Yes,M_OR_AWPC,Raw,1984-02-12
3,Vitaly Mordvinov,M,125,115.8,,,,,,180,187.5,192.5,,192.5,,,,,,192.5,B,Yes,M_OR_AWPC,Raw,1987-04-24
4,Igor Yevdokimov,M,125,118.4,,,,,,-187.5,187.5,-202.5,,187.5,,,,,,187.5,B,Yes,M_OR_AWPC,Raw,1971-04-22
5,Alexander Khizhnyak,M,125,113.8,,,,,,105,-115,-115,,105,,,,,,105,B,Yes,M_OR_AWPC,Raw,1974-03-08
1,Igor Yevdokimov,M,125,118.4,,,,,,-187.5,187.5,-202.5,,187.5,,,,,,187.5,B,Yes,M_MR_1_AWPC,Raw,1971-04-22
2,Sergei Lylov,M,125,119.9,,,,,,170,-180,-180,,170,,,,,,170,B,Yes,M_MR_1_AWPC,Raw,1968-12-27
1,Denis Ogloblin,M,125,117.7,,,,,,200,205,210,,210,,,,,,210,B,Yes,M_MR_2_AWPC,Raw,1967-05-12
1,Sergei Kirillov,M,125,117.4,,,,,,130,137.5,142.5,,142.5,,,,,,142.5,B,Yes,M_MR_4_AWPC,Raw,1954-11-08
1,Yuriy Litvinov,M,140,126.1,,,,,,130,140,-150,,140,,,,,,140,B,Yes,M_OR_AWPC,Raw,1980-08-22
2,Sergei Dronin,M,140,127.5,,,,,,125,135,-145,,135,,,,,,135,B,Yes,M_OR_AWPC,Raw,1980-05-06
DQ,Sergei Apanasenko,M,140,135.7,,,,,,-170,-170,,,,,,,,,,B,Yes,M_OR_AWPC,Raw,1969-07-08
1,Alexan Sanosyan,M,140,128.8,,,,,,130,140,-157.5,,140,,,,,,140,B,Yes,M_MR_1_AWPC,Raw,1970-06-19
DQ,Sergei Apanasenko,M,140,135.7,,,,,,-170,-170,,,,,,,,,,B,Yes,M_MR_1_AWPC,Raw,1969-07-08
1,Igor Khutorov,M,140,130.6,,,,,,200,205,-210,,205,,,,,,205,B,Yes,M_MR_2_AWPC,Raw,1963-11-05
1,Rustam Bakhtiyarov,M,67.5,67.5,,,,,,,,,,,-190,190,210,,210,210,D,Yes,M_OEM_AWPC,Multi-ply,1989-03-30
1,Andrei Ivankov,M,75,74,,,,,,,,,,,170,190,200,,200,200,D,Yes,M_OEM_AWPC,Multi-ply,1989-01-29
1,Vladimir Ulyev,M,82.5,76.4,,,,,,,,,,,165,190,215,,215,215,D,Yes,M_OEM_AWPC,Multi-ply,1994-06-30
1,Alexei Yeryganov,M,125,120,,,,,,,,,,,220,255,-270,,255,255,D,Yes,M_OEM_AWPC,Multi-ply,1977-07-12
1,Tatyana Dzhanpoladova,F,52,50.9,,,,,,,,,,,80,85,90,,90,90,D,Yes,F_OR_AWPC,Raw,1984-09-15
1,Svetlana Takmakova,F,67.5,65.5,,,,,,,,,,,100,117.5,-120,,117.5,117.5,D,Yes,F_OR_AWPC,Raw,1988-12-23
DQ,Darya Maltseva,F,82.5,78.9,,,,,,,,,,,-100,,,,,,D,Yes,F_OR_AWPC,Raw,1984-04-27
1,Nikolay Grachev,M,52,50.5,,,,,,,,,,,127.5,135,140,,140,140,D,Yes,M_OR_AWPC,Raw,1956-04-16
1,Boris Veremeyenko,M,56,55.9,,,,,,,,,,,125,135,142.5,,142.5,142.5,D,Yes,M_OR_AWPC,Raw,1995-02-11
1,Albert Kurmanov,M,60,59.3,,,,,,,,,,,165,175,185,,185,185,D,Yes,M_OR_AWPC,Raw,1992-07-14
2,Yuriy Bozhinov,M,60,56.9,,,,,,,,,,,120,130,-140,,130,130,D,Yes,M_OR_AWPC,Raw,1996-03-03
1,Aidamir Khuazhev,M,67.5,66.2,,,,,,,,,,,190,202.5,-207.5,,202.5,202.5,D,Yes,M_OR_AWPC,Raw,1992-12-20
2,Andrei Semenyachenko,M,67.5,65.6,,,,,,,,,,,190,195,,,195,195,D,Yes,M_OR_AWPC,Raw,1991-02-07
3,Kirill Melnikov,M,67.5,64.3,,,,,,,,,,,185,190,-195,,190,190,D,Yes,M_OR_AWPC,Raw,1992-12-09
DQ,Vladislav Kashirin,M,67.5,67.1,,,,,,,,,,,-200,-200,,,,,D,Yes,M_OR_AWPC,Raw,1989-09-09
1,Anton Furta,M,75,72.7,,,,,,,,,,,215,225,-232.5,,225,225,D,Yes,M_OR_AWPC,Raw,1993-03-09
2,Alexei Bushuev,M,75,72.6,,,,,,,,,,,180,-190,,,180,180,D,Yes,M_OR_AWPC,Raw,1985-01-07
3,Dzhamal Bashiyev,M,75,72.8,,,,,,,,,,,170,180,-190,,180,180,D,Yes,M_OR_AWPC,Raw,1986-01-23
4,Musa Khashpakov,M,75,72,,,,,,,,,,,165,175,-185,,175,175,D,Yes,M_OR_AWPC,Raw,1994-10-29
1,Roman Stupnikov,M,82.5,79.3,,,,,,,,,,,250,260,-270,,260,260,D,Yes,M_OR_AWPC,Raw,1988-01-21
2,Vitaly Tereschenko,M,82.5,82.1,,,,,,,,,,,260,-270,-270,,260,260,D,Yes,M_OR_AWPC,Raw,1974-06-09
3,Viktor Skokin,M,82.5,81.4,,,,,,,,,,,225,232.5,,,232.5,232.5,D,Yes,M_OR_AWPC,Raw,1957-06-20
4,Nikolai Khaustov,M,82.5,81.4,,,,,,,,,,,-215,-215,215,,215,215,D,Yes,M_OR_AWPC,Raw,1985-09-30
5,Vyacheslav Chernobrovy,M,82.5,78.1,,,,,,,,,,,205,-215,-215,,205,205,D,Yes,M_OR_AWPC,Raw,1984-01-20
6,El'dor Shadmanov,M,82.5,80.1,,,,,,,,,,,180,190,200,,200,200,D,Yes,M_OR_AWPC,Raw,1989-05-03
7,Maxim Kalashnik,M,82.5,78.9,,,,,,,,,,,165,-185,-185,,165,165,D,Yes,M_OR_AWPC,Raw,1992-03-19
1,Vladimir Bakshaliyev,M,90,86.9,,,,,,,,,,,-270,270,,,270,270,D,Yes,M_OR_AWPC,Raw,1983-08-04
2,Nikolai Fetisov,M,90,87.7,,,,,,,,,,,230,255,265,,265,265,D,Yes,M_OR_AWPC,Raw,1981-12-21
3,Zamudin Balkizov,M,90,86,,,,,,,,,,,-225,235,240,,240,240,D,Yes,M_OR_AWPC,Raw,1986-03-25
4,Arthur Sedoy,M,90,87.8,,,,,,,,,,,225,-235,-235,,225,225,D,Yes,M_OR_AWPC,Raw,1988-08-12
5,Aslan Dolov,M,90,87.5,,,,,,,,,,,210,222.5,-230,,222.5,222.5,D,Yes,M_OR_AWPC,Raw,1990-01-18
6,Anzor Sikhadzhok,M,90,87.8,,,,,,,,,,,-200,210,222.5,,222.5,222.5,D,Yes,M_OR_AWPC,Raw,1989-02-06
1,Yevgeny Gil'manov,M,100,96.8,,,,,,,,,,,160,175,-185,,175,175,D,Yes,M_OR_AWPC,Raw,1995-11-07
2,Vadim Soloveychik,M,100,90.4,,,,,,,,,,,145,155,165,,165,165,D,Yes,M_OR_AWPC,Raw,1994-08-08
3,Sergei Marchenko,M,100,98.9,,,,,,,,,,,-150,150,165,,165,165,D,Yes,M_OR_AWPC,Raw,1959-06-29
1,Sergei Lischuk,M,110,104.7,,,,,,,,,,,220,240,-245,,240,240,D,Yes,M_OR_AWPC,Raw,1967-11-05
2,Vladimir Chernyshov,M,110,108.2,,,,,,,,,,,217,227.5,-235,,227.5,227.5,D,Yes,M_OR_AWPC,Raw,1948-09-04
3,Yevgeny Bukin,M,110,105.8,,,,,,,,,,,180,195,207.5,,207.5,207.5,D,Yes,M_OR_AWPC,Raw,1983-11-16
1,Mikhail Toropov,M,125,115,,,,,,,,,,,230,240,250,,250,250,D,Yes,M_OR_AWPC,Raw,1960-08-09
2,Dmitry Petrov,M,125,116.4,,,,,,,,,,,240,247.5,-255,,247.5,247.5,D,Yes,M_OR_AWPC,Raw,1989-03-14
3,Vladimir Polivanov,M,125,116.7,,,,,,,,,,,210,230,,,230,230,D,Yes,M_OR_AWPC,Raw,1963-01-20
4,Roman Dombrovsky,M,125,118.5,,,,,,,,,,,190,215,230,,230,230,D,Yes,M_OR_AWPC,Raw,1974-06-02
5,Pavel Popov,M,125,122,,,,,,,,,,,170,180,-190,,180,180,D,Yes,M_OR_AWPC,Raw,1995-06-08
1,Sergei Dronin,M,140,127.5,,,,,,,,,,,160,170,180,,180,180,D,Yes,M_OR_AWPC,Raw,1980-05-06
1,Sergei Shinkarev,M,140+,151.9,,,,,,,,,,,140,160,182.5,,182.5,182.5,D,Yes,M_OR_AWPC,Raw,1993-11-17
1,Yelena Grigoryeva,F,60,56.6,115,130,-140,,130,77.5,82.5,85,,85,115,126,130,,130,345,SBD,Yes,F_OEM_AWPC,Multi-ply,1976-06-06
1,Igor Lyubaev,M,60,58.8,-200,-200,200,-215.5,200,110,120,125,,125,185,195,202.5,206.5,202.5,527.5,SBD,Yes,M_OEM_AWPC,Multi-ply,1979-04-30
DQ,Nikita Fomenko,M,75,74.3,-230,-230,-230,,,,,,,,,,,,,,SBD,Yes,M_TEM_2_AWPC,Multi-ply,1995-04-23
1,Ivan Bezrukov,M,75,72.5,-180,180,-195,,180,100,110,-115,,110,170,180,190,,190,480,SBD,Yes,M_JEM_AWPC,Multi-ply,1989-01-05
DQ,Andrei Ivankov,M,75,74,-180,-180,-180,,,,,,,,,,,,,,SBD,Yes,M_JEM_AWPC,Multi-ply,1989-01-29
DQ,Andrei Ivankov,M,75,74,-180,-180,-180,,,,,,,,,,,,,,SBD,Yes,M_OEM_AWPC,Multi-ply,1989-01-29
1,Mikhail Bal,M,90,89.5,230,245,255,,255,150,160,170,,170,220,240,-250,,240,665,SBD,Yes,M_OEM_AWPC,Multi-ply,1978-12-14
1,Igor Miroshnichenko,M,100,95.6,-295,-300,300,320,300,205,-215,215,,215,270,285,-300,,285,800,SBD,Yes,M_OEM_AWPC,Multi-ply,1988-01-01
1,Pavel Scheglov,M,125,124.4,310,-332.5,-335,,310,207.5,217.5,225,,225,235,250,-260,,250,785,SBD,Yes,M_OEM_AWPC,Multi-ply,1978-07-16
DQ,Denis Makeev,M,125,125,-240,-250,-255,,,,,,,,,,,,,,SBD,Yes,M_OEM_AWPC,Multi-ply,1983-04-22
1,Svetlana Lubnina,F,44,40,50,55,60,,60,27.5,-30,-30,,27.5,60,65,72.5,75,72.5,160,SBD,Yes,F_YR_AWPC,Raw,2000-08-19
1,Mariya Romanchikova,F,48,46.4,-50,50,60,,60,32.5,35,37.5,,37.5,85,95,-105,,95,192.5,SBD,Yes,F_TR_2_AWPC,Raw,1996-02-14
1,Ludmila Beskaravaynova,F,52,51.6,75,-80,-80,,75,45,-50,50,,50,80,85,-90,,85,210,SBD,Yes,F_OR_AWPC,Raw,1979-11-07
1,Mariya Gavrilenkova,F,56,55,-97.5,97.5,-105,,97.5,45,50,55,,55,100,105,110,,110,262.5,SBD,Yes,F_OR_AWPC,Raw,1988-07-14
1,Sandra Kesayeva,F,60,60,-80,85,-90,,85,45,47.5,50,,50,110,120,-125,,120,255,SBD,Yes,F_TR_3_AWPC,Raw,1993-05-02
1,Yuliya Borisova,F,60,56.4,100,-105,105,,105,65,70,72.5,,72.5,120,130,-140,,130,307.5,SBD,Yes,F_JR_AWPC,Raw,1989-11-16
1,Yuliya Borisova,F,60,56.4,100,-105,105,,105,65,70,72.5,,72.5,120,130,-140,,130,307.5,SBD,Yes,F_OR_AWPC,Raw,1989-11-16
2,Svetlana Maletskaya,F,60,59.9,-100,100,105,-107.5,105,62.5,65,67.5,,67.5,125.5,-132.5,-135,,125.5,297.5,SBD,Yes,F_OR_AWPC,Raw,1983-06-04
1,Arsen Merdenov,M,56,56,80,85,95,,95,40,-45,-47.5,,40,95,100,105,,105,240,SBD,Yes,M_YR_AWPC,Raw,2000-11-24
1,Soslan Kachmazov,M,56,55.3,90,100,105,,105,60,65,-70,,65,140,150,-165,,150,320,SBD,Yes,M_TR_3_AWPC,Raw,1993-01-26
DQ,Kazbek Gogayev,M,60,57.8,130,-135,135,,135,75,-77.5,77.5,,77.5,-190,-190,-190,,,,SBD,Yes,M_TR_3_AWPC,Raw,1993-08-13
1,Albert Kurmanov,M,60,59.3,-110,120,130,,130,80,90,-95,,90,175,-185,185,,185,405,SBD,Yes,M_JR_AWPC,Raw,1992-07-14
1,Maksim Sukhobok,M,60,59.5,145,155,-161,,155,90,95,-100,,95,165,190,197.5,,197.5,447.5,SBD,Yes,M_MR_2_AWPC,Raw,1965-01-01
1,Yuriy Kuryachiy,M,67.5,64.7,-90,95,105,,105,90,95,-100,,95,120,145,155,,155,355,SBD,Yes,M_TR_1_AWPC,Raw,1997-12-23
1,Daniil Zaytsev,M,67.5,60.3,100,-110,115,,115,85,-90,-92.5,,85,140,150,155,,155,355,SBD,Yes,M_TR_2_AWPC,Raw,1995-01-18
2,Alexander Bugaev,M,67.5,66.5,80,95,-105,,95,-105,105,-110,,105,-120,120,147.5,,147.5,347.5,SBD,Yes,M_TR_2_AWPC,Raw,1996-03-06
3,Grigory Kuryachiy,M,67.5,63.1,-90,95,105,,105,85,-90,-90,,85,-140,150,-165,,150,340,SBD,Yes,M_TR_2_AWPC,Raw,1996-02-27
1,Marat Kurdanov,M,67.5,64.4,-130,130,-140,,130,80,90,95,,95,170,180,190,,190,415,SBD,Yes,M_TR_3_AWPC,Raw,1993-08-30
2,Aidamir Khuazhev,M,67.5,66.2,-110,110,120,,120,80,90,-95,,90,-192.5,-197.5,197.5,,197.5,407.5,SBD,Yes,M_TR_3_AWPC,Raw,1992-12-20
3,Nikita Golovatenko,M,67.5,67.5,-115,125,-130,,125,105,-112.5,-112.5,,105,150,160,165,,165,395,SBD,Yes,M_TR_3_AWPC,Raw,1994-08-19
DQ,Roman Postnikov,M,67.5,64.3,170,180,185,-191,185,-102.5,102.5,-110,,102.5,-215,-215,-215,,,,SBD,Yes,M_TR_3_AWPC,Raw,1992-11-18
1,Taimuraz Tuskayev,M,67.5,62.3,100,105,110,,110,85,90,-95,,90,160,170,-180,,170,370,SBD,Yes,M_JR_AWPC,Raw,1992-03-07
1,Andrei Redkozub,M,67.5,66.2,-170,-170,170,,170,125,132.5,-135,,132.5,195,-205,-205,,195,497.5,SBD,Yes,M_OR_AWPC,Raw,1982-03-12
2,Alexei Okunev,M,67.5,64.7,-150,150,160,,160,120,-125,-125,,120,200,215,-220,,215,495,SBD,Yes,M_OR_AWPC,Raw,1975-11-16
1,Maxim Korobeynikov,M,75,73.5,130,140,150,,150,75,80,-85,,80,-180,190,-197.5,,190,420,SBD,Yes,M_TR_1_AWPC,Raw,1996-12-08
1,Musa Khashpakov,M,75,72,130,140,145,,145,97.5,105,-107.5,,105,165,175,-180,,175,425,SBD,Yes,M_TR_2_AWPC,Raw,1994-10-29
2,Semen Titorenko,M,75,74.8,-70,70,-100,,70,80,100,-117.5,,100,-80,80,102.5,,102.5,272.5,SBD,Yes,M_TR_2_AWPC,Raw,1996-08-04
1,Vyacheslav Shmatov,M,75,72.8,-160,160,170,,170,-135,135,-140,,135,200,-212.5,,,200,505,SBD,Yes,M_JR_AWPC,Raw,1991-03-16
1,Roman Gostry,M,75,72.3,170,190,200,,200,140,145,-150,,145,210,220,230,,230,575,SBD,Yes,M_OR_AWPC,Raw,1978-09-06
2,Vladimir Rybalko,M,75,74.8,160,175,-185,,175,140,145,-150,,145,210,220,230,,230,550,SBD,Yes,M_OR_AWPC,Raw,1987-05-04
3,Alexei Bushuev,M,75,72.6,-170,180,-190,,180,135,145,150,,150,180,190,,,190,520,SBD,Yes,M_OR_AWPC,Raw,1985-01-07
4,Vasily Shabanov,M,75,70,-135,140,-145,,140,110,-120,-120,,110,160,170,180,,180,430,SBD,Yes,M_OR_AWPC,Raw,1985-05-09
1,Anatoly Belyakov,M,82.5,81.7,85,-97.5,-102.5,,85,55,60,62.5,,62.5,120,-140,142.5,,142.5,290,SBD,Yes,M_TR_2_AWPC,Raw,1996-10-19
1,Nikolai Korshunov,M,82.5,81.9,130,140,-150,,140,100,107.5,,,107.5,150,-180,-180,,150,397.5,SBD,Yes,M_TR_2_AWPC,Raw,1995-03-07
1,Nikolai Khaustov,M,82.5,81.4,-170,170,-180,,170,-140,140,145,,145,-215,215,-220,,215,530,SBD,Yes,M_OR_AWPC,Raw,1985-09-30
2,Ivan Dyachenko,M,82.5,79.7,-190,195,205,,205,120,-125,-130,,120,190,200,-210,,200,525,SBD,Yes,M_OR_AWPC,Raw,1983-08-19
3,Ruslan Shadov,M,82.5,79.2,155,160,165,,165,122.5,125,-127.5,,125,195,205,215,,215,505,SBD,Yes,M_OR_AWPC,Raw,1982-01-14
4,Timur Shakhmurzayev,M,82.5,78.9,-160,-170,170,,170,110,120,125,,125,-190,190,-215,,190,485,SBD,Yes,M_OR_AWPC,Raw,1988-08-08
1,Alexei Krasnov,M,82.5,82.4,200,210,-216,,210,130,135,140,,140,210,220,-230,,220,570,SBD,Yes,M_MR_3_AWPC,Raw,1959-11-15
DQ,Murad Demirov,M,90,86,-155,160,-170,,160,-105,-105,-105,,,,,,,,,SBD,Yes,M_TR_3_AWPC,Raw,1994-04-22
1,Aslan Dolov,M,90,87.5,-200,200,-227.5,,200,135,-140,140,,140,200,220,230,,230,570,SBD,Yes,M_JR_AWPC,Raw,1990-01-18
2,Nikolai Lykov,M,90,88.1,170,190,200,,200,105,115,120,,120,170,200,220,,220,540,SBD,Yes,M_OR_AWPC,Raw,1980-02-22
3,Ilya Zabora,M,90,86.8,167.5,177.5,182.5,,182.5,-120,127.5,-135,,127.5,170,180,190,,190,500,SBD,Yes,M_JR_AWPC,Raw,1990-08-04
1,Vladimir Bakshaliyev,M,90,86.9,210,220,-230,,220,160,-165,-165,,160,260,-270,-275,,260,640,SBD,Yes,M_OR_AWPC,Raw,1983-08-04
2,Sergei Yudin,M,90,89.8,210,230,-235,,230,100,130,140,,140,220,250,-275,,250,620,SBD,Yes,M_OR_AWPC,Raw,1973-09-09
3,Vladimir Ivantsov,M,90,89.7,215,-220,-225,,215,-145,145,150,,150,210,215,220,,220,585,SBD,Yes,M_OR_AWPC,Raw,1985-04-23
4,Alexey Vorobyev,M,90,87.9,-190,200,205,,205,120,-127.5,-127.5,,120,220,230,235,,235,560,SBD,Yes,M_OR_AWPC,Raw,1983-05-30
1,Uruzmag Merdenov,M,90,88.5,170,180,-190,,180,135,140,145,,145,170,180,-190,,180,505,SBD,Yes,M_MR_1_AWPC,Raw,1968-01-17
1,Denis Korobeynikov,M,100,95.3,-225,-240,240,,240,150,160,-167.5,,160,260,270,-285,,270,670,SBD,Yes,M_JR_AWPC,Raw,1990-04-16
1,Anatoly Krylov,M,100,96.5,220,230,240,,240,160,170,175,,175,245,260,270,,270,685,SBD,Yes,M_OR_AWPC,Raw,1986-08-22
2,Denis Korobeynikov,M,100,95.3,-225,-240,240,,240,150,160,-167.5,,160,260,270,-285,,270,670,SBD,Yes,M_OR_AWPC,Raw,1990-04-16
3,Nikolai Kelep,M,100,97.2,200,210,,,210,175,185,-190,,185,240,,,,240,635,SBD,Yes,M_OR_AWPC,Raw,1984-03-17
1,Sergei Marchenko,M,100,98.9,140,150,160,,160,120,127.5,-132.5,,127.5,150,160,170,,170,457.5,SBD,Yes,M_MR_3_AWPC,Raw,1959-06-29
1,Igor Konykhov,M,110,102.6,170,180,190,,190,130,140,-150,,140,220,230,-240,,230,560,SBD,Yes,M_SR_AWPC,Raw,1972-12-20
1,Vladimir Chernyshov,M,110,108.2,187.5,197.5,205,,205,112.5,117.5,-120,,117.5,210,220,225,,225,547.5,SBD,Yes,M_MR_5_AWPC,Raw,1948-09-04
1,Pavel Popov,M,125,122,150,160,-170,,160,100,-110,-110,,100,160,170,,,170,430,SBD,Yes,M_TR_2_AWPC,Raw,1995-06-08
1,Vladimir Polivanov,M,125,116.7,150,165,180,,180,140,150,157.5,,157.5,190,212.5,225,,225,562.5,SBD,Yes,M_OR_AWPC,Raw,1963-01-20
DQ,Yevgeny Sidel'nikov,M,125,120.2,-160,-160,-165,,,-130,,,,,,,,,,,SBD,Yes,M_OR_AWPC,Raw,1983-03-09
1,Vladimir Polivanov,M,125,116.7,150,165,180,,180,140,150,157.5,,157.5,190,212.5,225,,225,562.5,SBD,Yes,M_MR_2_AWPC,Raw,1963-01-20
1,Arsen Baliyev,M,140,128.8,220,230,240,,240,155,160,-170,,160,240,-250,,,240,640,SBD,Yes,M_JR_AWPC,Raw,1989-08-20
1,Natalya Shvachko,F,67.5,66.1,,,,,,100,107.5,110,,110,,,,,,110,B,,F_JEM_WPC,Multi-ply,1990-03-01
1,Anna Turaeva,F,82.5,80.6,,,,,,165,175,180,,180,,,,,,180,B,,F_OEM_WPC,Multi-ply,1978-08-18
1,Oxana Udovenko,F,90,85.9,,,,,,110,-125,-130,,110,,,,,,110,B,,F_JEM_WPC,Multi-ply,1991-10-21
1,Laura Khodzhamkulova,F,90+,99.4,,,,,,100,-107.5,-107.5,,100,,,,,,100,B,,F_MEM_3_WPC,Multi-ply,1961-01-01
1,Sergei Gerasimenko,M,75,75,,,,,,145,-155,-155,,145,,,,,,145,B,,M_OEM_WPC,Multi-ply,1984-07-09
1,Dmitry Krutko,M,82.5,82.5,,,,,,210,-220,-220,,210,,,,,,210,B,,M_JEM_WPC,Multi-ply,1989-07-24
2,Vladislav Kornikh,M,82.5,82.5,,,,,,140,147.5,-152.5,,147.5,,,,,,147.5,B,,M_JEM_WPC,Multi-ply,1992-06-29
1,Pavel Dvoryadkin,M,82.5,82.2,,,,,,170,-185,190,,190,,,,,,190,B,,M_OEM_WPC,Multi-ply,1986-07-17
1,Valeriy Stoyanov,M,82.5,80,,,,,,130,140,-145,,140,,,,,,140,B,,M_MEM_3_WPC,Multi-ply,1957-11-25
1,Sergei Koshkin,M,90,84.6,,,,,,265,-275,,,265,,,,,,265,B,,M_OEM_WPC,Multi-ply,1971-09-28
2,Alexander Petrov,M,90,89.1,,,,,,-240,240,250,,250,,,,,,250,B,,M_OEM_WPC,Multi-ply,1960-07-17
3,Sergei Vinnichenko,M,90,88,,,,,,230,-240,-240,,230,,,,,,230,B,,M_OEM_WPC,Multi-ply,1974-12-04
4,Denis Lenkov,M,90,88.7,,,,,,-220,220,-225,,220,,,,,,220,B,,M_OEM_WPC,Multi-ply,1983-03-10
DQ,Alexander Potapov,M,90,85.9,,,,,,-210,-210,-210,,,,,,,,,B,,M_OEM_WPC,Multi-ply,1974-09-18
1,Alexander Petrov,M,90,89.1,,,,,,-240,240,250,-255.5,250,,,,,,250,B,,M_MEM_3_WPC,Multi-ply,1960-07-17
1,Emin Galib Ogly Mamedov,M,100,97.9,,,,,,-300,300,-310,,300,,,,,,300,B,,M_OEM_WPC,Multi-ply,1974-08-30
DQ,Alexander Tarasov,M,100,99.8,,,,,,-200,-200,,,,,,,,,,B,,M_OEM_WPC,Multi-ply,1980-05-28
1,Alexander Sviloguzov,M,110,102.3,,,,,,140,150,-155,,150,,,,,,150,B,,M_TEM_3_WPC,Multi-ply,1994-04-28
1,Ardavast Martirosyan,M,110,101,,,,,,260,280,-300,,280,,,,,,280,B,,M_OEM_WPC,Multi-ply,1975-10-12
2,Nikolai Krivenko,M,110,108.5,,,,,,240,-250,-250,,240,,,,,,240,B,,M_OEM_WPC,Multi-ply,1982-08-16
1,Eduard Kesaev,M,110,105.5,,,,,,-175,175,185,,185,,,,,,185,B,,M_MEM_3_WPC,Multi-ply,1958-10-16
1,Alexander Manchenko,M,125,119.9,,,,,,240,255,-265,,255,,,,,,255,B,,M_OEM_WPC,Multi-ply,1978-11-05
DQ,Mikhail Reutov,M,125,122.7,,,,,,-260,-265,-265,,,,,,,,,B,,M_OEM_WPC,Multi-ply,1972-12-10
DQ,Alexei Shlykov,M,125,123.5,,,,,,-300,-300,-300,,,,,,,,,B,,M_OEM_WPC,Multi-ply,1984-08-13
1,Vyacheslav Prikhodko,M,125,121.2,,,,,,240,250,-260,,250,,,,,,250,B,,M_MEM_1_WPC,Multi-ply,1968-10-15
1,Sergei Andriyaschenko,M,140,132.8,,,,,,270,282.5,287.5,,287.5,,,,,,287.5,B,,M_OEM_WPC,Multi-ply,1972-08-18
2,Alexei Tarasov,M,140,133.3,,,,,,260,285,-310,,285,,,,,,285,B,,M_OEM_WPC,Multi-ply,1976-03-21
3,Aleksandr Korshkov,M,140,134,,,,,,280,-285,-290,,280,,,,,,280,B,,M_OEM_WPC,Multi-ply,1986-01-06
1,Eduard Smetanin,M,140,135,,,,,,150,-165,,,150,,,,,,150,B,,M_MEM_1_WPC,Multi-ply,1969-10-15
1,Alexander Ballod,M,140+,142.6,,,,,,-150,200,,,200,,,,,,200,B,,M_OEM_WPC,Multi-ply,1979-08-17
1,Yelena Sorokina,F,44,44,,,,,,-55,-55,55,-60,55,,,,,,55,B,,F_OR_WPC,Raw,1985-04-28
1,Lilya Eminova,F,44,43.5,,,,,,25,27.5,30,,30,,,,,,30,B,,F_JR_WPC,Raw,1992-03-06
1,Svetlana Kivorkova,F,56,55.8,,,,,,-40,45,-50,,45,,,,,,45,B,,F_OR_WPC,Raw,1967-12-08
2,Nadezhda Guseva,F,56,56,,,,,,35,37.5,-40,,37.5,,,,,,37.5,B,,F_OR_WPC,Raw,1983-02-24
1,Svetlana Kivorkova,F,56,55.8,,,,,,-40,45,-50,,45,,,,,,45,B,,F_MR_1_WPC,Raw,1967-12-08
1,Yuliya Bakhir,F,60,59.6,,,,,,85,90,92.5,,92.5,,,,,,92.5,B,,F_OR_WPC,Raw,1984-02-18
2,Nellya Maltseva,F,60,60,,,,,,75,77.5,-82.5,,77.5,,,,,,77.5,B,,F_OR_WPC,Raw,1979-06-20
1,Nina Mukhortova,F,67.5,63.2,,,,,,80,85,-87.5,,85,,,,,,85,B,,F_OR_WPC,Raw,1966-10-02
1,Nina Mukhortova,F,67.5,63.2,,,,,,80,85,87.5,,87.5,,,,,,87.5,B,,F_MR_2_WPC,Raw,1966-10-02
1,Anna Turaeva,F,82.5,80.6,,,,,,120,130,,,130,,,,,,130,B,,F_OR_WPC,Raw,1978-08-18
1,Nikolai Zastupaev,M,52,41.6,,,,,,60,65,-70,,65,,,,,,65,B,,M_OR_WPC,Raw,1984-03-31
1,Bogdan Lukyanov,M,67.5,64.8,,,,,,50,60,65,,65,,,,,,65,B,,M_TR_1_WPC,Raw,1998-10-02
1,Yuriy Belotsky,M,67.5,65.5,,,,,,122.5,127.5,130,,130,,,,,,130,B,,M_OR_WPC,Raw,1985-05-20
2,Viktor Galchenkov,M,67.5,65.9,,,,,,110,115,-117.5,,115,,,,,,115,B,,M_OR_WPC,Raw,1987-01-16
1,Khoren Gavalyan,M,75,73.5,,,,,,125,130,-132.5,,130,,,,,,130,B,,M_JR_WPC,Raw,1991-06-10
1,Andrei Sokolov,M,75,75,,,,,,-120,120,127.5,,127.5,,,,,,127.5,B,,M_OR_WPC,Raw,1983-06-11
2,Dmitry Plokhoy,M,75,72.3,,,,,,102.5,107.5,112.5,,112.5,,,,,,112.5,B,,M_OR_WPC,Raw,1987-05-18
1,Yuriy Chepets,M,75,74.4,,,,,,132.5,138,140.5,,140.5,,,,,,140.5,B,,M_MR_6_WPC,Raw,1943-04-19
1,Mikhail Gamayunov,M,82.5,82.5,,,,,,165,170,180,,180,,,,,,180,B,,M_JR_WPC,Raw,1989-12-09
DQ,Igor Ryskin,M,82.5,80,,,,,,-130,-130,-130,,,,,,,,,B,,M_JR_WPC,Raw,1990-12-14
1,Sergey Grishko,M,82.5,79.4,,,,,,210,215,217.5,,217.5,,,,,,217.5,B,,M_OR_WPC,Raw,1980-01-07
2,Sergei Ipatov,M,82.5,79.8,,,,,,155,170,-175,,170,,,,,,170,B,,M_OR_WPC,Raw,1987-04-07
1,Sergei Khimich,M,82.5,81.9,,,,,,150,160,170,,170,,,,,,170,B,,M_MR_1_WPC,Raw,1970-04-12
1,Sergey Fedorov #1,M,82.5,81.4,,,,,,-150,150,160,,160,,,,,,160,B,,M_MR_3_WPC,Raw,1962-04-27
1,Dmitry Antonov,M,90,88,,,,,,120,-130,-130,,120,,,,,,120,B,,M_JR_WPC,Raw,1991-02-21
1,Sergei Koshkin,M,90,84.6,,,,,,205,215,-230,,215,,,,,,215,B,,M_OR_WPC,Raw,1971-09-28
2,Alexei Blintsov,M,90,86.7,,,,,,190,200,207.5,,207.5,,,,,,207.5,B,,M_OR_WPC,Raw,1980-03-13
3,Alexander Petrov,M,90,89.1,,,,,,190,200,-205,,200,,,,,,200,B,,M_OR_WPC,Raw,1960-07-17
4,Timur Muzhukhoyev,M,90,87.3,,,,,,-157.5,157.5,165,,165,,,,,,165,B,,M_OR_WPC,Raw,1978-01-23
1,Alexander Petrov,M,90,89.1,,,,,,190,200,-205,,200,,,,,,200,B,,M_MR_3_WPC,Raw,1960-07-17
1,Vyacheslav Chelyshev,M,100,97.3,,,,,,-180,190,202.5,-216,202.5,,,,,,202.5,B,,M_JR_WPC,Raw,1989-04-21
2,Anton Terebin,M,100,95.4,,,,,,170,-180,180,,180,,,,,,180,B,,M_JR_WPC,Raw,1990-12-08
1,Sergei Zaytsev,M,100,98,,,,,,220,230,235,,235,,,,,,235,B,,M_OR_WPC,Raw,1977-10-13
2,Grigory Slipchenko,M,100,100,,,,,,235,-250,-250,,235,,,,,,235,B,,M_OR_WPC,Raw,1982-11-16
3,Vladislav Kobelev,M,100,99.4,,,,,,195,205,207.5,,207.5,,,,,,207.5,B,,M_OR_WPC,Raw,1968-01-30
4,Stanislav Lyzhin,M,100,99.5,,,,,,190,200,-210,,200,,,,,,200,B,,M_OR_WPC,Raw,1982-01-07
5,Alexander Tarasov,M,100,99.8,,,,,,170,-180,,,170,,,,,,170,B,,M_OR_WPC,Raw,1980-05-28
6,Vyacheslav Ladygin,M,100,97.9,,,,,,160,-170,-175,,160,,,,,,160,B,,M_OR_WPC,Raw,1979-06-18
1,Vladislav Kobelev,M,100,99.4,,,,,,195,205,207.5,,207.5,,,,,,207.5,B,,M_MR_1_WPC,Raw,1968-01-30
1,Aslambek Abaev,M,100,97.6,,,,,,195,202.5,,,202.5,,,,,,202.5,B,,M_MR_3_WPC,Raw,1959-06-28
2,Stanislav Lyzhin,M,100,98.3,,,,,,180,-190,-190,,180,,,,,,180,B,,M_MR_3_WPC,Raw,1959-06-19
1,Alexander Kolesnikov,M,100,98.4,,,,,,130,137.5,-145,,137.5,,,,,,137.5,B,,M_MR_5_WPC,Raw,1951-10-13
1,Konstantin Apushnikov,M,110,102.4,,,,,,-210,210,-227.5,,210,,,,,,210,B,,M_OR_WPC,Raw,1981-09-25
2,Ruben Odabashyan,M,110,104.1,,,,,,190,195,-200,,195,,,,,,195,B,,M_OR_WPC,Raw,1986-08-27
3,Rolan Lyumanov,M,110,104.6,,,,,,170,180,-185,,180,,,,,,180,B,,M_OR_WPC,Raw,1983-08-08
4,Pavel Ivanilov,M,110,106.4,,,,,,150,-157.5,157.5,,157.5,,,,,,157.5,B,,M_OR_WPC,Raw,1988-04-07
1,Andrei Lukyanov,M,110,106.5,,,,,,160,170,175,,175,,,,,,175,B,,M_MR_1_WPC,Raw,1969-01-29
1,Boris Grabovoy,M,110,107.3,,,,,,-100,110,-117.5,,110,,,,,,110,B,,M_MR_4_WPC,Raw,1956-01-23
1,Dmitry Logunov,M,125,112.8,,,,,,215,-230,235,,235,,,,,,235,B,,M_OR_WPC,Raw,1987-04-04
2,Vyacheslav Prikhodko,M,125,121.2,,,,,,-217.5,217.5,-222.5,,217.5,,,,,,217.5,B,,M_OR_WPC,Raw,1968-10-15
1,Yuriy Khuazhev,M,125,122,,,,,,250,260,265,,265,,,,,,265,B,,M_MR_1_WPC,Raw,1970-09-02
2,Vyacheslav Prikhodko,M,125,121.2,,,,,,-217.5,217.5,-222.5,,217.5,,,,,,217.5,B,,M_MR_1_WPC,Raw,1968-10-15
DQ,Bakhtiyar Velibekov,M,125,116.2,,,,,,-235,-235,-235,,,,,,,,,B,,M_MR_1_WPC,Raw,1971-03-01
1,Andrei Radin,M,125,114.4,,,,,,140,147.5,-152.5,,147.5,,,,,,147.5,B,,M_MR_2_WPC,Raw,1965-04-09
1,Kirill Golberg,M,140,127.9,,,,,,245,265,-267.5,,265,,,,,,265,B,,M_OR_WPC,Raw,1976-10-28
1,Sergei Kuschev,M,140+,148.3,,,,,,250,260,-267.5,,260,,,,,,260,B,,M_OR_WPC,Raw,1967-10-21
2,Artem Fadeev,M,140+,153,,,,,,240,-252.5,-252.5,,240,,,,,,240,B,,M_OR_WPC,Raw,1980-11-11
1,Sergei Kuschev,M,140+,148.3,,,,,,250,260,-267.5,,260,,,,,,260,B,,M_MR_1_WPC,Raw,1967-10-21
1,Vladimir Zhabin,M,100,90.4,,,,,,,,,,,290,310,317.5,,317.5,317.5,D,,M_OEM_WPC,Multi-ply,1980-06-27
2,Yuriy Ustinov,M,100,97.5,,,,,,,,,,,260,,,,260,260,D,,M_OEM_WPC,Multi-ply,1975-05-10
1,Alexei Kurkov,M,110,104.5,,,,,,,,,,,200,220,235,,235,235,D,,M_OEM_WPC,Multi-ply,1976-03-29
1,Igor Nastynov,M,140+,142.3,,,,,,,,,,,250,280,300,,300,300,D,,M_OEM_WPC,Multi-ply,1961-03-14
1,Irina Ignatovich,F,56,55.9,,,,,,,,,,,165,175,185,,185,185,D,,F_OR_WPC,Raw,1982-07-20
1,Darya Maltseva,F,82.5,77,,,,,,,,,,,100,110,115,,115,115,D,,F_OR_WPC,Raw,1984-04-27
1,Aleksandr Dambinov,M,60,59.7,,,,,,,,,,,137.5,-142.5,,,137.5,137.5,D,,M_OR_WPC,Raw,1936-03-12
1,Igor Kondrashov,M,75,75,,,,,,,,,,,265,277.5,-290,,277.5,277.5,D,,M_OR_WPC,Raw,1986-07-01
1,Nikolai Omelchenko,M,90,89.4,,,,,,,,,,,260,270,275,,275,275,D,,M_OR_WPC,Raw,1987-04-10
2,Ruslan Dashtiyev,M,90,89.2,,,,,,,,,,,-225,230,242.5,,242.5,242.5,D,,M_OR_WPC,Raw,1984-09-26
3,Alexander Malykhin,M,90,83.4,,,,,,,,,,,200,-210,-210,,200,200,D,,M_OR_WPC,Raw,1981-04-09
1,Aleksandr Obukhovich,M,100,98.1,,,,,,,,,,,340,355,365,,365,365,D,,M_OR_WPC,Raw,1987-08-16
2,Alexei Kireev,M,100,93.3,,,,,,,,,,,290,-300,-300,,290,290,D,,M_OR_WPC,Raw,1980-12-08
3,Yevgeny Kurnosov,M,100,94.8,,,,,,,,,,,280,290,-300,,290,290,D,,M_OR_WPC,Raw,1991-03-28
4,Sergei Natal'chenko,M,100,100,,,,,,,,,,,250,265,-277.5,,265,265,D,,M_OR_WPC,Raw,1983-08-05
5,Pavel Startsev,M,100,100,,,,,,,,,,,230,245,-252.5,,245,245,D,,M_OR_WPC,Raw,1989-11-04
DQ,Astemir Tkhaitlov,M,100,95.6,,,,,,,,,,,-280,-280,-280,,,,D,,M_OR_WPC,Raw,1990-01-10
1,Renad Akhmetov,M,110,108.3,,,,,,,,,,,300,320,,,320,320,D,,M_OR_WPC,Raw,1960-04-11
2,Yuriy Dementyev,M,110,107.5,,,,,,,,,,,300,-320,-325,,300,300,D,,M_OR_WPC,Raw,1983-05-26
3,Yegor Kirpa,M,110,108.6,,,,,,,,,,,260,275,285,,285,285,D,,M_OR_WPC,Raw,1991-08-17
1,Andrei Pan'kov,M,125,113.9,,,,,,,,,,,220,240,250,,250,250,D,,M_OR_WPC,Raw,1977-09-02
1,Dmitry Bescherov,M,140+,148.7,,,,,,,,,,,300,320,-340,,320,320,D,,M_OR_WPC,Raw,1991-01-30
1,Roman Serov,M,75,73.2,-140,150,-155,,150,85,-90,-90,,85,170,180,-185,,180,415,SBD,,M_TEM_3_WPC,Multi-ply,1994-04-01
1,Alexei Shirobokov,M,75,69.6,180,-200,200,,200,125,-135,135,,135,180,-200,200,,200,535,SBD,,M_JEM_WPC,Multi-ply,1991-01-01
1,Shamal Murzabekov,M,82.5,81.7,190,220,-240,,220,100,120,-132.5,,120,200,225,-235,,225,565,SBD,,M_JEM_WPC,Multi-ply,1991-02-18
1,Denis Podgorny,M,82.5,79,230,250,-260,,250,160,170,172.5,,172.5,220,240,260,,260,682.5,SBD,,M_OEM_WPC,Multi-ply,1977-10-04
2,Sergei Ryabykh,M,82.5,81.6,230,240,-250,,240,160,165,,,165,200,210,,,210,615,SBD,,M_OEM_WPC,Multi-ply,1987-07-11
1,Valeriy Stoyanov,M,82.5,79.8,190,-200,200,,200,-130,130,140,-145,140,180,-200,200,,200,540,SBD,,M_MEM_3_WPC,Multi-ply,1957-11-25
1,Kaplan Tlevtsezhev,M,90,87,200,215,,,215,105,112.5,117.5,,117.5,200,220,,,220,552.5,SBD,,M_MEM_4_WPC,Multi-ply,1956-02-13
1,Denis Davydov,M,100,94,240,-265,-275,,240,160,170,-177.5,,170,250,265,-270,,265,675,SBD,,M_TEM_3_WPC,Multi-ply,1993-12-01
1,Alexander Inzhiyevsky,M,100,95,200,220,240,,240,110,120,130,,130,220,240,-250,,240,610,SBD,,M_JEM_WPC,Multi-ply,1992-03-04
1,Pavel Mitrofanov,M,100,93.2,325,350,370,,370,210,230,-240,,230,270,-290,-295,,270,870,SBD,,M_OEM_WPC,Multi-ply,1983-08-12
2,Rustam Pirov,M,100,93,-250,250,270,,270,190,200,207.5,,207.5,225,240,-247.5,,240,717.5,SBD,,M_OEM_WPC,Multi-ply,1986-03-16
1,Andrey Sizov,M,100,97.5,-330,330,-360,,330,200,-220,220,,220,320,340,-360,,340,890,SBD,,M_MEM_1_WPC,Multi-ply,1968-01-29
1,Eduard Kazaryan,M,100,96,190,200,-210,,200,110,-115,,,110,180,185,,,185,495,SBD,,M_MEM_4_WPC,Multi-ply,1954-01-17
1,Sergey Starodubskiy,M,110,110,340,360,390,,390,240,,,,240,275,315,-350,,315,945,SBD,,M_OEM_WPC,Multi-ply,1977-12-20
2,Anatoliy Fedorenko,M,110,100.5,-310,310,340,,340,200,-215,-215,,200,280,300,310,,310,850,SBD,,M_OEM_WPC,Multi-ply,1984-10-02
DQ,Alexander Mitrofanov,M,125,112.8,-400,-420,-420,,,,,,,,,,,,,,SBD,,M_OEM_WPC,Multi-ply,1985-12-29
1,Alexander Ballod,M,140,140,-380,380,-400,,380,210,-230,230,,230,-280,280,-300,,280,890,SBD,,M_OEM_WPC,Multi-ply,1979-08-17
2,Sergei Novikov,M,140,127.4,-280,300,-322.5,,300,242.5,-252.5,-252.5,,242.5,250,265,-270,,265,807.5,SBD,,M_OEM_WPC,Multi-ply,1974-01-28
1,Lilya Eminova,F,44,44,40,45,50,,50,25,30,-32.5,,30,70,75,80,,80,160,SBD,,F_JR_WPC,Raw,1992-03-06
1,Yekaterina Plokhaya,F,56,55.4,60,65,70,,70,37.5,40,42.5,,42.5,80,90,-95,,90,202.5,SBD,,F_JR_WPC,Raw,1989-11-11
2,Lidiya Sizova,F,56,55,60,70,-72.5,,70,25,-30,30,,30,80,-90,,,80,180,SBD,,F_JR_WPC,Raw,1989-10-23
1,Yekaterina Plokhaya,F,56,55.4,60,65,70,,70,37.5,40,42.5,,42.5,80,90,-95,,90,202.5,SBD,,F_OR_WPC,Raw,1989-11-11
1,Yuliya Bakhir,F,60,59.4,112.5,117.5,120,,120,85,90,-92.5,,90,160,180,-190,,180,390,SBD,,F_OR_WPC,Raw,1984-02-18
1,Elena Povolotskaya,F,75,73.2,130,-140,,,130,80,90,-95,,90,170,180,190,,190,410,SBD,,F_OR_WPC,Raw,1978-02-16
1,Tatyana Merezhko,F,82.5,80.9,195,203,-207.5,,203,-97.5,97.5,102.5,,102.5,202.5,212.5,-218.5,,212.5,517.5,SBD,,F_OR_WPC,Raw,1978-05-07
1,Yuriy Popov,M,67.5,64.6,100,-105,,,100,60,-65,-65,,60,100,110,120,,120,280,SBD,,M_TR_3_WPC,Raw,1994-09-26
1,Igor Kuznetsov,M,67.5,67.4,200,-210,-210,,200,135,-145,145,-147.5,145,-225,225,-227.5,,225,570,SBD,,M_JR_WPC,Raw,1989-08-17
1,Igor Kuznetsov,M,67.5,67.4,200,-210,-210,,200,135,-145,145,-147.5,145,-225,225,-227.5,,225,570,SBD,,M_OR_WPC,Raw,1989-08-17
1,Yan Zabrotsky,M,75,74.9,160,-167.5,170,,170,127.5,-135,-135,,127.5,180,190,-197.5,,190,487.5,SBD,,M_TR_3_WPC,Raw,1992-11-07
1,Igor Kondrashov,M,75,75,210,220,230,,230,135,-145,-145,,135,250,270,-283.5,,270,635,SBD,,M_OR_WPC,Raw,1986-07-01
1,Vladislav Lukanin,M,82.5,81.4,290,305,-310,,305,120,130,,,130,270,280,,,280,715,SBD,,M_OR_WPC,Raw,1984-10-28
DQ,Andrei Ivzhenko,M,82.5,82.3,220,235,250,,250,150,157.5,165,,165,-270,-270,,,,,SBD,,M_OR_WPC,Raw,1977-03-28
1,Alexander Goncharov,M,90,89.4,190,200,210,,210,-120,130,140,,140,200,220,230,,230,580,SBD,,M_JR_WPC,Raw,1991-09-23
2,Alexei Sova,M,90,87.1,180,195,200,,200,120,-130,-130,,120,200,215,-220,,215,535,SBD,,M_JR_WPC,Raw,1990-01-01
1,Nikolai Omelchenko,M,90,89.4,220,230,,,230,145,-155,-155,,145,250,260,,,260,635,SBD,,M_OR_WPC,Raw,1987-04-10
2,Andrei Nesterenko,M,90,87.6,200,210,215,,215,140,145,150,,150,235,-245,245,,245,610,SBD,,M_OR_WPC,Raw,1980-08-21
3,Maxim Dvernikov,M,90,87.9,175,185,200,,200,145,150,155,,155,240,-250,-257.5,,240,595,SBD,,M_OR_WPC,Raw,1986-08-17
1,Ratmir Yesenokov,M,100,98.4,220,230,-240,,230,150,155,160,,160,250,260,-270,,260,650,SBD,,M_JR_WPC,Raw,1990-01-28
2,Astemir Tkhaitlov,M,100,98,200,210,215,,215,130,135,-140,,135,250,260,270,,270,620,SBD,,M_JR_WPC,Raw,1990-01-10
3,Pavel Startsev,M,100,100,212.5,222.5,-232.5,,222.5,130,147.5,-162.5,,147.5,210,-230,,,210,580,SBD,,M_JR_WPC,Raw,1989-11-04
1,Oleg Perepechenov,M,100,99.6,300,-320,,,300,200,210,220,,220,250,270,,,270,790,SBD,,M_OR_WPC,Raw,1975-09-06
2,Aslambek Abaev,M,100,96.2,260,280,,,280,195,205,207.5,,207.5,255,270,,,270,757.5,SBD,,M_OR_WPC,Raw,1959-06-28
1,Aslambek Abaev,M,100,96.2,260,280,,,280,195,205,207.5,,207.5,255,270,,,270,757.5,SBD,,M_MR_3_WPC,Raw,1959-06-28
1,Alexander Dan'shin,M,110,109.3,225,240,250,,250,155,165,-170,,165,-235,235,250,,250,665,SBD,,M_JR_WPC,Raw,1991-09-11
1,Pavel Siryak,M,110,110,250,270,-280,,270,195,200,-205,,200,290,-300,-300,,290,760,SBD,,M_OR_WPC,Raw,1986-06-14
2,Renad Akhmetov,M,110,109.7,245,255,260,,260,170,180,-185,,180,300,-325,-325,,300,740,SBD,,M_OR_WPC,Raw,1960-04-11
3,Valentin Trepshin,M,110,107.6,240,250,260,,260,190,205,-212.5,,205,250,260,265,,265,730,SBD,,M_OR_WPC,Raw,1987-06-10
1,Vladislav Siyanovich,M,110,103.3,230,240,-245,,240,165,172.5,-177.5,,172.5,240,250,-260,,250,662.5,SBD,,M_MR_1_WPC,Raw,1972-04-20
1,Stanislav Vlasov,M,110,106.4,200,220,230,,230,120,-130,-140,,120,230,245,265,,265,615,SBD,,M_MR_2_WPC,Raw,1967-07-07
1,Stanislav Shvetsov,M,125,117.1,320,335,350,,350,230,245,-250,,245,320,335,-345,,335,930,SBD,,M_OR_WPC,Raw,1988-02-08
2,Aleksandr Zaytsev,M,125,123,310,330,-340,,330,210,230,-240,,230,300,320,,,320,880,SBD,,M_OR_WPC,Raw,1980-04-06
3,Kirill Gulevsky,M,125,123.3,-225,225,240,,240,135,150,160,,160,250,270,280,,280,680,SBD,,M_OR_WPC,Raw,1987-10-07
1,Andrei Pan'kov,M,125,113.3,230,240,245,,245,-150,150,-155,,150,230,240,,,240,635,SBD,,M_OR_WPC,Raw,1977-09-02
DQ,Anatoly Talovasov,M,125,115.5,190,-210,,,190,,,,,,,,,,,,SBD,,M_MR_3_WPC,Raw,1960-12-01
