Division,WeightClassKg,Place,Name,Team,BodyweightKg,Best3SquatKg,Best3BenchKg,Best3DeadliftKg,TotalKg,Equipment,Event,Sex
Boys,51.71,1,Ryan Folds,San Angelo Grape Creek,49.99,133.81,68.04,129.27,331.12,Single-ply,SBD,M
Boys,51.71,2,Cody Coombs,San Angelo Lake View,51.26,117.93,74.84,129.27,322.05,Single-ply,SBD,M
Boys,51.71,3,David Carrasco,Big Lake Reagan County,44.91,83.91,43.09,113.4,240.4,Single-ply,SBD,M
Boys,51.71,4,Caleb Ritchey,Sonora,49.26,72.57,45.36,97.52,215.46,Single-ply,SBD,M
Boys,51.71,5,Jose de Leon #2,Sterling City,45.81,74.84,45.36,92.99,213.19,Single-ply,SBD,M
Boys,55.79,1,Oscar Ortiz,Big Lake Reagan County,53.43,113.4,70.31,136.08,319.78,Single-ply,SBD,M
Boys,59.87,1,Dillon Hughes,Sterling City,58.42,158.76,97.52,181.44,437.72,Single-ply,SBD,M
Boys,59.87,2,Glenn Crowder,Iraan,59.78,129.27,83.91,170.1,383.29,Single-ply,SBD,M
Boys,67.13,3,Johnny Gallegos,Big Lake Reagan County,60.1,158.76,70.31,154.22,383.29,Single-ply,SBD,M
Boys,59.87,4,Xavier Lara,San Angelo Lake View,57.7,124.74,77.11,147.42,349.27,Single-ply,SBD,M
Boys,59.87,5,Anthony Perez,Ozona,58.15,127.01,77.11,145.15,349.27,Single-ply,SBD,M
Boys,67.13,6,Emmanual Sarabia,Ozona,60.06,127.01,70.31,145.15,342.46,Single-ply,SBD,M
Boys,59.87,7,Henry Ramos,Sonora,56.7,113.4,65.77,122.47,301.64,Single-ply,SBD,M
Boys,59.87,8,Uriel Vazquez,Crane,57.15,88.45,52.16,106.59,247.21,Single-ply,SBD,M
Boys,67.13,1,Oscar Salgado,Alpine,61.1,136.08,108.86,176.9,421.84,Single-ply,SBD,M
Boys,67.13,2,Soda Pop Flores,Crane,63.32,154.22,77.11,167.83,399.16,Single-ply,SBD,M
Boys,67.13,3,Rico Rodriguez,Sonora,64.41,154.22,90.72,147.42,392.36,Single-ply,SBD,M
Boys,67.13,4,Brandon Lee,San Angelo Lake View,64.5,149.69,74.84,158.76,383.29,Single-ply,SBD,M
Boys,67.13,5,Stephen Fuentes,Sterling City,66.04,136.08,83.91,158.76,378.75,Single-ply,SBD,M
Boys,67.13,6,Angel McKee,McCamey,66.5,140.61,77.11,156.49,374.21,Single-ply,SBD,M
Boys,67.13,7,Dustin Chopelas,Alpine,62.6,133.81,77.11,149.69,360.61,Single-ply,SBD,M
Boys,67.13,8,Alex Rivas,Alpine,65.32,131.54,72.57,154.22,358.34,Single-ply,SBD,M
Boys,67.13,9,Kraig Cadena,Eldorado,62.6,129.27,65.77,129.27,324.32,Single-ply,SBD,M
Boys,67.13,10,Eulicess Lupercio,Crane,63.05,111.13,79.38,127.01,317.51,Single-ply,SBD,M
Boys,67.13,11,Alberto Rodriguez,Ozona,65.95,117.93,61.23,136.08,315.25,Single-ply,SBD,M
Boys,67.13,12,Josue Rodriguez,Sterling City,60.42,108.86,68.04,136.08,312.98,Single-ply,SBD,M
Boys,74.84,1,John Jurado,Ozona,71.3,244.94,113.4,213.19,571.53,Single-ply,SBD,M
Boys,74.84,2,Isaac Fraire,Sonora,73.94,147.42,104.33,176.9,428.64,Single-ply,SBD,M
Boys,74.84,3,Trino Castaneda,Crane,71.58,161.03,99.79,161.03,421.84,Single-ply,SBD,M
Boys,74.84,4,Caleb Ramirez,San Angelo Lake View,74.3,145.15,92.99,172.37,410.5,Single-ply,SBD,M
Boys,74.84,5,Gage Glidewell,McCamey,70.72,151.95,81.65,170.1,403.7,Single-ply,SBD,M
Boys,74.84,6,Jorge Vargas,Alpine,72.76,142.88,81.65,165.56,390.09,Single-ply,SBD,M
Boys,82.1,7,Zack White,San Angelo Lake View,75.07,136.08,95.25,158.76,390.09,Single-ply,SBD,M
Boys,74.84,8,Edgar Damian,Ozona,73.3,147.42,81.65,151.95,381.02,Single-ply,SBD,M
Boys,74.84,9,Javier Lopez,Crane,68.04,129.27,86.18,129.27,344.73,Single-ply,SBD,M
Boys,74.84,10,Carlos DelRio,Big Lake Reagan County,70.49,142.88,70.31,113.4,326.59,Single-ply,SBD,M
Boys,74.84,11,Ralph Meza,Crane,74.12,124.74,86.18,113.4,324.32,Single-ply,SBD,M
Boys,74.84,12,Adrean Perez,Crane,69.04,102.06,61.23,102.06,265.35,Single-ply,SBD,M
Boys,74.84,DQ,Blaine Aker,Eldorado,70.13,117.93,,,,Single-ply,SBD,M
Boys,74.84,DQ,Jesus DeLuna,Eldorado,69.94,,,,,Single-ply,SBD,M
Boys,82.1,DQ,Ralphy Salas,Big Lake Reagan County,75.07,,,,,Single-ply,SBD,M
Boys,74.84,DQ,Marcus Rubio,Alpine,69.49,92.99,77.11,,,Single-ply,SBD,M
Boys,74.84,DQ,Kevin Martinez,Sonora,67.4,172.37,86.18,,,Single-ply,SBD,M
Boys,82.1,1,Jonathan Focha,Ozona,77.29,174.63,79.38,204.12,458.13,Single-ply,SBD,M
Boys,89.81,2,Christian Ozoria,Ozona,82.19,176.9,95.25,185.97,458.13,Single-ply,SBD,M
Boys,82.1,3,Tyler Curtis,Alpine,80.1,149.69,95.25,197.31,442.25,Single-ply,SBD,M
Boys,82.1,4,Noah Nandin,San Angelo Lake View,79.47,149.69,99.79,183.7,433.18,Single-ply,SBD,M
Boys,82.1,5,Bryce Martin,Ozona,76.29,140.61,86.18,163.29,390.09,Single-ply,SBD,M
Boys,82.1,6,Elias Salcido,Alpine,81.28,131.54,88.45,151.95,371.95,Single-ply,SBD,M
Boys,89.81,1,Brett Castillo,Sonora,82.46,217.72,138.35,222.26,578.33,Single-ply,SBD,M
Boys,89.81,2,Christian Baca,San Angelo Lake View,89.09,181.44,113.4,190.51,485.34,Single-ply,SBD,M
Boys,89.81,3,Nick Miller,Alpine,86.27,183.7,92.99,183.7,460.4,Single-ply,SBD,M
Boys,89.81,4,David Luera,San Angelo Lake View,87.91,161.03,99.79,188.24,449.06,Single-ply,SBD,M
Boys,89.81,5,Tony Valdez,San Angelo Grape Creek,88.09,183.7,74.84,188.24,446.79,Single-ply,SBD,M
Boys,89.81,6,Caleb Martinez,Ozona,87.91,154.22,88.45,165.56,408.23,Single-ply,SBD,M
Boys,89.81,DQ,Dakota Short,Big Lake Reagan County,89.81,213.19,,,,Single-ply,SBD,M
Boys,99.79,1,Alex Perez,San Angelo Grape Creek,97.89,272.16,142.88,215.46,630.49,Single-ply,SBD,M
Boys,109.77,2,JD Esquivel,Big Lake Reagan County,100.02,249.48,113.4,226.8,589.67,Single-ply,SBD,M
Boys,99.79,3,Andrew Tone,McCamey,96.62,188.24,106.59,192.78,487.61,Single-ply,SBD,M
Boys,99.79,4,Anthony Gloria,San Angelo Lake View,93.44,185.97,113.4,174.63,474,Single-ply,SBD,M
Boys,99.79,5,Angel Gallegos,Big Lake Reagan County,93.71,192.78,90.72,181.44,464.93,Single-ply,SBD,M
Boys,109.77,1,Angel DeLuna,Big Lake Reagan County,102.97,263.08,140.61,219.99,623.69,Single-ply,SBD,M
Boys,109.77,2,Ethan Patlan,Sonora,102.51,213.19,156.49,195.04,564.72,Single-ply,SBD,M
Boys,109.77,3,Orlando Aguero,Sterling City,109.77,190.51,113.4,181.44,485.34,Single-ply,SBD,M
Boys,109.77,4,Bryndon Robles,Sonora,108.59,170.1,138.35,174.63,483.08,Single-ply,SBD,M
Boys,109.77,5,Hector Diaz,Crane,104.42,131.54,74.84,129.27,335.66,Single-ply,SBD,M
Boys,124.74,1,Antonio Perez,San Angelo Grape Creek,123.74,254.01,188.24,226.8,669.05,Single-ply,SBD,M
Boys,124.74,2,Ruben Magallan,San Angelo Lake View,121.02,254.01,151.95,249.48,655.44,Single-ply,SBD,M
Boys,124.74,3,Elijah Cross,Sonora,110.5,256.28,154.22,208.65,619.15,Single-ply,SBD,M
Boys,124.74,4,Adrian Hernandez,San Angelo Grape Creek,113.13,256.28,136.08,226.8,619.15,Single-ply,SBD,M
Boys,124.74,5,Hl James,Sonora,113.22,254.01,113.4,226.8,594.21,Single-ply,SBD,M
Boys,124.74,6,Grey Dehoyos,Ozona,124.56,131.54,68.04,127.01,326.59,Single-ply,SBD,M
Boys,124.74+,1,Elijah Davis,San Angelo Lake View,155.13,195.04,124.74,201.85,521.63,Single-ply,SBD,M
Boys,124.74+,2,Robert McKee,McCamey,132,183.7,106.59,147.42,437.72,Single-ply,SBD,M
Boys,124.74+,3,Ray Kimbrell,Sonora,130,136.08,86.18,158.76,381.02,Single-ply,SBD,M
Boys,124.74+,DQ,Ernie Veloz,Big Lake Reagan County,132.27,272.16,,,,Single-ply,SBD,M
Boys,,NS,David Olivan,Eldorado,,,,,,Single-ply,SBD,M
Boys,,NS,Bailey Graham,Crane,,,,,,Single-ply,SBD,M
Boys,,NS,Tahjae Collins,Crane,,,,,,Single-ply,SBD,M
Boys,,NS,James Phillips,Crane,,,,,,Single-ply,SBD,M
Boys,,NS,Preston McCutheon,Ozona,,,,,,Single-ply,SBD,M
Boys,,NS,Damond Harniston,San Angelo Grape Creek,,,,,,Single-ply,SBD,M
Boys,,NS,Jake Everett,Sterling City,,,,,,Single-ply,SBD,M
Boys,,NS,Jared Everett,Sterling City,,,,,,Single-ply,SBD,M
Boys,,NS,Eddy Sanchez,Sterling City,,,,,,Single-ply,SBD,M
Boys,,NS,Martin Nino,Sterling City,,,,,,Single-ply,SBD,M
Boys,,NS,Skylar Dreshman,Sterling City,,,,,,Single-ply,SBD,M
Boys,,NS,Candon Green,Sterling City,,,,,,Single-ply,SBD,M
