Place,Sex,Name,CyrillicName,BodyweightKg,Squat1Kg,Squat2Kg,Squat3Kg,Best3SquatKg,Squat4Kg,Bench1Kg,Bench2Kg,Bench3Kg,Best3BenchKg,Bench4Kg,Deadlift1Kg,Deadlift2Kg,Deadlift3Kg,Best3DeadliftKg,Deadlift4Kg,TotalKg,WeightClassKg,Event,Equipment,Tested,Division,Age,BirthDate
1,F,Margarita Nesterova,Маргарита Нестерова,59.7,92.5,95,-97.5,95,,45,47.5,-50,47.5,,100,-112.5,-120,100,,242.5,60,SBD,Wraps,Yes,Open,25,1991-06-07
1,M,Aleksandr Kotov,Александр Котов,93.3,-210,210,220,220,,-130,130,-135,130,,210,-230,-230,210,,560,100,SBD,Wraps,Yes,Open,29,1987-08-21
1,F,Anastasiya Shabanova,Анастасия Шабанова,57.8,100,110,120,120,,52.5,-55,-55,52.5,,92.5,105,115,115,,287.5,60,SBD,Wraps,No,Teen 16-17,16,2000-07-23
DQ,M,Nikita Repin,Никита Репин,81,240,247.5,-252.5,247.5,,-140,140,-145,140,,-215,-215,-215,,,,82.5,SBD,Wraps,No,Juniors 20-23,21,1995-02-20
1,M,Sergey Starov,Сергей Старов,86.4,240,250,260,260,,160,170,-175,170,,250,260,-272.5,260,,690,90,SBD,Wraps,No,Open,30,1986-04-23
2,M,Aleksandr Kozlov,Александр Козлов,90,260,272.5,280,280,,145,155,-160,155,,242.5,255,-270,255,,690,90,SBD,Wraps,No,Open,22,1994-08-28
3,M,Sergey Mozhaev,Сергей Можаев,87,215,-225,-225,215,,142.5,-147.5,-150,142.5,,220,-230,-230,220,,577.5,90,SBD,Wraps,No,Open,28,1988-04-16
1,M,Dmitriy Nenartovich,Дмитрий Ненартович,110,230,240,-247.5,240,,-180,180,190,190,,-250,-250,250,250,,680,110,SBD,Wraps,No,Open,29,1987-12-21
DQ,F,Nigara Dashdanova,Нигара Дашданова,59.1,-70,-75,-75,,,,,,,,,,,,,,60,SBD,Raw,Yes,Open,27,1989-12-25
1,F,Darya Merkulova,Дарья Меркулова,65.1,-70,80,90,90,,35,45,-52.5,45,,80,100,115,115,,250,67.5,SBD,Raw,Yes,Teen 16-17,17,2000-01-18
1,M,Ilya Leonov,Илья Леонов,57.5,55,-65,65,65,,45,-55,-55,45,,75,85,-100,85,,195,60,SBD,Raw,Yes,Teen 13-15,15,2001-07-13
1,M,Dmitriy Shurygin,Дмитрий Шурыгин,62.6,85,95,-105,95,,75,82.5,-87.5,82.5,,140,155,-170,155,,332.5,67.5,SBD,Raw,Yes,Teen 18-19,18,1998-03-22
2,M,Vasiliy Yurev,Василий Юрьев,63.7,75,77.5,85,85,,52.5,62.5,-70,62.5,,80,100,120,120,,267.5,67.5,SBD,Raw,Yes,Teen 13-15,15,2001-06-20
3,M,Artem Vetkasov,Артем Веткасов,67.3,-72.5,-72.5,72.5,72.5,,57.5,67.5,-72.5,67.5,,90,100,-120,100,,240,67.5,SBD,Raw,Yes,Teen 18-19,19,1997-05-05
1,M,Evgeniy Karpov,Евгений Карпов,65.8,170,175,-180,175,,125,-130,-130,125,,170,175,-180,175,,475,67.5,SBD,Raw,Yes,Open,37,1979-10-26
1,M,Maksim Korobov,Максим Коробов,79.9,120,130,140,140,,75,-80,-80,75,,140,147.5,155,155,,370,82.5,SBD,Raw,Yes,Teen 13-15,15,2001-03-31
1,M,Yaroslav Feskov,Ярослав Феськов,85.2,150,160,-170,160,,130,137.5,-142.5,137.5,,210,225,-240,225,,522.5,90,SBD,Raw,Yes,Juniors 20-23,21,1995-10-20
1,M,Sergey Rak,Сергей Рак,84.4,-160,-160,160,160,,132.5,140,150,150,,180,200,227.5,227.5,,537.5,90,SBD,Raw,Yes,Open,31,1985-06-01
2,M,Vitaliy Kuznetsov,Виталий Кузнецов,85.4,120,135,-145,135,,95,100,105,105,,140,165,-170,165,,405,90,SBD,Raw,Yes,Open,28,1989-01-03
1,M,Artem Popov,Артем Попов,119.5,190,-207.5,207.5,207.5,,150,157.5,162.5,162.5,,190,205,220,220,,590,125,SBD,Raw,Yes,Open,28,1988-07-24
1,F,Ekaterina Mashkova,Екатерина Машкова,58.2,-75,75,-80,75,,45,50,55,55,,70,85,,85,,215,60,SBD,Raw,No,Open,31,1985-09-09
1,M,Artem Voloshin,Артем Волошин,65,100,107.5,115,115,,70,75,-77.5,75,,-120,130,-140,130,,320,67.5,SBD,Raw,No,Teen 16-17,17,1999-03-31
1,M,Vladimir Golombievskiy,Владимир Голомбиевский,68,100,-107.5,-110,100,,75,80,-85,80,,100,110,-120,110,,290,75,SBD,Raw,No,Teen 16-17,17,1999-09-29
1,M,Dmitriy Mikulchik,Дмитрий Микульчик,73.8,90,-95,95,95,,55,-60,-62.5,55,,120,-130,135,135,,285,75,SBD,Raw,No,Open,27,1989-07-18
1,M,Vladislav Khodosevich,Владислав Ходосевич,87.9,155,167.5,180,180,,-120,120,-130,120,,175,190,-205,190,,490,90,SBD,Raw,No,Teen 16-17,17,1999-08-28
1,M,Aleksey Shchekunov,Алексей Щекунов,85,190,-205,,190,,155,162.5,-170,162.5,,-240,240,,240,,592.5,90,SBD,Raw,No,Open,32,1984-07-17
1,M,Marat Savosin,Марат Савосин,109.2,285,300,,300,,195,205,,205,,295,,,295,,800,110,SBD,Raw,No,Open,26,1990-10-23
1,F,Anastasiya Shabanova,Анастасия Шабанова,57.8,100,110,120,120,,,,,,,,,,,,120,60,S,Wraps,No,Teen 16-17,16,2000-07-23
1,M,Igor Mkhitaryan,Игорь Мхитарян,59.6,,,,,,65,70,75,75,,,,,,,75,60,B,Raw,Yes,Teen 13-15,14,2002-02-19
1,M,Sergey Pronichkin,Сергей Проничкин,59.3,,,,,,120,-125,-125,120,,,,,,,120,60,B,Raw,Yes,Open,27,1989-08-15
1,M,Andrey Voytsekhovskiy,Андрей Войцеховский,72.1,,,,,,-110,-120,120,120,,,,,,,120,75,B,Raw,Yes,Juniors 20-23,22,1994-03-04
2,M,Nikita Konstantinov,Никита Константинов,69.4,,,,,,85,-90,-90,85,,,,,,,85,75,B,Raw,Yes,Juniors 20-23,20,1996-12-14
1,M,Aleksey Yushin,Алексей Юшин,73,,,,,,140,145,-147.5,145,,,,,,,145,75,B,Raw,Yes,Open,34,1982-10-09
1,M,Roman Kotov,Роман Котов,77.1,,,,,,-140,140,-150,140,,,,,,,140,82.5,B,Raw,Yes,Open,26,1990-08-21
1,M,Aleksandr Mladenskiy,Александр Младенский,89.6,,,,,,100,105,-110,105,,,,,,,105,90,B,Raw,Yes,Teen 13-15,14,2002-09-03
2,M,Mikhail Frantsuzov,Михаил Французов,88.5,,,,,,92.5,100,102.5,102.5,,,,,,,102.5,90,B,Raw,Yes,Teen 16-17,17,1999-05-28
1,M,Valeriy Belyakov,Валерий Беляков,88,,,,,,132.5,140,150,150,,,,,,,150,90,B,Raw,Yes,Open,25,1991-06-30
1,M,Oleg Lebedev #1,Олег Лебедев,95.3,,,,,,145,-150,-150,145,,,,,,,145,100,B,Raw,Yes,Juniors 20-23,22,1995-02-09
1,M,Sergey Zaboev,Сергей Забоев,96,,,,,,140,142.5,-145,142.5,,,,,,,142.5,100,B,Raw,Yes,Open,28,1988-09-12
2,M,Andrey Zotov,Андрей Зотов,94,,,,,,-135,140,-142.5,140,,,,,,,140,100,B,Raw,Yes,Open,32,1984-06-22
1,M,Dmitriy Tolstov,Дмитрий Толстов,96.9,,,,,,-135,137.5,140,140,,,,,,,140,100,B,Raw,Yes,Masters 40-44,43,1973-10-26
1,M,Evgeniy Grebnev,Евгений Гребнев,106.3,,,,,,150,,,150,,,,,,,150,110,B,Raw,Yes,Open,36,1980-05-07
1,M,Artem Yakovlev,Артем Яковлев,114.4,,,,,,152.5,,,152.5,,,,,,,152.5,125,B,Raw,Yes,Open,37,1979-12-06
1,M,Mikhail Filin,Михаил Филин,138.7,,,,,,170,-182.5,-182.5,170,,,,,,,170,140,B,Raw,Yes,Open,55,1961-11-17
1,M,Mikhail Filin,Михаил Филин,138.7,,,,,,170,-182.5,-182.5,170,,,,,,,170,140,B,Raw,Yes,Masters 55-59,55,1961-11-17
1,F,Yaroslava Radina,Ярослава Радина,62.1,,,,,,82.5,87.5,90,90,,,,,,,90,67.5,B,Raw,No,Open,26,1990-03-03
1,F,Lyubov Kudinova,Любовь Кудинова,71.2,,,,,,85,90,95,95,,,,,,,95,75,B,Raw,No,Open,33,1983-11-24
1,M,Ivan Grebenshchikov,Иван Гребенщиков,58,,,,,,35,37.5,40,40,,,,,,,40,60,B,Raw,No,Teen 13-15,14,2002-09-22
1,M,Andrey Salikhov,Андрей Салихов,71.9,,,,,,130,140,145,145,,,,,,,145,75,B,Raw,No,Masters 45-49,45,1971-04-15
1,M,Pavel Kalinov,Павел Калинов,82,,,,,,-130,137.5,142.5,142.5,,,,,,,142.5,82.5,B,Raw,No,Juniors 20-23,21,1995-08-09
1,M,Dmitriy Kochenkov,Дмитрий Коченков,77.6,,,,,,145,152.5,-165,152.5,,,,,,,152.5,82.5,B,Raw,No,Open,25,1991-09-18
2,M,Artem Kobyakov,Артем Кобяков,78.8,,,,,,135,140,,140,,,,,,,140,82.5,B,Raw,No,Open,33,1983-08-20
3,M,Roman Ozornov,Роман Озорнов,81.2,,,,,,130,135,140,140,,,,,,,140,82.5,B,Raw,No,Open,34,1982-07-01
1,M,Dmitriy Sidorov,Дмитрий Сидоров,89.3,,,,,,-175,175,-185,175,,,,,,,175,90,B,Raw,No,Open,25,1991-04-23
2,M,Rustam Bogoutdinov,Рустам Богоутдинов,87.5,,,,,,170,-175,-175,170,,,,,,,170,90,B,Raw,No,Open,34,1982-06-05
3,M,Aleksandr Volkov,Александр Волков,86.4,,,,,,-160,160,165,165,,,,,,,165,90,B,Raw,No,Open,27,1989-11-28
1,M,Sergey Kachan,Сергей Качан,96.5,,,,,,160,170,-180,170,,,,,,,170,100,B,Raw,No,Open,24,1992-03-21
2,M,Denis Bragin,Денис Брагин,93.1,,,,,,80,85,90,90,,,,,,,90,100,B,Raw,No,Open,29,1987-02-21
1,M,Aleksandr Zhachenkov,Александр Жаченков,105.8,,,,,,210,220,-230,220,,,,,,,220,110,B,Raw,No,Open,35,1981-07-30
2,M,Denis Puzyrev,Денис Пузырев,108.7,,,,,,187.5,192.5,-195,192.5,,,,,,,192.5,110,B,Raw,No,Open,42,1974-03-31
3,M,Dmitriy Manyushko,Дмитрий Манюшко,109.8,,,,,,-160,167.5,170,170,,,,,,,170,110,B,Raw,No,Open,37,1979-11-20
DQ,M,Pavel Antonov,Павел Антонов,105.4,,,,,,-192.5,-192.5,,,,,,,,,,110,B,Raw,No,Open,28,1988-06-19
1,M,Denis Puzyrev,Денис Пузырев,108.7,,,,,,187.5,192.5,-195,192.5,,,,,,,192.5,110,B,Raw,No,Masters 40-44,42,1974-03-31
1,F,Elena Zemerova,Елена Земерова,46.9,,,,,,,,,,,110,122.5,-125,122.5,,122.5,48,D,Raw,Yes,Open,37,1980-01-01
1,F,Ani Avetisyan,Ани Аветисян,71.2,,,,,,,,,,,115,127.5,,127.5,,127.5,75,D,Raw,Yes,Open,26,1990-11-14
1,M,Svyatoslav Plokhikh,Святослав Плохих,67.5,,,,,,,,,,,175,185,-195,185,,185,67.5,D,Raw,Yes,Teen 18-19,19,1997-03-25
1,M,Maksim Korobov,Максим Коробов,79.9,,,,,,,,,,,155,165,-185,165,,165,82.5,D,Raw,Yes,Teen 13-15,15,2001-03-31
1,M,Aleksandr Yatsenko,Александр Яценко,76.4,,,,,,,,,,,-175,175,-190,175,,175,82.5,D,Raw,Yes,Open,28,1988-04-10
1,M,Aleksandr Mladenskiy,Александр Младенский,89.6,,,,,,,,,,,140,155,165,165,,165,90,D,Raw,Yes,Teen 13-15,14,2002-09-03
1,M,Mikhail Eremin,Михаил Еремин,96.6,,,,,,,,,,,240,-250,-250,240,,240,100,D,Raw,Yes,Teen 16-17,17,1999-05-31
1,M,Oleg Lebedev #1,Олег Лебедев,95.3,,,,,,,,,,,210,-215,,210,,210,100,D,Raw,Yes,Juniors 20-23,22,1995-02-09
1,M,Vladimir Rozhdestvin,Владимир Рождествин,107.7,,,,,,,,,,,215,230,-240,230,,230,110,D,Raw,Yes,Open,32,1984-02-12
1,M,Evgeniy Spudis-Kostutis,Евгений Спудис-Костутис,72.6,,,,,,,,,,,100,115,-125,115,,115,75,D,Raw,No,Open,31,1985-12-07
1,M,Sergey Shpilev,Сергей Шпилев,77.7,,,,,,,,,,,140,150,160,160,,160,82.5,D,Raw,No,Open,31,1985-11-15
1,M,Aleksandr Trubitsin,Александр Трубицин,88,,,,,,,,,,,-170,170,-200,170,,170,90,D,Raw,No,Juniors 20-23,21,1995-10-25
1,M,Maksim Isaev,Максим Исаев,88.9,,,,,,,,,,,200,220,-230,220,,220,90,D,Raw,No,Open,33,1983-12-07
