Division,WeightClassKg,Place,Name,Team,BodyweightKg,Best3SquatKg,Best3BenchKg,Best3DeadliftKg,TotalKg,Equipment,Event,Sex
Boys,51.71,1,Jeremy Martinez,Robstown,51.71,158.76,74.84,183.7,417.3,Single-ply,SBD,M
Boys,51.71,2,Esteban Urquieta,Corpus Christi Tuloso-Midway,50.8,167.83,70.31,170.1,408.23,Single-ply,SBD,M
Boys,51.71,3,Cole Terry,Skidmore-Tynan,51.17,142.88,83.91,151.95,378.75,Single-ply,SBD,M
Boys,51.71,4,Tristan Salinas,Corpus Christi Tuloso-Midway,50.17,113.4,58.97,113.4,285.76,Single-ply,SBD,M
Boys,51.71,5,Juan Palomo,Rockport-Fulton,50.89,102.06,61.23,122.47,285.76,Single-ply,SBD,M
Boys,55.79,1,Rj Garcia,Agua Dulce,52.8,170.1,83.91,142.88,396.89,Single-ply,SBD,M
Boys,55.79,2,Austin Castillo,Sinton,55.25,136.08,83.91,172.37,392.36,Single-ply,SBD,M
Boys,55.79,3,Miguel Ramirez,Agua Dulce,55.7,161.03,77.11,154.22,392.36,Single-ply,SBD,M
Boys,55.79,4,Brendon Batteau,Rockport-Fulton,54.25,147.42,77.11,163.29,387.82,Single-ply,SBD,M
Boys,55.79,5,Juan Vasquez,Corpus Christi Calallen,55.79,140.61,61.23,138.35,340.19,Single-ply,SBD,M
Boys,55.79,6,Nocona Taylor,Orange Grove,55.34,127.01,63.5,147.42,337.93,Single-ply,SBD,M
Boys,55.79,7,Austin Gonzalez,Robstown,54.61,124.74,74.84,124.74,324.32,Single-ply,SBD,M
Boys,59.87,1,Dylan Breland,Corpus Christi Calallen,59.87,158.76,90.72,183.7,433.18,Single-ply,SBD,M
Boys,59.87,2,Devin Cowen,Rockport-Fulton,59.42,149.69,70.31,183.7,403.7,Single-ply,SBD,M
Boys,59.87,3,Felix Del Rio,Robstown,59.6,149.69,86.18,165.56,401.43,Single-ply,SBD,M
Boys,59.87,4,Tyler Harris,Skidmore-Tynan,58.6,151.95,74.84,165.56,392.36,Single-ply,SBD,M
Boys,59.87,5,Zechariah Segovia,Beeville Jones,59.87,142.88,77.11,142.88,362.87,Single-ply,SBD,M
Boys,59.87,DQ,John Robali,Robstown,59.6,138.35,,,,Single-ply,SBD,M
Boys,67.13,1,Christian Alvarado,Corpus Christi Calallen,65.77,195.04,106.59,208.65,510.29,Single-ply,SBD,M
Boys,67.13,2,Dustin Torres,Beeville Jones,66.59,208.65,106.59,183.7,498.95,Single-ply,SBD,M
Boys,67.13,3,Johnathan Galvan,Corpus Christi Tuloso-Midway,65.32,197.31,104.33,190.51,492.15,Single-ply,SBD,M
Boys,67.13,4,Isaac Blanco,Corpus Christi Tuloso-Midway,64.5,172.37,88.45,192.78,453.59,Single-ply,SBD,M
Boys,67.13,5,Javier Galvan,Aransas Pass,66.22,163.29,113.4,167.83,444.52,Single-ply,SBD,M
Boys,67.13,6,Daniel Pena,Aransas Pass,66.59,158.76,79.38,181.44,419.57,Single-ply,SBD,M
Boys,67.13,7,Joe Sauceda,Gregory-Portland,66.77,170.1,92.99,154.22,417.3,Single-ply,SBD,M
Boys,67.13,8,Jose Pavon,Corpus Christi Calallen,67.13,127.01,83.91,181.44,392.36,Single-ply,SBD,M
Boys,67.13,9,Ryan Fransham,Orange Grove,61.96,147.42,68.04,158.76,374.21,Single-ply,SBD,M
Boys,74.84,1,Derrick Carroll,Beeville Jones,74.39,226.8,117.93,226.8,571.53,Single-ply,SBD,M
Boys,74.84,2,Joel Garza,Corpus Christi Calallen,72.39,210.92,122.47,208.65,542.04,Single-ply,SBD,M
Boys,74.84,3,Tommy Aguilar,Orange Grove,74.12,213.19,113.4,213.19,539.77,Single-ply,SBD,M
Boys,74.84,4,John Pizana,Corpus Christi Tuloso-Midway,72.85,185.97,122.47,217.72,526.17,Single-ply,SBD,M
Boys,74.84,5,Matthew Valadez,Corpus Christi Calallen,74.75,199.58,111.13,213.19,523.9,Single-ply,SBD,M
Boys,74.84,6,Patrick Bray,Gregory-Portland,71.21,165.56,83.91,158.76,408.23,Single-ply,SBD,M
Boys,74.84,7,Raiden Windham,Gregory-Portland,69.04,154.22,79.38,167.83,401.43,Single-ply,SBD,M
Boys,74.84,8,Austin Urrea,Aransas Pass,73.03,154.22,97.52,145.15,396.89,Single-ply,SBD,M
Boys,74.84,9,Eric Lara,Beeville Jones,72.94,151.95,95.25,142.88,390.09,Single-ply,SBD,M
Boys,74.84,10,Cale Kruger,Gregory-Portland,67.68,117.93,79.38,136.08,333.39,Single-ply,SBD,M
Boys,74.84,11,Chris Valdez,Gregory-Portland,74.75,117.93,63.5,113.4,294.84,Single-ply,SBD,M
Boys,74.84,DQ,Phillip Sullivan,Corpus Christi Tuloso-Midway,69.31,129.27,,,,Single-ply,SBD,M
Boys,82.1,1,Gabriel Cantu,Corpus Christi Calallen,81.19,272.16,158.76,294.84,725.75,Single-ply,SBD,M
Boys,82.1,2,Rudy Casarez,Beeville Jones,81.28,226.8,131.54,249.48,607.81,Single-ply,SBD,M
Boys,82.1,3,Patrick Prieto,Beeville Jones,76.57,231.33,127.01,219.99,578.33,Single-ply,SBD,M
Boys,82.1,4,Kyle Zipperian,Gregory-Portland,79.74,226.8,131.54,217.72,576.06,Single-ply,SBD,M
Boys,82.1,5,Jared Fuhrken,Orange Grove,81.47,231.33,117.93,226.8,576.06,Single-ply,SBD,M
Boys,82.1,6,Justin Rodriguez,Corpus Christi Tuloso-Midway,82.1,226.8,111.13,226.8,564.72,Single-ply,SBD,M
Boys,82.1,7,Luis Trujillo,Rockport-Fulton,79.74,167.83,111.13,174.63,453.59,Single-ply,SBD,M
Boys,82.1,8,Paul Martinez,Corpus Christi Tuloso-Midway,80.65,183.7,90.72,151.95,426.38,Single-ply,SBD,M
Boys,82.1,DQ,Damien Hinojosa,Corpus Christi Calallen,78.74,181.44,111.13,,,Single-ply,SBD,M
Boys,82.1,DQ,Elijah Valencia,Orange Grove,80.1,254.01,136.08,,,Single-ply,SBD,M
Boys,89.81,1,Federico Ruiz Jr,Corpus Christi Calallen,89.81,263.08,124.74,247.21,635.03,Single-ply,SBD,M
Boys,89.81,2,Elijah Holifield,Skidmore-Tynan,83.01,188.24,136.08,254.01,578.33,Single-ply,SBD,M
Boys,89.81,3,Ryan De Los Santos,Robstown,89.81,213.19,117.93,222.26,553.38,Single-ply,SBD,M
Boys,89.81,4,Andrew Flores,Gregory-Portland,83.46,195.04,133.81,222.26,551.11,Single-ply,SBD,M
Boys,89.81,5,Dante Vasquez,Corpus Christi Tuloso-Midway,86.45,206.38,124.74,195.04,526.17,Single-ply,SBD,M
Boys,89.81,6,Jacob Arredondo,Beeville Jones,89.27,204.12,104.33,195.04,503.49,Single-ply,SBD,M
Boys,89.81,7,John Eguia,Corpus Christi Tuloso-Midway,87.27,190.51,113.4,183.7,487.61,Single-ply,SBD,M
Boys,89.81,8,Chris Swartz,Agua Dulce,85.73,190.51,104.33,172.37,467.2,Single-ply,SBD,M
Boys,89.81,9,Edelmiro Reyna,Gregory-Portland,84.46,188.24,102.06,163.29,453.59,Single-ply,SBD,M
Boys,89.81,10,Beaux Ardoin,Orange Grove,83.37,127.01,70.31,142.88,340.19,Single-ply,SBD,M
Boys,89.81,11,Andrew Vasquez,Corpus Christi Calallen,89.81,145.15,68.04,120.2,333.39,Single-ply,SBD,M
Boys,99.79,1,George Villela,Gregory-Portland,97.16,274.42,161.03,249.48,684.92,Single-ply,SBD,M
Boys,99.79,2,Aaron Puga,Beeville Jones,97.07,281.23,127.01,260.82,669.05,Single-ply,SBD,M
Boys,99.79,3,Eric Gutierrez,Robstown,98.97,238.14,138.35,219.99,596.47,Single-ply,SBD,M
Boys,99.79,4,Roland Rivas,Aransas Pass,92.9,249.48,140.61,204.12,594.21,Single-ply,SBD,M
Boys,99.79,5,Raul Fernandez,Rockport-Fulton,94.98,229.06,129.27,219.99,578.33,Single-ply,SBD,M
Boys,99.79,6,Luke Michael,Rockport-Fulton,92.62,215.46,142.88,188.24,546.58,Single-ply,SBD,M
Boys,99.79,7,Jeremy Trevino,Gregory-Portland,97.34,208.65,102.06,201.85,512.56,Single-ply,SBD,M
Boys,99.79,8,Carson Tipps,Corpus Christi Calallen,94.53,190.51,131.54,181.44,503.49,Single-ply,SBD,M
Boys,99.79,9,Freddy Martinez,Robstown,91.53,208.65,113.4,174.63,496.68,Single-ply,SBD,M
Boys,99.79,10,Ross Delgado,Gregory-Portland,96.89,204.12,104.33,174.63,483.08,Single-ply,SBD,M
Boys,99.79,11,Marcus Hinojosa,Skidmore-Tynan,94.35,195.04,88.45,181.44,464.93,Single-ply,SBD,M
Boys,99.79,12,Seth Colsa,Corpus Christi Calallen,97.89,163.29,102.06,170.1,435.45,Single-ply,SBD,M
Boys,99.79,13,Alejandro Ortega,Corpus Christi Calallen,94.53,149.69,102.06,149.69,401.43,Single-ply,SBD,M
Boys,99.79,14,Michael Poling,Gregory-Portland,93.62,136.08,92.99,163.29,392.36,Single-ply,SBD,M
Boys,99.79,DQ,Thomas Puentes,Skidmore-Tynan,98.61,249.48,,,,Single-ply,SBD,M
Boys,109.77,1,Jose Soliz,Orange Grove,109.77,326.59,222.26,233.6,782.45,Single-ply,SBD,M
Boys,109.77,2,Austin Kennemer,Agua Dulce,103.24,244.94,138.35,208.65,591.94,Single-ply,SBD,M
Boys,109.77,3,Justice Escobar,Corpus Christi Calallen,104.51,215.46,147.42,213.19,576.06,Single-ply,SBD,M
Boys,109.77,4,Michael Morales,Aransas Pass,106.41,244.94,122.47,199.58,566.99,Single-ply,SBD,M
Boys,109.77,5,Victor Mendez,Gregory-Portland,102.42,217.72,117.93,208.65,544.31,Single-ply,SBD,M
Boys,109.77,6,Sebastain Opal,Gregory-Portland,102.51,197.31,117.93,197.31,512.56,Single-ply,SBD,M
Boys,109.77,7,Dylan Hofstetter,Corpus Christi Calallen,100.61,219.99,122.47,165.56,508.02,Single-ply,SBD,M
Boys,124.74,1,Jacob Rodriguez #4,Corpus Christi Tuloso-Midway,124.19,374.21,199.58,288.03,861.83,Single-ply,SBD,M
Boys,124.74,2,Steve Covarrubias,Robstown,114.67,263.08,138.35,222.26,623.69,Single-ply,SBD,M
Boys,124.74,3,Cameron Ngo,Rockport-Fulton,110.5,210.92,102.06,204.12,517.1,Single-ply,SBD,M
Boys,124.74,4,Julian Beltran,Corpus Christi Calallen,110.68,190.51,111.13,201.85,503.49,Single-ply,SBD,M
Boys,124.74,5,Ethan Dreyer,Rockport-Fulton,112.49,204.12,92.99,183.7,480.81,Single-ply,SBD,M
Boys,124.74,DQ,Luis Ortiz,Orange Grove,116.12,172.37,,,,Single-ply,SBD,M
Boys,124.74+,1,Kaleb Pogue,Rockport-Fulton,131.36,340.19,163.29,238.14,741.62,Single-ply,SBD,M
Boys,124.74+,2,Daniel Martinez #9,Beeville Jones,132.9,226.8,165.56,208.65,601.01,Single-ply,SBD,M
Boys,124.74+,3,Jeremy Iglehart,Corpus Christi Calallen,144.33,233.6,158.76,183.7,576.06,Single-ply,SBD,M
Boys,124.74+,4,Jon Rodriguez,Agua Dulce,129.55,238.14,138.35,179.17,555.65,Single-ply,SBD,M
Boys,124.74+,5,Will Atwood,Orange Grove,131.36,217.72,124.74,188.24,530.7,Single-ply,SBD,M
Boys,124.74+,DQ,Angel Salinas,Orange Grove,170.19,,,,,Single-ply,SBD,M
Boys,124.74+,DQ,Goliath Garcia,Agua Dulce,151.23,244.94,138.35,,,Single-ply,SBD,M
