Place,Division,Sex,WeightClassKg,BirthYear,Name,BodyweightKg,Country,Bench1Kg,Bench2Kg,Bench3Kg,Best3BenchKg,TotalKg,Bench4Kg,Event,Equipment
1,Open,F,44,1973,Eva Svjanteková,43.88,Slovakia,85,90,95,95,95,,B,Single-ply
2,Open,F,44,1965,Marion Friedrich,43.61,Germany,80,82.5,-85,82.5,82.5,,B,Single-ply
3,Open,F,44,1980,Justyna Kozdryk,43.2,Poland,75,80,-82.5,80,80,,B,Single-ply
4,Open,F,44,1970,Irina Golubeva,43.7,Russia,75,-80,-82.5,75,75,,B,Single-ply
5,Open,F,44,1973,Margit Wanko,42.66,Austria,67.5,70,-75,70,70,,B,Single-ply
6,Open,F,44,1963,Junko Kitamura,43.77,South Africa,-70,-70,70,70,70,,B,Single-ply
DQ,Open,F,44,1962,Akiko Iwasaki,43.2,Japan,-75,-75,-82.5,,,,B,Single-ply
1,Open,F,48,1970,Yukako Fukushima,46.9,Japan,115,-120,-122.5,115,115,,B,Single-ply
2,Open,F,48,1963,Hanna Svahn,47.9,Denmark,-90,90,-92.5,90,90,,B,Single-ply
3,Open,F,48,1969,Virva-Tuul Arpala,48,Finland,82.5,87.5,-92.5,87.5,87.5,,B,Single-ply
4,Open,F,48,1962,Doris Illeditsch-Wanner,47.77,Germany,80,-85,-87.5,80,80,,B,Single-ply
5,Open,F,48,1962,Lee-Ann Dalling,45.44,Canada,70,75,-80,75,75,,B,Single-ply
1,Open,F,52,1978,Irina Krylova,51.22,Russia,102.5,107.5,-112.5,107.5,107.5,,B,Single-ply
2,Open,F,52,1969,Sylvie Mingot,51.1,France,-105,105,-112.5,105,105,,B,Single-ply
3,Open,F,52,1970,Marion Braun,51.1,Austria,95,-100,-102.5,95,95,,B,Single-ply
4,Open,F,52,1972,Mervi Sirkiä,51.8,Finland,92.5,-97.5,-97.5,92.5,92.5,,B,Single-ply
DQ,Open,F,52,1972,Faydra Geraghty,49.7,USA,-70,-70,-70,,,,B,Single-ply
DQ,Open,F,52,1959,Shoko Sakurai,51,Japan,-100,-102.5,-102.5,,,,B,Single-ply
DQ,Open,F,52,1965,Anikó Simon,49.7,Hungary,,,,,,,B,Single-ply
1,Open,F,56,1978,Tamara Althaus,54.8,Germany,125,130,135.5,135.5,135.5,137.5,B,Single-ply
2,Open,F,56,1965,Marie-Christine Pracella,54.6,France,105,-107.5,-112.5,105,105,,B,Single-ply
3,Open,F,56,1976,Carole Wagner,54.9,Luxembourg,92.5,97.5,100,100,100,,B,Single-ply
4,Open,F,56,1958,Andrea Krampf,54.5,Austria,-90,90,95,95,95,,B,Single-ply
5,Open,F,56,1967,Mika Nemoto,54.6,Japan,-87.5,92.5,-97.5,92.5,92.5,,B,Single-ply
6,Open,F,56,1968,Colette Pendry,55.3,UK,75,-80,-85,75,75,,B,Single-ply
DQ,Open,F,56,1978,Arina Nakayama,52.9,Japan,-100,-100,-100,,,,B,Single-ply
DQ,Open,F,56,1961,Maria Eriksson,54.99,Sweden,-90,-90,-97.5,,,,B,Single-ply
DQ,Open,F,56,1960,Diane Siveny,56,USA,-80,-80,-82.5,,,,B,Single-ply
1,Open,F,60,1968,Maki Wada,58.8,Japan,-125,125,135,135,135,,B,Single-ply
2,Open,F,60,1973,Jennifer Thompson #1,59.55,USA,125,130,-135,130,130,,B,Single-ply
3,Open,F,60,1978,Julia Zhylskaya,59.22,Belarus,125,-132.5,-132.5,125,125,,B,Single-ply
4,Open,F,60,1977,Jill Darling,58,USA,112.5,122.5,-132.5,122.5,122.5,,B,Single-ply
5,Open,F,60,1955,Yoshiko Komi,59.6,Japan,117.5,-125,-127.5,117.5,117.5,,B,Single-ply
6,Open,F,60,1982,Natalya Busarova,58.8,Russia,102.5,-105,-105,102.5,102.5,,B,Single-ply
7,Open,F,60,1967,Ute Villwock,58.8,Germany,-92.5,92.5,-100,92.5,92.5,,B,Single-ply
8,Open,F,60,1975,Jadwiga Radwanska,59.4,Poland,90,-97.5,-97.5,90,90,,B,Single-ply
9,Open,F,60,1969,Kseniya Aloeva,59.6,Ukraine,-72.5,72.5,-77.5,72.5,72.5,,B,Single-ply
10,Open,F,60,1968,Rita Moni Baruah,58,India,42.5,47.5,50,50,50,,B,Single-ply
DQ,Open,F,60,1979,Elena Kuleshova,59.4,Russia,-122.5,-122.5,-122.5,,,,B,Single-ply
1,Open,F,67.5,1959,Clara Kasbarian,66.99,France,125,127.5,132.5,132.5,132.5,,B,Single-ply
2,Open,F,67.5,1982,Hui-Chen Chou,65.9,Taiwan,-15,115,-117.5,115,115,,B,Single-ply
3,Open,F,67.5,1949,Chiyomi Sawa,66.6,Japan,105,110,115,115,115,,B,Single-ply
4,Open,F,67.5,1980,Jennife Robertson,64.22,USA,100,105,110,110,110,,B,Single-ply
5,Open,F,67.5,1972,Hele Göransdotter,65.77,Sweden,102.5,107.5,-115,107.5,107.5,,B,Single-ply
6,Open,F,67.5,1964,Iris Kunkel,65,Germany,92.5,100,-107.5,100,100,,B,Single-ply
7,Open,F,67.5,1973,Pia Rajala,65.55,Finland,90,-95,-102.5,90,90,,B,Single-ply
8,Open,F,67.5,1987,Devan Doan,65.88,USA,-82.5,82.5,87.5,87.5,87.5,,B,Single-ply
1,Open,F,75,1983,Min-Chu Hung,74.6,Taiwan,130,137.5,-140,137.5,137.5,,B,Single-ply
2,Open,F,75,1966,Petra Stehlíková,70.8,Czechia,125,132.5,-137.5,132.5,132.5,,B,Single-ply
3,Open,F,75,1954,Kimiko Oba,71.99,Japan,-132.5,-132.5,132.5,132.5,132.5,,B,Single-ply
4,Open,F,75,1975,Biernacka Monika,69.6,Poland,-120,120,-125,120,120,,B,Single-ply
5,Open,F,75,1968,Sandra Perron,74.4,USA,115,120,-125,120,120,,B,Single-ply
6,Open,F,75,1954,Hana Takáčová,74.44,Czechia,112.5,117.5,-122.5,117.5,117.5,,B,Single-ply
7,Open,F,75,,Christy Newman,68.9,USA,115,-130,-130,115,115,,B,Single-ply
8,Open,F,75,1970,Eva-Maria Gall,70.8,Germany,107.5,115,-120,115,115,,B,Single-ply
9,Open,F,75,1974,Edyta Bosak,71.55,Poland,105,-110,-110,105,105,,B,Single-ply
10,Open,F,75,1972,Wendie Kirkland,70.9,UK,-80,80,87.5,87.5,87.5,,B,Single-ply
1,Open,F,82.5,1971,Timea Závodszky,82.3,Hungary,145,150,155,155,155,,B,Single-ply
2,Open,F,82.5,1977,Elena Yurik,79.44,Russia,135,137.5,140,140,140,,B,Single-ply
3,Open,F,82.5,1973,Ielja Strik,81.3,Netherlands,132.5,-140,-142.5,132.5,132.5,,B,Single-ply
4,Open,F,82.5,1963,Birgit Witt,78.77,Germany,105,112.5,-120,112.5,112.5,,B,Single-ply
5,Open,F,82.5,1945,Rosemarie Beer,80.22,Austria,100,107.5,112.5,112.5,112.5,,B,Single-ply
6,Open,F,82.5,1969,Dorota Szczepanik,76,Poland,100,-107.5,107.5,107.5,107.5,,B,Single-ply
7,Open,F,82.5,1969,Monique Hartle,80.8,Canada,80,87.5,95,95,95,,B,Single-ply
8,Open,F,82.5,1981,Sampad Dhopatkari,81.4,India,55,-60,60,60,60,,B,Single-ply
1,Open,F,90,1969,Irina Naskripnyak,89,Russia,145,-152.5,-152.5,145,145,,B,Single-ply
2,Open,F,90,1969,Svetlana Paltseva,88.9,Russia,135,140,-145,140,140,,B,Single-ply
3,Open,F,90,1963,Leila Duhem,85.77,France,125,130,137.5,137.5,137.5,,B,Single-ply
4,Open,F,90,1966,Catherine Phandin,89.2,France,125,130,137.5,137.5,137.5,,B,Single-ply
5,Open,F,90,1975,Katarin Kardosova,89.1,Slovakia,110,115,-120,115,115,,B,Single-ply
6,Open,F,90,1978,Brenda van der Meulen,89.8,Netherlands,115,-120,-120,115,115,,B,Single-ply
7,Open,F,90,1975,Monika Trum,84.7,Germany,-112.5,112.5,-117.5,112.5,112.5,,B,Single-ply
1,Open,F,90+,1964,Deb Ferrel,117.8,USA,165,172.5,180,180,180,,B,Single-ply
2,Open,F,90+,1971,Chen-Yeh Chao,115.3,Taiwan,175,-180,-180,175,175,,B,Single-ply
3,Open,F,90+,1967,Larysa Piatrova,106.9,Belarus,-142.5,142.5,147.5,147.5,147.5,,B,Single-ply
4,Open,F,90+,1967,Joanne Schaefer,101.33,Netherlands,130,-137.5,-142.5,130,130,,B,Single-ply
5,Open,F,90+,1962,Susanne Formgren,98.22,Sweden,125,127.5,-135,127.5,127.5,,B,Single-ply
6,Open,F,90+,1973,Katariina Nokua,92,Finland,-100,100,-107.5,100,100,,B,Single-ply
7,Open,F,90+,1974,Charity Reynolds,92.6,USA,70,-80,-80,70,70,,B,Single-ply
8,Open,F,90+,1983,Namrata Rane,97.3,India,60,65,-70,65,65,,B,Single-ply
1,Open,M,52,1977,Andris Rūdulis,51.47,Latvia,155,162.5,-167.5,162.5,162.5,,B,Single-ply
2,Open,M,52,1970,Christian Klein,52,Germany,132.5,137.5,140,140,140,,B,Single-ply
3,Open,M,52,1974,Hung Pham,51,USA,115,135,-140,135,135,,B,Single-ply
1,Open,M,56,1968,Yuji Miyazaki,55.1,Japan,180,-185,185,185,185,,B,Single-ply
2,Open,M,56,1972,Fanil Mukhamatyanov,55.88,Russia,170,-177.5,-182.5,170,170,,B,Single-ply
3,Open,M,56,1978,Peter Wong,55.77,USA,-140,140,-142.5,140,140,,B,Single-ply
4,Open,M,56,1980,Recar Fitzpatrick,53.8,South Africa,115,120,125,125,125,,B,Single-ply
5,Open,M,56,1973,Neil Zebedee,54.77,UK,100,-105,-105,100,100,,B,Single-ply
1,Open,M,60,1968,Tagy Parnian,58.99,Netherlands,182.5,187.5,195,195,195,,B,Single-ply
2,Open,M,60,1953,Hiroyuki Isagawa,59.22,Japan,175,185,195,195,195,,B,Single-ply
3,Open,M,60,1963,Hsayuki Nakayama,57.44,Japan,180,-185,192.5,192.5,192.5,,B,Single-ply
4,Open,M,60,1981,Ayrat Zakiev,59.3,Russia,170,180,190,190,190,,B,Single-ply
5,Open,M,60,1967,Magnus Carlsson,59.9,Sweden,172.5,-182.5,-187.5,172.5,172.5,,B,Single-ply
6,Open,M,60,1978,Miroslaw Hermann,59.66,Poland,155,165,-172.5,165,165,,B,Single-ply
7,Open,M,60,1982,Tsung-Ting Hsieh,59.11,Taiwan,150,-155,155,155,155,,B,Single-ply
8,Open,M,60,1980,László Tóth,57.88,Hungary,135,140,145,145,145,,B,Single-ply
9,Open,M,60,1984,Chih-Luan Su,59.55,Taiwan,140,-145,-145,140,140,,B,Single-ply
10,Open,M,60,1950,Joachim Lietzau,59.8,Germany,110,120,-125,120,120,,B,Single-ply
11,Open,M,60,1975,Ruis Pas Ferreira,59.66,Luxembourg,100,107.5,110,110,110,,B,Single-ply
1,Open,M,67.5,1966,Alphonse Cucuzella,67,France,185,190,-192.5,190,190,,B,Single-ply
2,Open,M,67.5,1973,Paweł Pracownik,67.4,Poland,187.5,-192.5,-195,187.5,187.5,,B,Single-ply
3,Open,M,67.5,1963,Marku Stappenbeck,66.2,Germany,182.5,-187.5,-190,182.5,182.5,,B,Single-ply
4,Open,M,67.5,1962,Lance Slaughter,67.2,USA,182.5,-187.5,-192.5,182.5,182.5,,B,Single-ply
5,Open,M,67.5,1971,Roman Zuzuk,67.33,Ukraine,177.5,182.5,-185,182.5,182.5,,B,Single-ply
6,Open,M,67.5,1950,Claude Sitruk,61.9,France,150,157.5,165,165,165,,B,Single-ply
7,Open,M,67.5,1970,Vladimír Nebola,67,Czechia,150,157.5,-160,157.5,157.5,,B,Single-ply
8,Open,M,67.5,1974,Richard Lettner,67.4,Austria,150,155,-157.5,155,155,,B,Single-ply
9,Open,M,67.5,1974,Jean-Sébastien Rhéaume,66.6,Canada,130,140,-147.5,140,140,,B,Single-ply
DQ,Open,M,67.5,1979,Niklas Jönsson,66.1,Sweden,-182.5,-182.5,-182.5,,,,B,Single-ply
DQ,Open,M,67.5,1966,Oleksa Chernyshov,67.5,Ukraine,-170,-170,-170,,,,B,Single-ply
1,Open,M,75,1979,Daiki Kodama,71.99,Japan,-225,-225,225,225,225,,B,Single-ply
2,Open,M,75,1973,Keisuke Takahashi,74.66,Japan,-225,225,-232.5,225,225,,B,Single-ply
3,Open,M,75,1976,Istan Juhasz,75,Hungary,-197.5,-202.5,207.5,207.5,207.5,,B,Single-ply
4,Open,M,75,1974,Zabolzs Könye,74.44,Hungary,202.5,-207.5,-207.5,202.5,202.5,,B,Single-ply
5,Open,M,75,1968,Andreas Zeilinger,74.22,Austria,195,-202.5,-202.5,195,195,,B,Single-ply
6,Open,M,75,1973,Bryan Leadbetter,74,UK,170,180,-195,180,180,,B,Single-ply
7,Open,M,75,1970,Gerhard Vallazza,73.4,Austria,67.5,172.5,-177.5,172.5,172.5,,B,Single-ply
8,Open,M,75,1962,Erik Rasmussen,75,Denmark,165,172.5,-180,172.5,172.5,,B,Single-ply
9,Open,M,75,1968,Antoine Breton,67.9,France,150,162.5,-172.5,162.5,162.5,,B,Single-ply
10,Open,M,75,1958,Raymond Fixmer,74.22,Luxembourg,140,-147.5,-147.5,140,140,,B,Single-ply
DQ,Open,M,75,1960,Michael Hara,73.7,USA,-227.5,-230,-230,,,,B,Single-ply
DQ,Open,M,75,,Andrey Tchesnokov,74.8,Russia,-205,-205,-205,,,,B,Single-ply
DQ,Open,M,75,1954,Larry Miller,74.8,USA,-230,-230,-230,,,,B,Single-ply
DQ,Open,M,75,1977,Volodym Narolskyy,75,Ukraine,-192.5,-202.5,-202.5,,,,B,Single-ply
1,Open,M,82.5,1969,Alexey Vorobyev,81.9,Russia,240,-245,252.5,252.5,252.5,,B,Single-ply
2,Open,M,82.5,1980,Yuji Watanabe,80.7,Japan,225,235,-245,235,235,,B,Single-ply
3,Open,M,82.5,1965,Jan Wegiera,82,Poland,215,222.5,-227.5,222.5,222.5,,B,Single-ply
4,Open,M,82.5,1976,Gerhard Grossbeck,81.6,Austria,190,200,-210,200,200,,B,Single-ply
5,Open,M,82.5,1959,Didier Compain,81.8,France,-200,-200,200,200,200,,B,Single-ply
6,Open,M,82.5,1979,Gregory Thomas,82.3,France,195,-200,-200,195,195,,B,Single-ply
7,Open,M,82.5,1973,Vladimír Urban #1,82.4,Slovakia,185,190,-197.5,190,190,,B,Single-ply
8,Open,M,82.5,1969,Soltani Farshid,81.41,Iran,-162.5,162.5,177.5,177.5,177.5,,B,Single-ply
9,Open,M,82.5,1976,Thierry Juncker,80.7,Luxembourg,157.5,165,170,170,170,,B,Single-ply
10,Open,M,82.5,1974,Naraya Niripendra,82.5,India,-145,145,-150,145,145,,B,Single-ply
DQ,Open,M,82.5,1952,Susumu Otani,80.3,Japan,-235,-235,-235,,,,B,Single-ply
DQ,Open,M,82.5,1969,Tibor Kustán,81.4,Hungary,-220,-220,-225,,,,B,Single-ply
1,Open,M,90,1965,Joseph McAuliffe,89.22,USA,242.5,247.5,255,255,255,,B,Single-ply
2,Open,M,90,1967,László Kupcsik,88.6,Hungary,247.5,-252.5,-252.5,247.5,247.5,,B,Single-ply
3,Open,M,90,1981,Ivan Freydun,89.33,Ukraine,240,-247.5,247.5,247.5,247.5,,B,Single-ply
4,Open,M,90,1965,Genädijs Zubriks,86.6,Latvia,-235,235,242.5,242.5,242.5,,B,Single-ply
5,Open,M,90,1968,Dennis Cieri,89,USA,-242.5,-242.5,242.5,242.5,242.5,,B,Single-ply
6,Open,M,90,1978,Yoichi Kishimoto,89.88,Japan,242.5,-250,-252.5,242.5,242.5,,B,Single-ply
7,Open,M,90,1977,Wieslaw Grabski,89.8,Poland,235,-242.5,-245,235,235,,B,Single-ply
8,Open,M,90,1973,Florindo Pinhero,87.11,Portugal,-220,225,-232.5,225,225,,B,Single-ply
9,Open,M,90,1965,Claude Brück,85.7,Luxembourg,220,-227.5,-227.5,220,220,,B,Single-ply
10,Open,M,90,1975,Philippe Neto,89.7,France,-207.5,207.5,-210,207.5,207.5,,B,Single-ply
11,Open,M,90,1974,Andreas Schulz,88.55,Germany,200,-207.5,-207.5,200,200,,B,Single-ply
12,Open,M,90,1973,Roar Haugland,89.1,Norway,192.5,-202.5,-202.5,192.5,192.5,,B,Single-ply
13,Open,M,90,1978,Jonas Elliot,88.66,Canada,145,150,-155,150,150,,B,Single-ply
14,Open,M,90,1968,Rob Truchon,89.11,Canada,130,-140,,130,130,,B,Single-ply
DQ,Open,M,90,1967,Cheng-Ming Yang,88.4,Taiwan,-230,-230,-230,,,,B,Single-ply
DQ,Open,M,90,1963,Kimmo Pakarinen,89.44,Finland,-215,-215,-222.5,,,,B,Single-ply
1,Open,M,100,1971,Evgueniy Matasov,99.11,Russia,-250,-250,252.5,252.5,252.5,,B,Single-ply
2,Open,M,100,1965,Anthony Succarotte,98,USA,-240,250,-257.5,250,250,,B,Single-ply
3,Open,M,100,1974,Vital Ponomarenko,99.1,Ukraine,250,-255,-255,250,250,,B,Single-ply
4,Open,M,100,1975,Sergey Makrushyn,99.5,Ukraine,230,242.5,-250,242.5,242.5,,B,Single-ply
5,Open,M,100,1973,Shinichi Hara,99.44,Japan,-237.5,240,-252.5,240,240,,B,Single-ply
6,Open,M,100,1965,Sven Raskin,99.88,Germany,225,232.5,240,240,240,,B,Single-ply
7,Open,M,100,1969,Jarmo Sohlmann,97.2,Finland,230,235,-245,235,235,,B,Single-ply
8,Open,M,100,1966,Hans Dahlström,98.4,Sweden,235,-242.5,-245,235,235,,B,Single-ply
9,Open,M,100,1974,Tomi Turpeinen,99.7,Finland,230,235,-245,235,235,,B,Single-ply
10,Open,M,100,1978,Ladislav Marek,99,Czechia,220,230,-237.5,230,230,,B,Single-ply
11,Open,M,100,1967,István Hegedüs,98.3,Hungary,-227.5,227.5,-235,227.5,227.5,,B,Single-ply
12,Open,M,100,1975,Simon Weaver,99.5,New Zealand,190,-197.5,-197.5,190,190,,B,Single-ply
13,Open,M,100,1967,Fabrice Pacini,95.4,Luxembourg,180,187.5,-192.5,187.5,187.5,,B,Single-ply
14,Open,M,100,1970,Turgut Eser,98.1,Belgium,172.5,-175,,172.5,172.5,,B,Single-ply
15,Open,M,100,1966,Greg Xenoporus,99.33,South Africa,172.5,-185,-185,172.5,172.5,,B,Single-ply
DQ,Open,M,100,1976,Richard Twycross-Lewis,97.6,UK,-227.5,-227.5,-227.5,,,,B,Single-ply
DQ,Open,M,100,1976,Matthias Marten,98.4,Germany,-222.5,-222.5,-230,,,,B,Single-ply
1,Open,M,110,1968,László Mészáros,109.8,Hungary,285.5,290,295,295,295,,B,Single-ply
2,Open,M,110,1976,Pat Wilson,103.2,USA,262.5,272.5,-275,272.5,272.5,,B,Single-ply
3,Open,M,110,1964,Dave Doan,108.3,USA,-260,260,-267.5,260,260,,B,Single-ply
4,Open,M,110,1970,Yuriy Khuazhev,108.7,Russia,240,250,-262.5,250,250,,B,Single-ply
5,Open,M,110,1966,Marcus Hoen,109,Germany,225,232.5,240,240,240,,B,Single-ply
6,Open,M,110,1967,Uģis Vācietis,107.8,Latvia,230,-235,-235,230,230,,B,Single-ply
7,Open,M,110,1967,Achim Kircher,108,Germany,225,-235,-235,225,225,,B,Single-ply
8,Open,M,110,1971,Matthew Cosmo,107.99,South Africa,200,210,-220,210,210,,B,Single-ply
9,Open,M,110,1980,P.Kumar Palansamy,108,India,125,130,-135,130,130,,B,Single-ply
DQ,Open,M,110,1968,Masashi Saito,108.4,Japan,-267.5,-267.5,-275,,,,B,Single-ply
1,Open,M,125,1973,Eduard Isakov,119.6,Russia,-282.5,282.5,-290,282.5,282.5,,B,Single-ply
2,Open,M,125,1977,Dariusz Mirowski,113.9,Poland,260,270,275,275,275,,B,Single-ply
3,Open,M,125,1966,Vladimir Maksimov,123.2,Russia,260,267.5,-275,267.5,267.5,,B,Single-ply
4,Open,M,125,1964,John Battye,116.7,UK,255,265,-272.5,265,265,,B,Single-ply
5,Open,M,125,1955,Oleg Gusev,122.66,Belarus,265,-275,-275,265,265,,B,Single-ply
6,Open,M,125,1972,Ove Lehto,124,Finland,257.5,265,-270,265,265,,B,Single-ply
7,Open,M,125,1974,Jiří Havrda,122.22,Czechia,240,252.5,257.5,257.5,257.5,,B,Single-ply
8,Open,M,125,1966,Kjell Furesund,121.7,Norway,235,250,-252.5,250,250,,B,Single-ply
9,Open,M,125,1974,Rolands Gulbis,123.2,Latvia,-235,235,242.5,242.5,242.5,,B,Single-ply
10,Open,M,125,1970,Andre VanHeerde,124.6,South Africa,240,-252.5,-270,240,240,,B,Single-ply
11,Open,M,125,1964,Thomas Roch,112.8,Germany,230,237.5,-242.5,237.5,237.5,,B,Single-ply
12,Open,M,125,1967,Ian Furman,124.5,South Africa,212.5,222.5,-230,222.5,222.5,,B,Single-ply
13,Open,M,125,1952,Antonín Šota,123.22,Czechia,210,-217.5,-222.5,210,210,,B,Single-ply
14,Open,M,125,1968,Brian Armstrong,123.6,New Zealand,190,200,205,205,205,,B,Single-ply
15,Open,M,125,1957,Daniel Royer,116.7,Canada,200,-207.5,-207.5,200,200,,B,Single-ply
16,Open,M,125,1962,Lutz Stoppa,119.66,Germany,200,-207.5,-207.5,200,200,,B,Single-ply
1,Open,M,125+,1972,Daisuke Midote,136,Japan,300,-310,-310,300,300,,B,Single-ply
2,Open,M,125+,1964,Ulf Wiklund,161.9,Sweden,290,-297.5,-302.5,290,290,,B,Single-ply
3,Open,M,125+,1975,Kenneth Sandvik,137.2,Finland,-270,275,287.5,287.5,287.5,,B,Single-ply
4,Open,M,125+,1965,Niels Stærkjær,164.77,Denmark,-282.5,287.5,-292.5,287.5,287.5,,B,Single-ply
5,Open,M,125+,1970,Mike Hodge,163.9,USA,275,282.5,-292.5,282.5,282.5,,B,Single-ply
6,Open,M,125+,1978,Florent Veldeman,210.44,Belgium,255,260,-265,260,260,,B,Single-ply
7,Open,M,125+,1974,Zdeněk Sedmík,140.3,Czechia,-250,250,-290,250,250,,B,Single-ply
8,Open,M,125+,1964,Ivan Hritz,131,Slovakia,-230,237.5,-250,237.5,237.5,,B,Single-ply
9,Open,M,125+,1972,Simon Bukowski,126.1,Germany,220,-230,-230,220,220,,B,Single-ply
10,Open,M,125+,1966,Andrew Thompson #1,135.88,UK,220,-230,-230,220,220,,B,Single-ply
11,Open,M,125+,1966,Frascicus Naude,152.6,South Africa,-200,200,212.5,212.5,212.5,,B,Single-ply
12,Open,M,125+,1962,Gunt Hildenbrants,142.1,Latvia,210,-220,-222.5,210,210,,B,Single-ply
DQ,Open,M,125+,1968,Jan Lundberg,138.22,Sweden,-285,-290,-302.5,,,,B,Single-ply
